well;flask;fluct;statut;strain;monoA;monoC;wellA;wellC
.A01;1;7-7;old;A;;;;
.A02;2;7-7;old;A;;;;
.A03;3;7-7;old;A;;;;
.A04;4;7-7;old;A;;;;
.A05;5;7-7;old;A;;;;
.A06;6;7-7;old;A;;;;
.A07;7;7-7;old;A;;;;
.A08;8;7-7;old;A;;;;
.A09;9;7-7;old;A;;;;
.A10;10;7-7;old;A;;;;
.B01;11;7-7;old;C;;;;
.B02;12;7-7;old;C;;;;
.B03;13;7-7;old;C;;;;
.B04;14;7-7;old;C;;;;
.B05;15;7-7;old;C;;;;
.B06;16;7-7;old;C;;;;
.B07;17;7-7;old;C;;;;
.B08;18;7-7;old;C;;;;
.B09;19;7-7;old;C;;;;
.B10;20;7-7;old;C;;;;
.C01;21;7-7;old;A+C;1;11;.A01;.B01
.C02;22;7-7;old;A+C;2;12;.A02;.B02
.C03;23;7-7;old;A+C;3;13;.A03;.B03
.C04;24;7-7;old;A+C;4;14;.A04;.B04
.C05;25;7-7;old;A+C;5;15;.A05;.B05
.C06;26;7-7;old;A+C;6;16;.A06;.B06
.C07;27;7-7;old;A+C;7;17;.A07;.B07
.C08;28;7-7;old;A+C;8;18;.A08;.B08
.C09;29;7-7;old;A+C;9;19;.A09;.B09
.C10;30;7-7;old;A+C;10;20;.A10;.B10
_suite.A01;31;7-7;new;A+C;1;11;.A01;.B01
_suite.A02;32;7-7;new;A+C;2;12;.A02;.B02
_suite.A03;33;7-7;new;A+C;3;13;.A03;.B03
_suite.A04;34;7-7;new;A+C;4;14;.A04;.B04
_suite.A05;35;7-7;new;A+C;5;15;.A05;.B05
_suite.A06;36;7-7;new;A+C;6;16;.A06;.B06
_suite.A07;37;7-7;new;A+C;7;17;.A07;.B07
_suite.A08;38;7-7;new;A+C;8;18;.A08;.B08
_suite.A09;39;7-7;new;A+C;9;19;.A09;.B09
_suite.A10;40;7-7;new;A+C;10;20;.A10;.B10
.E01;41;4-10;old;A;;;;
.E02;42;4-10;old;A;;;;
.E03;43;4-10;old;A;;;;
.E04;44;4-10;old;A;;;;
.E05;45;4-10;old;A;;;;
.E06;46;4-10;old;A;;;;
.E07;47;4-10;old;A;;;;
.E08;48;4-10;old;A;;;;
.E09;49;4-10;old;A;;;;
.E10;50;4-10;old;A;;;;
_suite.C01;51;4-10;old;C;;;;
_suite.C02;52;4-10;old;C;;;;
_suite.C03;53;4-10;old;C;;;;
_suite.C04;54;4-10;old;C;;;;
_suite.C05;55;4-10;old;C;;;;
_suite.C06;56;4-10;old;C;;;;
_suite.C07;57;4-10;old;C;;;;
_suite.C08;58;4-10;old;C;;;;
_suite.C09;59;4-10;old;C;;;;
_suite.C10;60;4-10;old;C;;;;
_suite.D01;61;4-10;old;A+C;41;51;.E01;_suite.C01
_suite.D02;62;4-10;old;A+C;42;52;.E02;_suite.C02
_suite.D03;63;4-10;old;A+C;43;53;.E03;_suite.C03
_suite.D04;64;4-10;old;A+C;44;54;.E04;_suite.C04
_suite.D05;65;4-10;old;A+C;45;55;.E05;_suite.C05
_suite.D06;66;4-10;old;A+C;46;56;.E06;_suite.C06
_suite.D07;67;4-10;old;A+C;47;57;.E07;_suite.C07
_suite.D08;68;4-10;old;A+C;48;58;.E08;_suite.C08
_suite.D09;69;4-10;old;A+C;49;59;.E09;_suite.C09
_suite.D10;70;4-10;old;A+C;50;60;.E10;_suite.C10
_suite.E01;71;4-10;new;A+C;41;51;.E01;_suite.C01
_suite.E02;72;4-10;new;A+C;42;52;.E02;_suite.C02
_suite.E03;73;4-10;new;A+C;43;53;.E03;_suite.C03
_suite.E04;74;4-10;new;A+C;44;54;.E04;_suite.C04
_suite.E05;75;4-10;new;A+C;45;55;.E05;_suite.C05
_suite.E06;76;4-10;new;A+C;46;56;.E06;_suite.C06
_suite.E07;77;4-10;new;A+C;47;57;.E07;_suite.C07
_suite.E08;78;4-10;new;A+C;48;58;.E08;_suite.C08
_suite.E09;79;4-10;new;A+C;49;59;.E09;_suite.C09
_suite.E10;80;4-10;new;A+C;50;60;.E10;_suite.C10
