well;flask;fluct;statut;strain;monoA;monoC;wellA;wellC
.A01;21;7-7;old;A+C;1;11;.A01;.B01
.A02;22;7-7;old;A+C;2;12;.A02;.B02
.A03;23;7-7;old;A+C;3;13;.A03;.B03
.A04;24;7-7;old;A+C;4;14;.A04;.B04
.A05;25;7-7;old;A+C;5;15;.A05;.B05
.A06;26;7-7;old;A+C;6;16;.A06;.B06
.A07;27;7-7;old;A+C;7;17;.A07;.B07
.A08;28;7-7;old;A+C;8;18;.A08;.B08
.A09;29;7-7;old;A+C;9;19;.A09;.B09
.A10;30;7-7;old;A+C;10;20;.A10;.B10