well;flask;fluct;statut;strain;monoA;monoC;wellA;wellC
.A01;61;4-10;old;A+C;41;51;.E01;.F01
.A02;62;4-10;old;A+C;42;52;.E02;.F02
.A03;63;4-10;old;A+C;43;53;.E03;.F03
.A04;64;4-10;old;A+C;44;54;.E04;.F04
.A05;65;4-10;old;A+C;45;55;.E05;.F05
.A06;66;4-10;old;A+C;46;56;.E06;.F06
.A07;67;4-10;old;A+C;47;57;.E07;.F07
.A08;68;4-10;old;A+C;48;58;.E08;.F08
.A09;69;4-10;old;A+C;49;59;.E09;.F09
.A10;70;4-10;old;A+C;50;60;.E10;.F10
