well;flask;fluct;statut;strain;monoA;monoC;wellA;wellC
.F01;21;7-7;old;A+C;1;11;.A01;.B01
.F02;22;7-7;old;A+C;2;12;.A02;.B02
.F03;23;7-7;old;A+C;3;13;.A03;.B03
.F04;24;7-7;old;A+C;4;14;.A04;.B04
.F05;25;7-7;old;A+C;5;15;.A05;.B05
.F06;26;7-7;old;A+C;6;16;.A06;.B06
.F07;27;7-7;old;A+C;7;17;.A07;.B07
.F08;28;7-7;old;A+C;8;18;.A08;.B08
.F09;29;7-7;old;A+C;9;19;.A09;.B09
.F10;30;7-7;old;A+C;10;20;.A10;.B10
.G01;61;4-10;old;A+C;41;51;.E01;.F01
.G02;62;4-10;old;A+C;42;52;.E02;.F02
.G03;63;4-10;old;A+C;43;53;.E03;.F03
.G04;64;4-10;old;A+C;44;54;.E04;.F04
.G05;65;4-10;old;A+C;45;55;.E05;.F05
.G06;66;4-10;old;A+C;46;56;.E06;.F06
.G07;67;4-10;old;A+C;47;57;.E07;.F07
.G08;68;4-10;old;A+C;48;58;.E08;.F08
.G09;69;4-10;old;A+C;49;59;.E09;.F09
.G10;70;4-10;old;A+C;50;60;.E10;.F10