well;flask;fluct;statut;strain;monoA;monoC;wellA;wellC
.A01;21;7-7;old;A+C;1;11;.A01;.B01
.A02;22;7-7;old;A+C;2;12;.A02;.B02
.A03;23;7-7;old;A+C;3;13;.A03;.B03
.A04;24;7-7;old;A+C;4;14;.A04;.B04
.A05;25;7-7;old;A+C;5;15;.A05;.B05
.A06;26;7-7;old;A+C;6;16;.A06;.B06
.A07;27;7-7;old;A+C;7;17;.A07;.B07
.A08;28;7-7;old;A+C;8;18;.A08;.B08
.A09;29;7-7;old;A+C;9;19;.A09;.B09
.A10;30;7-7;old;A+C;10;20;.A10;.B10
.B01;61;4-10;old;A+C;41;51;.E01;.F01
.B02;62;4-10;old;A+C;42;52;.E02;.F02
.B03;63;4-10;old;A+C;43;53;.E03;.F03
.B04;64;4-10;old;A+C;44;54;.E04;.F04
.B05;65;4-10;old;A+C;45;55;.E05;.F05
.B06;66;4-10;old;A+C;46;56;.E06;.F06
.B07;67;4-10;old;A+C;47;57;.E07;.F07
.B08;68;4-10;old;A+C;48;58;.E08;.F08
.B09;69;4-10;old;A+C;49;59;.E09;.F09
.B10;70;4-10;old;A+C;50;60;.E10;.F10
