env;date;layout;after_shock
12;2021_05_31;14;0.04
12;2021_06_01;15;1
12;2021_06_07;16;7
12;2021_06_10;13;10
14;2021_06_14;12;0.04
14;2021_06_15;11;1
14;2021_06_21;17;7
14;2021_06_24;13;10
16;2021_06_28;12;0.04
16;2021_06_29;11;1
16;2021_07_05;11;7
16;2021_07_08;18;10
18;2021_07_12;12;0.04
18;2021_07_13;11;1
18;2021_07_20;11;8
18;2021_07_23;13;11
20;2021_07_27;12;0.04
20;2021_07_28;11;1
20;2021_08_03;11;7
20;2021_08_06;13;10
22;2021_08_10;12;0.04
22;2021_08_11;11;1
22;2021_08_17;11;7
22;2021_08_20;13;10
24;2021_08_24;12;0.04
24;2021_08_25;11;1
24;2021_08_26;11;2
24;2021_08_27;11;3
24;2021_08_28;11;4
24;2021_08_30;11;6
24;2021_08_31;11;7
24;2021_09_01;11;8
24;2021_09_02;11;9
24;2021_09_03;11;10
26;2021_09_07;12;0.04
26;2021_09_08;11;1
26;2021_09_10;11;3
26;2021_09_11;11;4
26;2021_09_13;11;6
26;2021_09_15;11;8
26;2021_09_16;11;9
26;2021_09_17;13;10