"flask";"after_shock";"previous_day";"v_inhibitor";"nA_i";"nA_i_1";"nC_i";"nC_i_1";"relative_rA";"relative_rC"
31;4;3;10;102032.825216695;100226.748142138;74269.1747833046;15664.2518578622;0.0180199109323225;3.74131643548793
31;5;4;10;124908.971132774;102032.825216695;124247.028867226;74269.1747833046;0.224203788021102;0.672928630616167
31;6;5;10;127746.565809839;124908.971132774;202427.434190161;124247.028867226;0.0227173008578321;0.62923360047893
31;7;6;10;222411.451643345;127746.565809839;223473.548356655;202427.434190161;0.74103663948526;0.103968685127548
31;8;7;10;306173.988769783;222411.451643345;236612.011230217;223473.548356655;0.376610720839855;0.058792026931943
31;9;8;10;384008.667003134;306173.988769783;235363.332996866;236612.011230217;0.254217148053931;-0.00527732394842607
31;10;9;10;474781.644888506;384008.667003134;223516.355111495;235363.332996866;0.236382628011443;-0.0503348492499867
32;7;6;10;258989.657966409;140765.352411953;105166.342033591;127290.647588047;0.839867932902061;-0.173809356568426
32;8;7;10;289847.20758347;258989.657966409;127810.79241653;105166.342033591;0.119145875782664;0.215320319648532
32;9;8;10;358194.29848177;289847.20758347;80541.7015182295;127810.79241653;0.235803861862696;-0.369836459070316
32;10;9;10;407425.463065146;358194.29848177;91885.5369348545;80541.7015182295;0.137442624832513;0.140844248417789
33;5;4;10;150533.603221858;130896.816305658;86207.3967781416;31986.1836943423;0.150017299659503;1.69514480382947
33;6;5;10;202858.283241176;150533.603221858;118651.716758824;86207.3967781416;0.347594682512187;0.37635192794627
33;7;6;10;284354.180104498;202858.283241176;145974.819895502;118651.716758824;0.401738078234807;0.230279880334272
33;8;7;10;326357.029555216;284354.180104498;175940.970444783;145974.819895502;0.147713142234389;0.205283010938002
33;9;8;10;372761.374350216;326357.029555216;200783.625649784;175940.970444783;0.142188893121876;0.141198807430683
33;10;9;10;406007.208111738;372761.374350216;237676.791888262;200783.625649784;0.0891879793593821;0.183745891225357
34;5;4;10;171633.766056557;141279.685676411;73422.233943443;14953.3143235893;0.214850990323335;3.91009767831987
34;6;5;10;213413.819186804;171633.766056557;120200.180813196;73422.233943443;0.243425603773557;0.637108738829522
34;7;6;10;289291.106426987;213413.819186804;145796.893573013;120200.180813196;0.3555406464741;0.212950700961066
34;8;7;10;340742.553632354;289291.106426987;190715.446367646;145796.893573013;0.1778535394359;0.308089916690429
34;9;8;10;361928.127282327;340742.553632354;221115.872717673;190715.446367646;0.0621747223061277;0.159402014514462
34;10;9;10;459735.953041699;361928.127282327;221908.046958301;221115.872717673;0.270241018551941;0.0035826204192899
35;4;3;10;87856.4872508433;14252.4211380238;43387.5127491567;69755.5788619762;5.16432018111313;-0.378006555790948
35;5;4;10;87994.004791371;87856.4872508433;97591.995208629;43387.5127491567;0.00156525197888989;1.24931066624753
35;6;5;10;110435.257711331;87994.004791371;131818.742288669;97591.995208629;0.25503161236004;0.350712648172329
35;7;6;10;136747.01531535;110435.257711331;168236.98468465;131818.742288669;0.238255047792756;0.276275146945564
35;8;7;10;143171.705075807;136747.01531535;221215.294924193;168236.98468465;0.0469823033844004;0.314902875481557
35;9;8;10;165008.265858124;143171.705075807;279107.734141877;221215.294924193;0.152520086079539;0.261701792534384
35;10;9;10;216097.890981766;165008.265858124;277515.109018234;279107.734141877;0.309618580972;-0.00570613038918236
36;4;3;10;102718.587565891;73069.2325200707;44997.4124341093;19109.7674799293;0.405770719401985;1.35468131579148
36;5;4;10;141137.305119991;102718.587565891;82212.6948800093;44997.4124341093;0.374019137767599;0.827053833381977
36;6;5;10;156346.045112778;141137.305119991;141930.954887222;82212.6948800093;0.107758469526236;0.726387330987898
36;7;6;10;219166.688508127;156346.045112778;192850.311491873;141930.954887222;0.401805132646838;0.358761460071286
36;8;7;10;302775.815959817;219166.688508127;196883.184040183;192850.311491873;0.381486475069817;0.0209119317314666
36;9;8;10;359473.532125434;302775.815959817;180199.467874566;196883.184040183;0.187259725437062;-0.0847391627017393
36;10;9;10;423835.919043715;359473.532125434;188944.080956285;180199.467874566;0.179046247265354;0.0485274079044808
37;4;3;10;98382.8685903686;74864.1927990876;57275.1314096314;32337.8072009124;0.31415119714705;0.771150747908951
37;5;4;10;142185.917017099;98382.8685903686;79874.0829829011;57275.1314096314;0.445230445649136;0.394568305948391
37;6;5;10;174536.655965579;142185.917017099;134592.344034421;79874.0829829011;0.227524213558997;0.68505651655786
37;7;6;10;219303.76130843;174536.655965579;208493.23869157;134592.344034421;0.256491137034728;0.549072053000651
37;8;7;10;277099.981953835;219303.76130843;251582.018046165;208493.23869157;0.263544137595163;0.20666751413621
37;9;8;10;320773.197819076;277099.981953835;257864.802180924;251582.018046165;0.157608151243102;0.0249731049283751
37;10;9;10;375703.423491462;320773.197819076;277035.576508538;257864.802180924;0.17124319003537;0.0743442849333267
38;4;3;10;71683.6312937486;13606.7710394861;57082.3687062514;70687.2289605139;4.26823234445016;-0.192465604527548
38;5;4;10;147197.947931719;71683.6312937486;39912.0520682808;57082.3687062514;1.05343877360962;-0.300798951184557
38;6;5;10;166581.067824166;147197.947931719;89619.9321758337;39912.0520682808;0.131680639334988;1.24543533924323
38;7;6;10;197716.639658737;166581.067824166;152751.360341263;89619.9321758337;0.186909426390731;0.704435125453634
38;8;7;10;206015.762422316;197716.639658737;239526.237577684;152751.360341263;0.0419748321532462;0.568079243566513
38;9;8;10;216593.964503672;206015.762422316;277108.035496328;239526.237577684;0.0513465666751813;0.156900547926219
38;10;9;10;275273.537101052;216593.964503672;263549.462898948;277108.035496328;0.270919703288342;-0.04892883229855
39;7;6;10;315533.833107461;207978.881002614;27814.1668925392;58328.1189973858;0.517143623363829;-0.523143084833821
39;8;7;10;397297.009199462;315533.833107461;16691.9908005376;27814.1668925392;0.259126494571996;-0.399874500464904
39;9;8;10;395105.226626727;397297.009199462;49867.7733732735;16691.9908005376;-0.0055167356460906;1.9875270103592
39;10;9;10;364203.480386482;395105.226626727;106013.519613518;49867.7733732735;-0.0782114337086177;1.12589238384435
40;6;5;10;172737.27839549;82908.5610696116;157004.72160451;139352.438930388;1.08346733035756;0.126673654294198
40;7;6;10;233615.839995163;172737.27839549;205658.160004837;157004.72160451;0.352434414650717;0.30988519264334
40;8;7;10;289442.814000322;233615.839995163;238402.185999678;205658.160004837;0.238969129860009;0.159215787956435
40;9;8;10;254549.504026516;289442.814000322;316597.495973484;238402.185999678;-0.120553381483389;0.327997453739422
40;10;9;10;98639.5429066662;254549.504026516;511872.457093334;316597.495973484;-0.612493674721946;0.616792500267292
41;4;3;0;30149.814698039;14211.5496419909;104768.185301961;54229.4503580091;1.12150085371093;0.931942599644806
41;5;4;0;101582.961664162;30149.814698039;145994.038335838;104768.185301961;2.36927316739922;0.393495915912422
41;6;5;0;126768.00279258;101582.961664162;201946.99720742;145994.038335838;0.247925840277045;0.383255093902329
41;7;6;0;219999.488800229;126768.00279258;223228.511199771;201946.99720742;0.735449671477404;0.105381680770882
41;8;7;0;312697.408254446;219999.488800229;251009.591745554;223228.511199771;0.421355158413081;0.124451309541374
41;9;8;0;382634.214879539;312697.408254446;267063.785120461;251009.591745554;0.223656495957216;0.063958485662896
41;10;9;0;453379.21129383;382634.214879539;256672.78870617;267063.785120461;0.184889363426539;-0.0389082945469543
42;7;6;0;314093.000301272;208246.688679927;25947.9996987282;54311.311320073;0.508273683928917;-0.522235809299304
42;8;7;0;369591.967043473;314093.000301272;46890.0329565271;25947.9996987282;0.176695968038026;0.807076980921397
42;9;8;0;431440.142605598;369591.967043473;15008.8573944022;46890.0329565271;0.167341774381287;-0.679913694914285
42;10;9;0;451577.268916943;431440.142605598;29647.7310830569;15008.8573944022;0.046674206506912;0.975348975873043
43;5;4;0;129073.280947307;92868.7283916577;89344.7190526929;34461.2716083423;0.3898465412702;1.59261236985418
43;6;5;0;186565.083909347;129073.280947307;117525.916090653;89344.7190526929;0.445419861803236;0.315420959814533
43;7;6;0;235208.673356705;186565.083909347;138042.326643295;117525.916090653;0.26073254666985;0.174569245959473
43;8;7;0;296956.540248332;235208.673356705;177267.459751668;138042.326643295;0.262523766706438;0.284152941073881
43;9;8;0;351716.847730482;296956.540248332;181946.152269518;177267.459751668;0.184405123511866;0.0263934087192557
43;10;9;0;413189.937977124;351716.847730482;197546.062022876;181946.152269518;0.174780055727523;0.085739157210917
44;5;4;0;150858.84150217;116148.314821227;70885.1584978296;13841.6851787733;0.298846580205399;4.12113644995585
44;6;5;0;195047.693153373;150858.84150217;115739.306846627;70885.1584978296;0.292915225990029;0.632772068220334
44;7;6;0;234820.762682059;195047.693153373;177338.237317941;115739.306846627;0.203914585636302;0.532221352880068
44;8;7;0;258631.337615432;234820.762682059;245698.662384568;177338.237317941;0.101398933643751;0.385480458701453
44;9;8;0;328416.485513999;258631.337615432;238707.514486001;245698.662384568;0.269824795950802;-0.0284541553084425
44;10;9;0;409661.15351496;328416.485513999;230803.84648504;238707.514486001;0.247383038259501;-0.0331102605545507
45;4;3;0;42025.1208952369;14536.8352226669;65492.8791047631;48740.1647773331;1.8909401703686;0.34371476592178
45;5;4;0;92703.0866588826;42025.1208952369;82287.9133411174;65492.8791047631;1.20589696553115;0.25644061562004
45;6;5;0;106955.865570068;92703.0866588826;140580.134429932;82287.9133411174;0.153746540971511;0.708393477510716
45;7;6;0;181103.080025852;106955.865570068;146548.919974148;140580.134429932;0.693250567050101;0.042458243253359
45;8;7;0;132171.370087601;181103.080025852;279525.629912399;146548.919974148;-0.270187066565991;0.907387853569367
45;9;8;0;142682.76718461;132171.370087601;329971.23281539;279525.629912399;0.0795285475972776;0.180468613625162
45;10;9;0;163943.726532123;142682.76718461;377408.273467877;329971.23281539;0.149008599756156;0.143761140168929
46;4;3;0;54439.8459981445;23267.4510984347;57777.1540018555;34476.5489015653;1.33974257720937;0.675839254294744
46;5;4;0;103961.234258543;54439.8459981445;90567.7657414571;57777.1540018555;0.909653349535305;0.567535945757186
46;6;5;0;169610.887012541;103961.234258543;115004.112987459;90567.7657414571;0.631482044458347;0.269812852795335
46;7;6;0;248464.251298405;169610.887012541;129201.748701595;115004.112987459;0.464907445947345;0.123453286541884
46;8;7;0;315209.785031295;248464.251298405;166645.214968705;129201.748701595;0.268632342013373;0.289806187945565
46;9;8;0;405100.614270614;315209.785031295;180341.385729386;166645.214968705;0.285177787962372;0.082187602945892
46;10;9;0;424327.60519166;405100.614270614;188183.39480834;180341.385729386;0.0474622605933698;0.0434842454339424
47;4;3;0;59746.2436031707;26874.9528427593;62709.7563968293;38008.0471572407;1.22311994193015;0.649907350866955
47;5;4;0;106308.229829751;59746.2436031707;100785.770170249;62709.7563968293;0.779329099513615;0.607178467294206
47;6;5;0;159495.070171709;106308.229829751;134303.929828291;100785.770170249;0.500307835311861;0.332568373505724
47;7;6;0;235727.260210993;159495.070171709;170581.739789007;134303.929828291;0.477959537916834;0.270117263188787
47;8;7;0;285416.49391384;235727.260210993;217166.50608616;170581.739789007;0.210791207000718;0.27309351138506
47;9;8;0;352290.510168125;285416.49391384;246823.489831875;217166.50608616;0.234303264458404;0.136563341558523
47;10;9;0;379900.022580302;352290.510168125;253175.977419698;246823.489831875;0.0783714338458932;0.025736965278912
48;4;3;0;41406.0308122636;27094.0834398314;79412.9691877364;36469.9165601686;0.52823146441603;1.17749248361234
48;5;4;0;50182.5960119504;41406.0308122636;137168.40398805;79412.9691877364;0.211963451398663;0.727279629398775
48;6;5;0;73698.4145091667;50182.5960119504;194235.585490833;137168.40398805;0.468605061635637;0.416037366066864
48;7;6;0;132225.671099374;73698.4145091667;199414.328900626;194235.585490833;0.794145396206963;0.0266621762263906
48;8;7;0;163425.261710854;132225.671099374;248105.738289146;199414.328900626;0.23595713564601;0.244172069564693
48;9;8;0;256798.245296365;163425.261710854;240233.754703635;248105.738289146;0.571349757118427;-0.0317283414716411
48;10;9;0;313645.697401843;256798.245296365;207523.302598157;240233.754703635;0.221370095577839;-0.13616093269587
49;4;3;0;53283.5256948459;21913.9077948587;68340.4743051541;36260.0922051413;1.43149356078549;0.884729744163863
49;7;6;0;212620.590891903;182453.485419196;149836.409108097;97830.5145808042;0.165341349349378;0.531591750796099
49;8;7;0;319334.834633375;212620.590891903;99119.1653666249;149836.409108097;0.501899855013225;-0.338484111060637
50;5;4;0;149487.507525336;104754.60578993;59644.4924746636;37710.3942100704;0.427025631933667;0.581645955287725
50;6;5;0;187753.05136571;149487.507525336;139438.94863429;59644.4924746636;0.255978204960627;1.33783443950876
50;7;6;0;218104.174302202;187753.05136571;208919.825697798;139438.94863429;0.161654485590078;0.498288876558716
50;8;7;0;295099.996920401;218104.174302202;223099.003079599;208919.825697798;0.353023149898611;0.0678689891418499
50;9;8;0;513632.771150402;295099.996920401;83146.2288495984;223099.003079599;0.740538043072049;-0.627312414211315
50;10;9;0;577023.135976383;513632.771150402;49893.8640236171;83146.2288495984;0.12341573276955;-0.399926313989909
