"after_shock","transfer","strain_cult","fluct","cycle","meanlogit","meanfreqA","meanfreqA_transf","var_mean","mean_var","meanlogit_weight","varlogit_weight","var_tot","sd_tot","IChigh_logitmean","IClow_logitmean","IChigh_tot","IClow_tot","meanfreqA_weight","sdlogit_weight","IChigh_logit_weight","IClow_logit_weight","IChigh_weight","IClow_weight","meanfreqA_weight_delta","IChigh_weight_delta","IClow_weight_delta","var_freqA_delta"
0.04,2,"A+C evolution","7-7","Cycle 1",-0.61729818983543,0.392402505984547,0.350396185089621,0.156563900342828,0.0142306683276769,-0.234943034320553,0.000936869488498396,0.170794568670505,0.413272995331785,0.192716881014868,-1.42731326068573,0.548030658117524,0.193517654552959,0.44153293420356,0.0306083238433338,-0.174950719587619,-0.294935349053487,0.456373539045892,0.426796043529198,0.441546440959876,0.456383679329987,0.426812821646006,5.69639944753833e-05
0.04,2,"A+C evolution","4-10","Cycle 1",-1.89221758764237,0.370071569982507,0.130991828218037,1.45309875619385,33.6193436841412,0.28191855325794,0.00271861684955732,35.072442440335,5.92219912197615,9.71529269143088,-13.4997278667156,0.999939650207158,1.37133034020238e-06,0.570016519935816,0.0521403572058853,0.384113653381475,0.179723453134405,0.594864881724695,0.544810311803642,0.569969866059038,0.594802727350893,0.5447801009008,0.000163315133279422
0.04,2,"A+C control","7-7","Cycle 1",-1.73012377773036,0.154821374572062,0.150571747902195,0.00866582577208537,0.0188787256635102,-1.6197467279946,0.00155095021405486,0.0275445514355955,0.165965512789843,-1.40483137266227,-2.05541618279845,0.197050564724733,0.11350624909529,0.165239802457278,0.0393821052516858,-1.5425578017013,-1.69693565428791,0.176163753267997,0.154865910148886,0.1653114181295,0.176236645418794,0.154935969669966,2.95087394383462e-05
0.04,2,"A+C control","4-10","Cycle 1",-2.41369198276671,0.100286273672309,0.0821345554498982,0.0587256494499594,0.13484720813493,-1.65112869034018,0.00228989909890945,0.193572857584889,0.439969155265332,-1.55135243844666,-3.27603152708676,0.174891019863226,0.0364026647099566,0.160956462196712,0.0478528901834513,-1.55733702558062,-1.74492035509975,0.174029098661034,0.148689035801602,0.161061311302743,0.174136394232691,0.148790865679325,4.1764008494483e-05
0.04,4,"A+C evolution","7-7","Cycle 2",-1.27935509241082,0.268888355245073,0.217660021112628,0.137394873977115,0.0312154179411898,-0.742788100493689,0.00155746593153304,0.168610291918305,0.410621835656977,-0.474536294523142,-2.08417389029849,0.383543127057712,0.110644578113259,0.322394764061435,0.0394647428920174,-0.665437204425335,-0.820138996562043,0.339519278726501,0.305734155576421,0.32245519217735,0.339575327486426,0.305798377715247,7.43272426247719e-05
0.04,4,"A+C evolution","4-10","Cycle 2",-1.40047771959763,0.266695150296344,0.197740315499317,0.22170618925594,0.109530209611763,-0.720886408985324,0.00210982555643324,0.331236398867703,0.575531405631094,-0.272436164560684,-2.52851927463457,0.432309118221244,0.0738829001708374,0.327197819503301,0.0459328374524505,-0.630858047578521,-0.810914770392127,0.347316003589345,0.307695597936822,0.32727807846889,0.347389027960657,0.307782025874609,0.0001022450121501
0.04,4,"A+C control","7-7","Cycle 2",-1.82885232717824,0.146707102877962,0.138375050433035,0.0176234154143597,0.0406703768742367,-1.64953136638469,0.00284510403870223,0.0582937922885965,0.241441074153915,-1.35562782183656,-2.30207683251991,0.204951814725324,0.0909511046417432,0.161172296807463,0.0533395166710595,-1.54498591370942,-1.75407681905997,0.175811638209963,0.147533729462896,0.161302625555688,0.175945288427601,0.147659849543798,5.2002529871783e-05
0.04,4,"A+C control","4-10","Cycle 2",-2.28056247151586,0.0988108818839946,0.0927456137471955,0.0163152171555515,0.0376134559580401,-2.15814966654166,0.00246300047652353,0.0539286731135916,0.232225479036198,-1.82540053260491,-2.7357244104268,0.138787112860887,0.0608979631486296,0.103572119577446,0.0496286255756043,-2.06087756041348,-2.25542177266985,0.112957870061602,0.0948828188620581,0.1036627735637,0.11305338767852,0.0949685103226714,2.12315125485078e-05
0.04,6,"A+C evolution","7-7","Cycle 3",1.09673017423461,0.576156553886698,0.749646937521945,1.14813339352974,5.64862547991499,-0.394599615407578,0.00301639025335613,6.79675887344473,2.60705943036302,6.20656665774612,-4.0131063092769,0.997987908952975,0.0177561736013867,0.402610529033585,0.0549216738033004,-0.286953134753109,-0.502246096062047,0.428749953213539,0.377012973252973,0.40268118392409,0.428802591654387,0.377100106144999,0.000174490952439821
0.04,6,"A+C evolution","4-10","Cycle 3",0.634051507850919,0.597926462746473,0.653407560828792,0.24815640983637,0.301970656360325,0.0514234668396671,0.006221571418333,0.550127066196695,0.741705511774515,2.08779431092897,-0.819691295227131,0.889711177931366,0.305829193275868,0.512853034483355,0.0788769384442183,0.206022266190335,-0.103175332511001,0.551324156279184,0.474229024140912,0.512833056175794,0.551245168187935,0.474269001646577,0.000388334480099654
0.04,6,"A+C control","7-7","Cycle 3",-1.68794691086805,0.181512041103253,0.156046032172547,0.0656793400769155,0.0457720883728597,-1.38199254345695,0.00323075930348853,0.111451428449775,0.333843419060156,-1.03361380951014,-2.34228001222595,0.262384091905675,0.087681357501321,0.200689179180214,0.0568397686790554,-1.270586596846,-1.4933984900679,0.219156852918011,0.18341218050505,0.200844298778223,0.219312122825108,0.183565370314817,8.3135000114522e-05
0.04,6,"A+C control","4-10","Cycle 3",-4.37474654172194,0.031572977375358,0.0124347629716293,0.469574441681815,49.4948471865121,-3.11558020952255,0.0115555644315832,49.9644216281939,7.06855159337427,9.47961458129162,-18.2291076647355,0.999923612460584,1.21115332537461e-08,0.0424691418806044,0.107496811262396,-2.90488645944826,-3.32627395959685,0.051912535887935,0.0346807546222989,0.0426841415630202,0.0521673800012019,0.034860766715537,1.9109252221692e-05
0.04,8,"A+C evolution","7-7","Cycle 4",2.15662295914595,0.708139113406728,0.896286047558816,1.08668140183963,5.77871593736315,-0.0796917152965238,0.00346583736525738,6.86539733920279,2.62019032499603,7.29219599613817,-2.97895007784626,0.999319631908884,0.0483859492060144,0.4800876083114,0.0588713628622387,0.0356961559134641,-0.195079586506512,0.508923091503327,0.451384182816516,0.480104834225257,0.508915362469716,0.451425908209053,0.00021592827215947
0.04,8,"A+C evolution","4-10","Cycle 4",-1.48269933194505,0.301531364942282,0.185020047313267,0.575708185830589,0.144093668309606,-1.44160833919027,0.00641583341254943,0.719801854140195,0.848411370822076,0.180186954866215,-3.14558561875632,0.544925254152411,0.0412655699125457,0.191296411576504,0.0800988976987163,-1.28461449970079,-1.59860217867975,0.216765757474758,0.168177070353769,0.191602813121164,0.217074275953027,0.168474892605504,0.00015354846037706
0.04,8,"A+C control","7-7","Cycle 4",-0.953006320944487,0.284496926728365,0.27828062863846,0.010896220223676,0.047586504023021,-0.987171904959265,0.00223052956483915,0.058482724246697,0.241832016587335,-0.479015568433311,-1.42699707345566,0.382484611339708,0.193567006224469,0.271471041144084,0.0472284825591417,-0.894604079143347,-1.07973973077518,0.290160621693585,0.253555273356617,0.271571854843839,0.290257025356646,0.253659312750942,8.72466258565575e-05
0.04,8,"A+C control","4-10","Cycle 4",-2.19069523529929,0.104467167355014,0.100589177466639,0.00563808416303082,0.0604894567531148,-2.08863782944763,0.00405060817605311,0.0661275409161456,0.257152757939995,-1.6866758297369,-2.69471464086168,0.156213501245041,0.0632859543345721,0.110206078852113,0.0636443884097656,-1.96389482816449,-2.21338083073078,0.123046155610324,0.0985553049630606,0.110360907129479,0.123210916146846,0.0986997707646314,3.89502459771423e-05
0.04,10,"A+C evolution","7-7","Cycle 5",-1.48421788314637,0.243614380387617,0.184791178092637,0.176169868602737,0.0235080574534228,-1.14122751812338,0.00200106870139029,0.199677926056159,0.446853360797655,-0.608385295982965,-2.36005047030977,0.352427621664187,0.08627021595613,0.242095058484273,0.0447333063990388,-1.05355023758126,-1.22890479866549,0.258543940732204,0.22637316906114,0.242189752454647,0.258636563955476,0.226469059907996,6.73695003591569e-05
0.04,10,"A+C evolution","4-10","Cycle 5",-1.11322754010828,0.311384040294913,0.247269665088835,0.271105102596224,0.0387782575632925,-1.38558156184956,0.0027732752856743,0.309883360159516,0.556671680759419,-0.0221510458198206,-2.20430403439674,0.494462464967847,0.09936465068939,0.200114072271613,0.0526618959559405,-1.28236424577592,-1.4887988779232,0.217148045393891,0.184102077715865,0.200247195779927,0.21728139376972,0.184233671164319,7.10565886836463e-05
0.04,10,"A+C control","7-7","Cycle 5",-2.30495183403443,0.097176121165541,0.0907136817647425,0.0169181918108607,0.0701636104799456,-2.16910763031459,0.00376250405002073,0.0870818022908063,0.295096259364307,-1.72656316568038,-2.88334050238847,0.151027716640094,0.0529832726900733,0.102559138704483,0.061339253745222,-2.04888269297395,-2.28933256765522,0.114165327630834,0.0920102949844353,0.102696773960755,0.114312140839535,0.0921385408957622,3.18740599364595e-05
0.04,10,"A+C control","4-10","Cycle 5",-2.18931851148851,0.103930822217159,0.100713799546729,0.00601749590592178,0.0393859876445154,-2.0748803106829,0.002413377703194,0.0454034835504372,0.213080931925964,-1.77167988491362,-2.6069571380634,0.145333543223401,0.0686920107122529,0.111562402785618,0.0491261407317326,-1.97859307484871,-2.1711675465171,0.12146889684838,0.102369697609455,0.111655318964902,0.121566384384776,0.10245787834053,2.37090893054977e-05
1,2,"A+C evolution","7-7","Cycle 1",-0.38454900103855,0.375207201335492,0.405030203539691,0.465798341142829,0.349567947200947,-0.844211768983824,0.00162372343568035,0.815366288343776,0.902976349825274,1.38528464461899,-2.15438264669609,0.799838396421445,0.10392239095665,0.300648478933088,0.0402954517989357,-0.76523268345791,-0.923190854509738,0.317511273657553,0.284308182061857,0.300716538024582,0.317575483666602,0.284379444576046,7.17829213014723e-05
1,2,"A+C evolution","4-10","Cycle 1",-1.86224506057323,0.271764319431319,0.134441586409309,0.471604552220455,0.16028761905604,-0.0811743266236067,0.00172806104523653,0.631892171276495,0.794916455532589,-0.304208807729357,-3.42028131341711,0.424528928935608,0.0316676008329349,0.479717554332621,0.0415699536352464,0.000302782501476195,-0.16265143574869,0.500075695624791,0.459426550852278,0.479726302240187,0.500075662923126,0.459443963780504,0.000107648664965035
1,2,"A+C control","7-7","Cycle 1",-2.79669940110965,0.0651516188143647,0.0575027948576422,0.0294369402634991,0.0554005960722051,-2.53457038886532,0.00390914100719883,0.0848375363357043,0.291268838593668,-2.22581247746606,-3.36758632475323,0.0974563492761342,0.0333239742152318,0.0734699235296886,0.0625231237799171,-2.41202506625668,-2.65711571147395,0.0822603092999498,0.0655517885690532,0.0735834246390312,0.0823835905217285,0.0656558186970379,1.81142165472311e-05
1,2,"A+C control","4-10","Cycle 1",-2.4749270555842,0.10293316842595,0.0776346857658325,0.0933242092515559,0.204494130507477,-1.6306023407822,0.00193247083610146,0.297818339759033,0.545727349286283,-1.40530145098309,-3.54455266018532,0.196976198753866,0.028070811239716,0.163747863282682,0.0439598775715022,-1.54444098074205,-1.71676370082234,0.175890613985599,0.152288489237723,0.163836842971654,0.175981402745071,0.152375234781755,3.62358716521677e-05
1,4,"A+C evolution","7-7","Cycle 2",0.0316676232651533,0.510427903148323,0.507916244267892,0.0473429570424339,0.0159791689009119,0.0666964832084399,0.00120731364001317,0.0633221259433457,0.251638880031178,0.524879828126263,-0.461544581595956,0.628288123529417,0.386619470196317,0.516667942424914,0.0347464190962632,0.134799464637116,-0.00140649822023607,0.533648928985355,0.499648375502907,0.516662917157052,0.53363881878008,0.499648481633118,7.52894875646093e-05
1,4,"A+C evolution","4-10","Cycle 2",-1.64048965695045,0.224144153082961,0.162398445889648,0.185786171273106,0.0783970149141314,-0.845909581360295,0.00160435311637355,0.264183186187238,0.51398753505045,-0.633074088251568,-2.64790522564933,0.346813824773479,0.0661182372181811,0.300291619518666,0.0400543769939509,-0.767403002452151,-0.924416160268439,0.317041156544186,0.284058926379958,0.300358941445842,0.317104713566942,0.284129382859364,7.08305375213942e-05
1,4,"A+C control","7-7","Cycle 2",-3.01096262076085,0.0529484883957405,0.0469330685253561,0.018745541229321,0.12619350100657,-2.70351728758151,0.00785257436251072,0.144939042235891,0.380708605413499,-2.26477375415039,-3.75715148737131,0.0940827072152414,0.0228173697450753,0.0627661277170128,0.0886147525105765,-2.52983237266078,-2.87720220250224,0.0737931027238284,0.0532921147735699,0.0629681034389011,0.0740218502011853,0.0534690908756134,2.7174319794055e-05
1,4,"A+C control","4-10","Cycle 2",-2.4080941815207,0.100473481368244,0.0825575534644127,0.0604206544073413,0.0423584368234918,-1.8450244079592,0.00161631021748111,0.102779091230833,0.320591782849831,-1.77973428713503,-3.03645407590637,0.144335947346983,0.0458059056899712,0.136458147618655,0.0402033607734616,-1.76622582084322,-1.92382299507519,0.146012313129668,0.127435858887487,0.136527388405829,0.146083656556201,0.127502818785287,2.2443492682767e-05
1,6,"A+C evolution","7-7","Cycle 3",0.716189398588971,0.576446877584369,0.671767345390975,0.565169897273195,0.091910084496071,0.0493025792718614,0.00232449197874365,0.657079981769266,0.810604701299756,2.30497461313649,-0.87259581595855,0.909288197145361,0.294714453918866,0.512323148717105,0.0482129855821401,0.143800031012856,-0.0451948724691331,0.535888186387149,0.488703204697974,0.512315991802057,0.535867438380906,0.488709766174341,0.000145104303608326
1,6,"A+C evolution","4-10","Cycle 3",-0.902587149545201,0.330125074940992,0.288519127643937,0.140191804228666,0.0491750434957699,-0.388674088477219,0.00344242259377547,0.189366847724436,0.435163012817537,-0.0496676444228293,-1.75550665466757,0.487585640845291,0.147353993184992,0.404036527615658,0.0586721620001809,-0.273676650956864,-0.503671525997573,0.432004706200081,0.376678235289067,0.404116072162074,0.432062141150892,0.376777910401205,0.000199592734110839
1,6,"A+C control","7-7","Cycle 3",-2.35666750948069,0.211590509875903,0.0865372603708976,0.857889002457818,74.821364834216,-0.934747485746928,0.00238266896083297,75.6792538366738,8.69938238248405,14.694121960188,-19.4074569791494,0.999999584640894,3.72776498402074e-09,0.281962545953775,0.0488125901877064,-0.839074808979023,-1.03042016251483,0.301729675691638,0.263002655008109,0.28206772599368,0.301829207761477,0.263112109413014,9.76654039508902e-05
1,6,"A+C control","4-10","Cycle 3",-4.53175116494033,0.0217699714121886,0.0106472303400735,0.410654011582016,6.29213187418055,-3.64333366327761,0.0117550382554867,6.70278588576256,2.58897390596401,0.542637690749134,-9.6061400206298,0.632425798213941,6.73096238339081e-05,0.0254978233394873,0.108420654192302,-3.43082918106069,-3.85583814549452,0.0313457458800644,0.0207175661688123,0.025636418535532,0.0315130181725548,0.0208318703870371,7.25764780935601e-06
1,8,"A+C evolution","7-7","Cycle 4",1.72953234504729,0.648606855194384,0.849352592284873,1.11728476953367,3.74103718025987,0.162904011629375,0.00248688988367557,4.85832194979354,2.2041601461313,6.04968623146463,-2.59062154137005,0.997646947967624,0.0697444463883725,0.540636176683115,0.0498687265094625,0.260646715587921,0.0651613076708282,0.564795262168441,0.516284565308804,0.540611079135398,0.564755654026774,0.516274451568147,0.000153384099741755
1,8,"A+C evolution","4-10","Cycle 4",-1.94047964978236,0.195430451948371,0.125595171424575,0.200950717223181,0.0446872249876492,-1.50058515619672,0.00328061620314497,0.24563794221083,0.495618746831504,-0.969066905992617,-2.91189239357211,0.275066526700743,0.0515688009361337,0.182338266053365,0.057276663687273,-1.38832289536967,-1.61284741702378,0.199675632028727,0.16619366239084,0.182493637719092,0.199833080013178,0.166345412724161,7.29219735327565e-05
1,8,"A+C control","7-7","Cycle 4",-3.42021772378684,0.0771216306735039,0.0316695508520058,0.604821021467125,64.1327079008125,-1.94954947568745,0.00520531867659866,64.7375289222796,8.04596351733462,12.349870770189,-19.1903062177627,0.999995669705916,4.63186509163499e-09,0.124602491586957,0.0721478944710008,-1.80813960252429,-2.09095934885061,0.14086312195091,0.109978634955981,0.124815634423629,0.141089360702976,0.110177356282585,6.19314699951203e-05
1,8,"A+C control","4-10","Cycle 4",-2.48679495651994,0.0816796133141127,0.0767891030431046,0.0129677848262825,0.0514208994585576,-2.36702612203529,0.00372852467277221,0.0643886842848402,0.253749254747359,-1.98944641721512,-2.98414349582477,0.120315441154109,0.0481473796602176,0.0857219262198128,0.0610616464957522,-2.24734529490362,-2.48670694916697,0.0955787004203755,0.0767953423399877,0.0858429858089263,0.095709047991951,0.0769072140631754,2.29022142523151e-05
1,10,"A+C evolution","7-7","Cycle 5",-1.43199563091006,0.242462994282016,0.192787932250109,0.135933005606136,0.0214063441918176,-1.09683724979175,0.00173555988545242,0.157339349797954,0.396660244791375,-0.654541551118962,-2.20944971070115,0.341966840174597,0.0989051057248859,0.250332967459439,0.0416600514336266,-1.01518354898184,-1.17849095060166,0.265966647966924,0.235323635809338,0.250414285567011,0.266045945619219,0.235406296300224,6.11241065378588e-05
1,10,"A+C evolution","4-10","Cycle 5",-0.987243821941207,0.303675496264423,0.271456818031627,0.189170474595572,0.0280734254148795,-1.13078055312388,0.00188179061617774,0.217243900010451,0.466094303773873,-0.0736989865444171,-1.900788657338,0.481583588400027,0.130019239956892,0.244017081358554,0.0433796106042659,-1.04575651633952,-1.21580458990824,0.260040798349473,0.228675607422796,0.244105943033726,0.260127685983761,0.228765664333543,6.40376993257905e-05
1,10,"A+C control","7-7","Cycle 5",-2.8050489343194,0.0606934287396677,0.057051950021054,0.0112386694076651,0.0483359990275765,-2.77263242673688,0.00435711119004684,0.0595746684352416,0.244079225734682,-2.32665365187942,-3.28344421675937,0.0889394425027895,0.0361435376859437,0.0588211098322808,0.0660084175696315,-2.64325592830041,-2.90200892517336,0.0664058953547732,0.052054344037118,0.0589275287306872,0.0665230195848189,0.0521506524866091,1.33539402100036e-05
1,10,"A+C control","4-10","Cycle 5",-1.93387181791353,0.135471843863075,0.126322647420706,0.0225853044211463,0.0267351820961139,-1.68087525431041,0.00169390576579817,0.0493204865172602,0.22208216163677,-1.49859078110546,-2.3691528547216,0.182635797874233,0.0855553931461327,0.156979605569639,0.0411570864590555,-1.60020736485066,-1.76154314377016,0.167952634763587,0.146597177267232,0.157056499224331,0.168031235054916,0.146672069873333,2.96655138837878e-05
2,2,"A+C evolution","7-7","Cycle 1",-1.63549119362168,0.340726412189712,0.163079510688298,1.03913879699559,44.1468476558646,-0.390344749164456,0.000712455306000869,45.1859864528602,6.72205225008406,11.5397312165431,-14.8107136037864,0.999990264591441,3.69648244724306e-07,0.40363431211583,0.0266918584216399,-0.338028706658041,-0.44266079167087,0.416288407115995,0.391107138813153,0.403650838611604,0.416302899367641,0.391125614205069,4.12818429066029e-05
2,2,"A+C evolution","4-10","Cycle 1",-2.32046198917822,0.223657061012873,0.0894424266523909,0.886491417978073,12.6391783028892,-0.695015377297126,0.00110598432507118,13.5256697208673,3.67772616175638,4.88788128786428,-9.52880526622073,0.992519011915683,7.27211721146161e-05,0.332918307848434,0.0332563426292065,-0.629832945743881,-0.760197808850371,0.347548417817508,0.318603321309345,0.332959346637461,0.347586651357636,0.318646875366234,5.45484447017951e-05
2,2,"A+C control","7-7","Cycle 1",-3.65876725431538,0.0739636594729347,0.0251171298200778,0.651501258852004,8.79820404039326,-2.42997002009631,0.00335243560766086,9.44970529924526,3.07403729633283,2.36634584649697,-9.68388035512773,0.914224743056697,6.22754897486769e-05,0.0809156967433266,0.0579002211365454,-2.31648558666868,-2.54345445352394,0.0897668038621957,0.0728674535608747,0.0810201807856922,0.0898791762677937,0.072964191878328,1.85411513472559e-05
2,2,"A+C control","4-10","Cycle 1",-2.20467060971425,0.202028738872293,0.099331850199036,0.785038681182695,23.9008370374788,-1.25225146455098,0.000924857596960515,24.6858757186615,4.96848827297212,7.53356640531111,-11.9429076247396,0.999465458447575,6.50516468314822e-06,0.222310642872646,0.0304114714698338,-1.1926449804701,-1.31185794863185,0.232786216908576,0.212176108165966,0.222355044666224,0.232830354373232,0.212220604818037,2.76444331116409e-05
2,4,"A+C evolution","7-7","Cycle 2",-0.701761437699054,0.420818487864043,0.331421810181514,0.381266379716329,0.10008453712465,-0.0899827107529821,0.000584029607579099,0.481350916840979,0.693794578272978,0.658075935715982,-2.06159881111409,0.658828041749891,0.112885622074341,0.477519488780752,0.0241667045245954,-0.0426159698847752,-0.137349451621189,0.48934761964755,0.465716516283855,0.477522764466598,0.489349174267978,0.465721498392568,3.63544231264068e-05
2,4,"A+C evolution","4-10","Cycle 2",-1.0912626880686,0.283648746027638,0.251380580576847,0.0835380950044192,0.0161958949723675,-0.638408928498853,0.000632801681021039,0.0997339899767867,0.315806887158571,-0.4722811892378,-1.7102441868994,0.384076459021763,0.15313204628528,0.345606291784319,0.0251555497061988,-0.589104051074704,-0.687713805923003,0.356840452987405,0.334541841325681,0.345628388003932,0.356861244244195,0.334565150506346,3.23674983713869e-05
2,4,"A+C control","7-7","Cycle 2",-4.57387820242659,0.0433998560286535,0.0102124960680246,0.875186591228123,51.4770732157205,-2.39973302158322,0.00692298478551621,52.3522598069486,7.2354861486253,9.607674648879,-18.7554310537322,0.99993279358526,7.15516716458015e-09,0.0831930571985384,0.0832044757541096,-2.23665224910516,-2.56281379406127,0.0965070495847038,0.0715703456435709,0.0834131436454676,0.0967506136058214,0.0717674313002778,4.02738670812965e-05
2,4,"A+C control","4-10","Cycle 2",-2.76023286784335,0.148451090487951,0.0595113310885838,0.776148470008765,3.90337522391082,-1.44926574248694,0.000780762699560814,4.67952369391959,2.16322067619547,1.47967965749977,-7.00014539318648,0.814524189989146,0.000910918864045541,0.190114594681841,0.0279421312637532,-1.39449916520998,-1.5040323197639,0.198690462042672,0.181824887585622,0.190151847506689,0.1987279169967,0.181861843576888,1.85096036192485e-05
2,6,"A+C evolution","7-7","Cycle 3",-0.918167055371594,0.33715858452181,0.285331516563573,0.596189399183355,0.201444095252249,-0.716386833299153,0.00230012519645897,0.797633494435604,0.893103294381789,0.832315401616711,-2.6686495123599,0.696844286620174,0.0648488187227037,0.328189122525741,0.0479596204786795,-0.622385977160941,-0.810387689437365,0.349238992855869,0.307807887582734,0.328276253655533,0.349317803477887,0.307902075116695,0.00011181341286532
2,6,"A+C evolution","4-10","Cycle 3",-0.114145975854587,0.490952809534896,0.471494449940005,0.193364315643582,0.0243446101178865,0.00566759991548026,0.000731414160027108,0.217708925761468,0.46659289081754,0.800376090147791,-1.02866804185696,0.690054924708547,0.26334241350943,0.501416896186114,0.0270446697156225,0.0586751525581003,-0.0473399527271398,0.514664581144935,0.488167221577183,0.501416637103711,0.51466190198096,0.488169384030826,4.57126508130092e-05
2,6,"A+C control","7-7","Cycle 3",-3.00213834436773,0.222087636332765,0.0473293633567329,1.33894548131988,15.766278964738,-1.62630601396662,0.0151947860009606,17.1052244460579,4.13584627930704,5.10412036307408,-11.1083970518095,0.993964965345239,1.49857315786981e-05,0.164337028880664,0.123267132687349,-1.38470243389942,-1.86790959403382,0.200254830002705,0.133783785261588,0.165037458675779,0.200984256284698,0.134428640075262,0.000286568049120514
2,6,"A+C control","4-10","Cycle 3",-4.20340374499257,0.0256809119668434,0.0147245693382067,0.216321040260291,1.91181117250743,-3.3600145815009,0.00665046775891485,2.12813221276772,1.45881191822926,-1.34413238526323,-7.06267510472191,0.206831310670559,0.000855750905865231,0.033568750226828,0.0815504001149893,-3.20017579727552,-3.51985336572628,0.039159107770232,0.0287525905345868,0.0336693845126713,0.0392744232119605,0.0288401106781223,6.9994588830849e-06
2,8,"A+C evolution","7-7","Cycle 4",-0.112171908667002,0.486737283720167,0.471986390198908,0.408512081349873,0.0548099533902742,0.173708758338169,0.00198099787481917,0.463322034740147,0.680677629087476,1.22195624434445,-1.44630006167845,0.772407628857671,0.190571643329504,0.543318317770647,0.0445084022946137,0.260945226835612,0.0864722898407266,0.564868635283244,0.521604611841436,0.543297025423807,0.564837049865832,0.521593932145585,0.000121960694463522
2,8,"A+C evolution","4-10","Cycle 4",-0.715871698676515,0.377912394503527,0.328302709984633,0.187129290345161,0.0131577999120575,-0.819553047512227,0.000896376738461453,0.200287090257218,0.447534457061373,0.161295837163777,-1.59303923451681,0.540236762627718,0.168956727492419,0.305858543735297,0.0299395514071513,-0.76087152675421,-0.878234568270243,0.318457078233902,0.293543753268838,0.305895490588901,0.318492397690771,0.293582130772176,4.04043175583693e-05
2,8,"A+C control","7-7","Cycle 4",-1.32014477078833,0.256431822045451,0.210794208399572,0.130023659947499,0.0861294348512118,-1.00562270212778,0.00342940764776852,0.216153094798711,0.464922676150251,-0.408896325533842,-2.23139321604283,0.399176791086368,0.0969665768127881,0.267837368299869,0.0585611445223582,-0.890842858863955,-1.1204025453916,0.290935921581259,0.245936623148716,0.267993499665613,0.291083826072256,0.246098204870809,0.000131879280513038
2,8,"A+C control","4-10","Cycle 4",-1.19668275665695,0.254440671674993,0.232065861232268,0.0648203603982806,0.0101661469692613,-1.14794494200898,0.000701431501373253,0.0749865073675419,0.273836643580697,-0.659962935238788,-1.73340257807512,0.340747937682231,0.150152869963022,0.240864647946106,0.0264845521271033,-1.09603521983986,-1.1998546641781,0.250483511648402,0.231501071944721,0.240897883598657,0.250516369930227,0.231534578061265,2.34514567074341e-05
2,10,"A+C evolution","7-7","Cycle 5",-0.958442139162097,0.333260090822484,0.277190212961554,0.1803662873763,0.0144859349967373,-0.546932785760538,0.000695889409382836,0.194852222373037,0.441420686390021,-0.093257593837656,-1.82362668448654,0.476702483927273,0.138999268381209,0.366576318473683,0.0263797158700172,-0.495228542655304,-0.598637028865772,0.378662632432116,0.354655581959339,0.366597877634315,0.378682498628238,0.354678731210239,3.75195507746658e-05
2,10,"A+C evolution","4-10","Cycle 5",-0.347128502999837,0.387195275016412,0.414078924382216,0.251602525210092,0.0457068488912007,-0.852751229355433,0.000750191557969144,0.297309374101293,0.545260831255366,0.721582726260681,-1.41583973226035,0.672955448920136,0.195314610914723,0.298856043035586,0.0273896250059971,-0.799067564343679,-0.906434894367188,0.310225011224074,0.287729921760884,0.298887662055152,0.310255475818364,0.287762557291687,3.29390179646316e-05
2,10,"A+C control","7-7","Cycle 5",-3.06081460266628,0.0550017920202026,0.0447528658303544,0.0717486911217571,0.13355983486131,-2.65083161866885,0.00310670669964916,0.205308525983067,0.453109838762156,-2.17271931869246,-3.94890988664011,0.102227193001394,0.0189111767999242,0.0659377716198623,0.0557378390292373,-2.54158545417155,-2.76007778316616,0.0729938198652274,0.0595200117294744,0.0660208259588367,0.0730835840592185,0.0595966135345368,1.1784750893233e-05
2,10,"A+C control","4-10","Cycle 5",-1.50886570206755,0.194582145108633,0.181106956886987,0.0307933024764521,0.0169918524393676,-1.24493331748034,0.000745281941247791,0.0477851549158197,0.21859815853712,-1.0804133113348,-1.93731809280031,0.253427809298119,0.125942788035852,0.22357843794651,0.0272998524034067,-1.19142560676967,-1.29844102819102,0.233004064097226,0.214427506274383,0.223614199800047,0.233039625739401,0.214463357477575,2.24582343135488e-05
3,2,"A+C evolution","7-7","Cycle 1",-1.86204197807225,0.427533418296602,0.134465220274556,1.9130886027625,101.142329564923,0.0822867877311019,0.000251192553427231,103.055418167685,10.1516214551019,18.0351360739275,-21.759220030072,0.99999998529585,3.54887587890941e-10,0.520560097009269,0.0158490552850077,0.113350936089717,0.0512226393724868,0.528307431661834,0.512802860664015,0.520558808056595,0.528305659705636,0.512802057195342,1.56464877195559e-05
3,2,"A+C evolution","4-10","Cycle 1",-2.4733165633366,0.183204514428406,0.0777500876292755,0.507189392138013,0.0918229909128801,-0.994987796966595,0.000849733554178771,0.599012383050893,0.773958902688568,-0.956357114067007,-3.99027601260619,0.277608153838872,0.0181587693373033,0.269928020825903,0.0291501896079386,-0.937853425335035,-1.05212216859815,0.281334144519612,0.25881779447,0.269966547378269,0.281371712097651,0.258857108462134,3.29997058691216e-05
3,2,"A+C control","7-7","Cycle 1",-3.34213011860954,0.133002143148001,0.0341538209818622,1.247070764785,15.621831278208,-1.47762039429009,0.000840945077871542,16.868902042993,4.10717689453389,4.70793659467688,-11.392196831896,0.9910573159409,1.12830595155993e-05,0.185787113758179,0.0289990530512902,-1.42078225030956,-1.53445853827062,0.194538980711971,0.17734228471174,0.185827084773895,0.194579231519053,0.17738187066992,1.92430873754925e-05
3,2,"A+C control","4-10","Cycle 1",-1.81809476304045,0.247902812697208,0.139662643372332,0.399778924437203,0.0309157096952448,-0.957234015974929,0.000475566719699114,0.430694634132448,0.656273292258985,-0.531799110212844,-3.10439041586807,0.370097371979909,0.0429265174318514,0.277432332592485,0.0218074922835963,-0.91449133109908,-0.999976700850777,0.286081651914357,0.268946002285428,0.277453550821224,0.286102429641549,0.268967606550221,1.91109664646476e-05
3,4,"A+C evolution","7-7","Cycle 2",-0.231915539334145,0.618667366373406,0.442279590362382,1.21357226586066,3.69325309034924,0.727970685325868,0.00015678450976185,4.9068253562099,2.21513551644361,4.10975007289533,-4.57358115156362,0.983853124724991,0.0102154991547548,0.674359795572135,0.0125213621368384,0.752512555114071,0.703428815537664,0.679725925709024,0.668947545818689,0.674353792422171,0.67971979134561,0.668941679793596,7.56070912872213e-06
3,4,"A+C evolution","4-10","Cycle 2",-0.148457602328613,0.464691725628273,0.462953615247073,0.0190060774315709,0.00408597271703044,-0.0380271714558967,0.000266683368430629,0.0230920501486014,0.151960686194165,0.14938534261195,-0.446300547269175,0.537277038616891,0.39024070324309,0.49049435259103,0.0163304429955415,-0.00601950318463542,-0.070034839727158,0.49849512874785,0.482498443068082,0.490494986111492,0.498495229077974,0.482499608481984,1.66556643053181e-05
3,4,"A+C control","7-7","Cycle 2",-1.34138983883612,0.222694005200133,0.207281592982704,0.0363564414732891,0.0161810519871869,-1.10426904350843,0.000546140562602476,0.0525374934604761,0.229210587583724,-0.892137087172018,-1.79064259050022,0.290669004620656,0.142993958077047,0.248940859116794,0.0233696504595699,-1.05846452860767,-1.15007355840919,0.257602994603631,0.240475647563518,0.248966495148018,0.257628311986087,0.240501535376078,1.90917207603146e-05
3,4,"A+C control","4-10","Cycle 2",-1.24480997979486,0.303907783298574,0.223599849003419,0.254957170104856,0.0261331228911019,-0.608602935771676,0.00027972772311903,0.281090292995958,0.530179491300784,-0.205658176845326,-2.2839617827444,0.448765908666206,0.0924599782668593,0.352377952986199,0.0167250627239192,-0.575821812832794,-0.641384058710557,0.359894560066852,0.344933738079122,0.352387376591481,0.359903588602326,0.34494353915464,1.45678753620995e-05
3,6,"A+C evolution","7-7","Cycle 3",-1.03571598552268,0.355401473250349,0.261977442809848,0.374479112858618,1.26144374405521,-0.303138051835479,0.000370853806623616,1.63592285691383,1.27903199995693,1.47118673439291,-3.54261870543827,0.813237696803203,0.0281236232036612,0.424790540125339,0.0192575649193665,-0.265393224593521,-0.340882879077438,0.434038399345623,0.415595031134822,0.424797355285514,0.434044408440298,0.415602633609836,2.21413682028231e-05
3,6,"A+C evolution","4-10","Cycle 3",-0.780722067195799,0.500497199927539,0.314164284917869,1.09007520256072,34.8322868533242,0.105154825609192,0.000317162554610446,35.9223620558849,5.99352667933371,10.9665902242983,-12.5280343586899,0.999982731171341,3.62361655568025e-06,0.526264509128763,0.0178090582179532,0.14006057971638,0.0702490715020035,0.534958016086998,0.517555049054706,0.52626243234538,0.534955257793044,0.517553658819539,1.97134173466391e-05
3,6,"A+C control","7-7","Cycle 3",-5.47203075796102,0.0287503013115872,0.00418510016862256,1.050283191283,28.4653738532088,-2.90087794922776,0.00505635611862824,29.5156570444918,5.43283140217804,5.17631879030793,-16.12038030623,0.994382966819787,9.97717853022713e-08,0.0521101799751786,0.0711080594491809,-2.76150615270737,-3.04024974574816,0.0594401056329416,0.0456402913106909,0.0522220437003075,0.0595646455700227,0.0457403599443097,1.23366862040098e-05
3,6,"A+C control","4-10","Cycle 3",-2.99539619063543,0.103559563394837,0.0476342917923074,0.656453976652121,2.64556887774471,-1.80072167944406,0.000769350147960387,3.30202285439683,1.81714689950946,0.566211732403104,-6.55700411367396,0.637888593473775,0.00141811998309291,0.141763238042171,0.0277371618584236,-1.74635684220155,-1.85508651668657,0.148507296139959,0.135276787058375,0.141796770464718,0.1485414916494,0.135309610781756,1.13884735414235e-05
3,8,"A+C evolution","7-7","Cycle 4",-0.273443728925939,0.434005385356754,0.432061860730348,0.131560955313055,0.00872998739927086,-0.0121923615795393,0.000457958523338646,0.140290942712326,0.374554325448694,0.460682748953501,-1.00757020680538,0.613176130666037,0.267455634351613,0.496951947363709,0.0213999654985387,0.0297515707975965,-0.0541362939566751,0.507437344106701,0.486469230944712,0.496952296321161,0.507436492796319,0.486470778942995,2.86202803877704e-05
3,8,"A+C evolution","4-10","Cycle 4",-0.102477896003434,0.477025386919826,0.474402923188638,0.0999813361379114,0.00570031042477636,-0.309763921110445,0.000332060372213215,0.105681646562688,0.325087136876696,0.53469289227489,-0.739648684281759,0.630576987883238,0.323080971612712,0.423172364092649,0.0182225237608081,-0.274047774539261,-0.345480067681629,0.431913643441382,0.414478920314366,0.423178591365242,0.431919190827907,0.414485812154717,1.97853512372914e-05
3,8,"A+C control","7-7","Cycle 4",-2.2301691449559,0.148252603002795,0.0970738143379739,0.207544379234741,1.10048715875022,-1.47245504204002,0.0017743061653218,1.30803153798496,1.14369206431843,0.0114673011082318,-4.47180559102003,0.502866793862084,0.0112975717571168,0.186569746435553,0.042122513758343,-1.38989491507367,-1.55501516900637,0.199424533588449,0.174363101867207,0.186654144214534,0.199509679334151,0.174446279364868,4.08650134319517e-05
3,8,"A+C control","4-10","Cycle 4",-0.963486772307952,0.314004601481208,0.276180628365644,0.124584438241892,0.00611056362598418,-0.678478631847832,0.000316583329907415,0.130695001867876,0.361517637008039,-0.254912203772196,-1.67206134084371,0.436614809937209,0.158149542071525,0.33660094074495,0.0177927887051866,-0.643604765985667,-0.713352497709998,0.344432132315846,0.328858484384771,0.336612491962717,0.344443252942504,0.328870442605673,1.57858654320534e-05
3,10,"A+C evolution","7-7","Cycle 5",0.0112746117439881,0.505396051716023,0.502818623078182,0.0820401165901556,0.00267619140099437,0.0234275297726214,0.000185198562304296,0.08471630799115,0.291060660328994,0.581753505988816,-0.55920428250084,0.641470788154908,0.363731593376863,0.505856614579111,0.0136087678466603,0.0501007147520756,-0.00324565520683289,0.512522559410411,0.499188586910596,0.505856343457164,0.512521979984089,0.499188624478631,1.15717342126396e-05
3,10,"A+C evolution","4-10","Cycle 5",0.166111197265951,0.517852210416286,0.541432572595145,0.167885631122618,0.00734800141582817,-0.319153275478804,0.000352308682512749,0.175233632538446,0.418609164422431,0.986585159533916,-0.654362765002013,0.728412900005203,0.342007072750232,0.420882114954014,0.0187698876531734,-0.282364295678584,-0.355942255279024,0.42987423303925,0.411942185189725,0.420888908952791,0.429880288024004,0.411949700510887,2.09304344858497e-05
3,10,"A+C control","7-7","Cycle 5",-2.03976022018536,0.222697605911611,0.115091150209546,0.798968367553089,2.29335193285468,-0.986038518024967,0.000435979676586723,3.09232030040777,1.75849944566604,1.40689869332008,-5.4864191336908,0.803276325293904,0.00412556116494306,0.271695254245105,0.0208801263546637,-0.945113470369826,-1.02696356568011,0.279868603563914,0.263673203627841,0.271714950169867,0.279887946133152,0.263693207580318,1.70709083152886e-05
3,10,"A+C control","4-10","Cycle 5",-0.4798767197665,0.386769539521863,0.382281236485225,0.0154927201445966,0.00337552908583144,-0.490146462734488,0.000246719165968071,0.0188682492304281,0.137361745877184,-0.21064769784722,-0.749105741685781,0.447531943572551,0.321016186448339,0.379859065386528,0.0157072965836923,-0.459360161430451,-0.520932764038525,0.387137622325803,0.372634148138328,0.379866047819722,0.387144228962476,0.372641494282035,1.36907953243696e-05
4,2,"A+C evolution","7-7","Cycle 1",0.713297853009132,0.655492756411652,0.671129454838729,0.0524831537581472,0.00181908161470522,0.608891366366942,0.00010222591310925,0.0543022353728524,0.233028400356807,1.17003351770847,0.25656218830979,0.763151074156783,0.563791014548431,0.647687866302609,0.0101106831178338,0.628708305277896,0.589074427455987,0.652196516675497,0.643152748204956,0.64768442122368,0.652192987460521,0.643149389613533,5.32289282620432e-06
4,2,"A+C evolution","4-10","Cycle 1",-0.876716820625461,0.357125918182363,0.293858596023536,0.192532091635135,0.0122323055777762,-0.278833249618169,0.000233638520341777,0.204764397212911,0.452509002355656,0.0102008239916246,-1.76363446524255,0.502550183884278,0.146335732796094,0.430739843641137,0.0152852386419636,-0.24887418187992,-0.308792317356417,0.4381006206936,0.423409547840114,0.430743811477459,0.438104180801511,0.423413916489332,1.40474053573943e-05
4,2,"A+C control","7-7","Cycle 1",-0.396431492327285,0.420852499978206,0.402170013336889,0.0589901784667109,0.00434751757130456,-0.190852776719118,0.000201627409758016,0.0633376960380154,0.251669815508367,0.0968413460691137,-0.889704330723684,0.524191433369995,0.291170846961548,0.452431108782165,0.0141995566747,-0.163021645636706,-0.21868390780153,0.459334609203637,0.445545862050324,0.452433484877301,0.459336645459091,0.445548574355182,1.23746243027836e-05
4,2,"A+C control","4-10","Cycle 1",-0.515587268668172,0.385266836321201,0.373884655442766,0.049459668494265,0.002090052215736,-0.428931264378825,0.000150915114251062,0.051549720710001,0.227045635743128,-0.0705778226116419,-0.960596714724702,0.482362864956796,0.276758738554378,0.394381564621798,0.0122847512897519,-0.404853151850911,-0.453009376906738,0.400146878485478,0.388645498419306,0.394385371668102,0.400150495570683,0.38864949130862,8.60922626284718e-06
4,4,"A+C evolution","7-7","Cycle 2",0.888820900616889,0.695281990024247,0.708646787926788,0.057288934718064,0.00119892803848972,0.890748012873022,9.249117344729e-05,0.0584878627565537,0.24184264048458,1.36283247596667,0.414809325267112,0.796219663638977,0.602240502241881,0.709044512041591,0.00961723314926336,0.909597789845578,0.871898235900466,0.712917851063458,0.705140527832663,0.709040523270503,0.712913820571661,0.705136582873442,3.93641062855427e-06
4,4,"A+C evolution","4-10","Cycle 2",-0.317886053767809,0.436412115230541,0.421191018959736,0.0627933862503285,0.00228206664178765,-0.0892819171763452,0.000153802225803819,0.0650754528921162,0.255098908057475,0.182107806024842,-0.81787991356046,0.545401548881378,0.306213880629636,0.477694335759908,0.0124017025364995,-0.0649745802048061,-0.113589254147884,0.483762067181656,0.471633180191355,0.47769519171821,0.48376269088071,0.471634267400655,9.57441560222484e-06
4,4,"A+C control","7-7","Cycle 2",0.180776330143691,0.54407291846057,0.545071404574376,0.0083954726915448,0.00179073065555467,0.124314138301551,0.000163677723759073,0.0101862033470995,0.100926722661045,0.378592706559339,-0.0170400462719568,0.593533636078253,0.495740091508226,0.531038572346221,0.0127936595139574,0.149389710948907,0.0992385656541942,0.537278124630811,0.524789300394436,0.531037307159851,0.537276607710303,0.524788288523716,1.01511666640196e-05
4,4,"A+C control","4-10","Cycle 2",-0.388445672433038,0.425829604515225,0.404091529351463,0.0888404512503449,0.00176420161847881,-0.13148466409066,0.0001218540998289,0.0906046528688237,0.301006067827251,0.201526220508374,-0.97841756537445,0.550211733378865,0.273205886095362,0.46717610923583,0.0110387544509741,-0.109848705366751,-0.153120622814569,0.472565405284162,0.461794462158146,0.46717710485791,0.472566238522477,0.461795619238038,7.55037940936151e-06
4,6,"A+C evolution","7-7","Cycle 3",0.070163213497951,0.527077925934951,0.517533610981092,0.0933130401540178,0.00203904646930532,0.249728911410095,0.000143669488880184,0.0953520866233231,0.308791331846156,0.675394223916417,-0.535067796920516,0.662709961907159,0.369335682486842,0.562109775620113,0.011986220792234,0.273221904162874,0.226235918657316,0.56788370611111,0.556318971285881,0.562107579222843,0.567881312849679,0.556316974120683,8.70436958816795e-06
4,6,"A+C evolution","4-10","Cycle 3",0.182472741775847,0.551576462899765,0.545492029076693,0.107313256046523,0.00376235792576796,0.38326639167177,0.00016817697158543,0.111075613972291,0.333280083371766,0.835701705184507,-0.470756221632814,0.697559173919418,0.384437271715045,0.594660674697363,0.0129683064270332,0.408684272268755,0.357848511074785,0.600772350099376,0.588519519669111,0.594656837412125,0.600768285306102,0.588515914582638,9.77107724965921e-06
4,6,"A+C control","7-7","Cycle 3",-2.90837147689559,0.152055372671288,0.0517412792143071,0.908567891721194,3.23053133225124,-1.30279261332378,0.000575282299177354,4.13909922397243,2.03447762926321,1.07920467646029,-6.89594763025147,0.746343446237685,0.00101085477286221,0.213695399874079,0.0239850432390136,-1.25578192857531,-1.34980329807225,0.221700864259625,0.205902532019414,0.213723075364614,0.221728489546929,0.20593019556203,1.62425043263587e-05
4,6,"A+C control","4-10","Cycle 3",-1.75887840577316,0.223542797073659,0.146930867211603,0.240785598020106,0.0206131480225625,-0.773658076787967,0.000227502423191579,0.261398746042669,0.51127169493594,-0.756785883698713,-2.7609709278476,0.319344492036293,0.0594700354948967,0.315688322555986,0.0150831834568031,-0.744095037212633,-0.803221116363301,0.322109321693878,0.309336912822686,0.315697380952915,0.322118158639309,0.309346180067587,1.06172236032687e-05
4,8,"A+C evolution","7-7","Cycle 4",0.323895462087312,0.567571975977075,0.580273311646534,0.174214641962127,0.00388576115399151,0.399326163580242,0.000178864156690407,0.178100403116118,0.422019434524191,1.15105355375473,-0.503262629580103,0.759703300228051,0.376774245631428,0.598525752911137,0.0133740104938798,0.425539224148246,0.373113103012237,0.604807974810423,0.592210999150203,0.598521518299219,0.604803494136603,0.592207016079424,1.03277183859213e-05
4,8,"A+C evolution","4-10","Cycle 4",-1.12329479090383,0.419377529394976,0.245400645228383,0.992848133815122,1.86213184378115,-0.227891503471015,0.000183606259068415,2.85497997759627,1.68966859993203,2.18845566496295,-4.43504524677062,0.899208025057682,0.0117156460444881,0.443272421930692,0.0135501387103016,-0.201333231598823,-0.254449775343206,0.449836027744049,0.43672856248612,0.443274992297899,0.449838307171549,0.436731420237936,1.11818684184759e-05
4,8,"A+C control","7-7","Cycle 4",-0.0327668253086616,0.487688808309232,0.491809026523074,0.0670986558729745,0.00440004930539538,-0.126520901151646,0.000326053610912182,0.0714987051783699,0.267392417952286,0.491322313877819,-0.556855964495142,0.620417886190869,0.364275240494648,0.468411900783801,0.0180569546411399,-0.091129270055012,-0.16191253224828,0.477233435800221,0.459610065834313,0.468414465360416,0.477235287732812,0.459613336671614,2.02160058551078e-05
4,8,"A+C control","4-10","Cycle 4",-1.04329033832694,0.2874483687945,0.260515620040989,0.0691928968321284,0.00503234412355955,-0.631886314781605,0.000179395428400979,0.074225240955688,0.272443096729735,-0.509301868736661,-1.57727880791722,0.375357198051177,0.171181214490699,0.347082944778512,0.0133938578610115,-0.605634353374022,-0.658138276189187,0.353055702951585,0.341157945892955,0.347089161459535,0.353061724029222,0.341164350812365,9.21284882880571e-06
4,10,"A+C evolution","7-7","Cycle 5",0.811056456275296,0.668012569831106,0.69233458302834,0.0714750353736591,0.00151396531113202,0.530427761944345,0.000105227904291478,0.0729890006847911,0.270164765809295,1.34057939726151,0.281533515289079,0.792585206960941,0.569922145477189,0.629582875122445,0.0102580653288755,0.550533569988941,0.510321953899749,0.634259374464222,0.624881944944999,0.629579695156305,0.634256097168442,0.624878864620148,5.72293544652238e-06
4,10,"A+C evolution","4-10","Cycle 5",-0.516034178410192,0.411408756410368,0.3737800420405,0.282873645921458,0.101807926457569,-0.470887829681123,0.00022535180210119,0.384681572379027,0.620227032931512,0.699610806135572,-1.73167916295596,0.668101477230641,0.150372922393474,0.384406127768497,0.015011722156408,-0.441464854254564,-0.500310805107683,0.391391979214229,0.377467631224539,0.38441229202125,0.391397809267565,0.377474119862127,1.26191532857337e-05
4,10,"A+C control","7-7","Cycle 5",0.208250951622049,0.538665302730178,0.551875393621327,0.0585833527835128,0.00272417078720071,-0.00476008118048438,0.000193393079681943,0.0613075235707135,0.247603561304585,0.693553931779036,-0.277052028534938,0.666757049697984,0.431176658222462,0.498809981951867,0.013906584040732,0.0224968235393504,-0.0320169859003192,0.505623968692646,0.491996437209178,0.498810039486855,0.50562369681789,0.491996824068443,1.20869305443856e-05
4,10,"A+C control","4-10","Cycle 5",-0.594295608123481,0.380483603072661,0.355649850455384,0.0746358100592043,0.00295722106040293,-0.353893246796949,0.000183248751068366,0.0775930311196072,0.278555256851504,-0.0483273046945333,-1.14026391155243,0.487920524731299,0.2422719098128,0.412438638334162,0.0135369402402598,-0.32736084392604,-0.380425649667858,0.418882908702154,0.406024239645076,0.412442526690905,0.418886527044726,0.406028392794489,1.07613354510188e-05
7,2,"A+C evolution","7-7","Cycle 1",0.628885185235539,0.629799334668555,0.652236638376336,0.202111163568509,0.00116347812556199,0.544743792380528,6.58360795910183e-05,0.20327464169407,0.450859891423123,1.51257057242486,-0.254800201953782,0.819441853138894,0.436642360599647,0.632915253085744,0.00811394352895177,0.560647121697273,0.528840463063783,0.636602258530062,0.629212627805853,0.632913220023452,0.636600178008407,0.629210643122232,3.55375729456788e-06
7,2,"A+C evolution","4-10","Cycle 1",0.00904190976064598,0.541104790567775,0.50226046203963,0.191953373445631,0.00206531010631863,0.465304025190427,5.78242953345992e-05,0.19401868355195,0.440475519810068,0.87237392858838,-0.854290109067088,0.705239422949901,0.298533684320197,0.614271681610511,0.00760422877973823,0.480208313598714,0.45039973678214,0.61779706378541,0.610734270746365,0.614270115973836,0.617795455420189,0.610732748479269,3.24634286183236e-06
7,2,"A+C control","7-7","Cycle 1",2.86742755951035,0.835560885540201,0.946212575518472,0.973338079915101,1.91505645584022,1.17858726218493,0.000161682964138409,2.88839453575532,1.69952773903674,6.19850192802235,-0.463646809001656,0.997971649420244,0.386121056763269,0.764693694673702,0.012715461617197,1.20350956695464,1.15366495741523,0.769148527489206,0.760179699563269,0.76468599399626,0.769140800698786,0.760172030543085,5.23487614018932e-06
7,2,"A+C control","4-10","Cycle 1",-0.709579955486019,0.41445975423127,0.32969166131629,0.307541671488533,0.00813267881351004,-0.128576625112272,4.50038627306751e-05,0.315674350302043,0.561849045831746,0.391644174344203,-1.81080408531624,0.59667843806096,0.140540972830368,0.467900054429205,0.00670849183726678,-0.115427981111229,-0.141725269113315,0.471175002057961,0.464627870113571,0.467900414096043,0.471175325289175,0.464628266092447,2.78960306649042e-06
7,4,"A+C evolution","7-7","Cycle 2",1.39786088113167,0.794370548601293,0.801844223267642,0.0177563873325422,0.000645098985442987,1.28671407030983,5.18863574552557e-05,0.0184014863179852,0.135652078192651,1.66373895438927,1.13198280787407,0.840739274925157,0.75620463361487,0.783590492206086,0.00720321854834737,1.30083237866459,1.27259576195507,0.785975037678466,0.781186775722665,0.783587996977457,0.785972541621506,0.781184281837089,1.49205273600952e-06
7,4,"A+C evolution","4-10","Cycle 2",0.598647284850961,0.668540671213348,0.645346765375774,0.277343752823416,0.00311391784559347,0.896433737497331,6.24447011179683e-05,0.280457670669009,0.529582543772932,1.63662907064591,-0.439334500943986,0.837075732450916,0.391899555776464,0.710216083609879,0.0079021959680818,0.911922041594772,0.880945433399891,0.713393310838641,0.707018099806193,0.710213381977126,0.713390586307677,0.707015422024103,2.64499681046316e-06
7,4,"A+C control","7-7","Cycle 2",-1.28486705931383,0.404995141629632,0.216722881384184,1.04708450234242,1.68956820255493,0.181634948622194,7.89238169075647e-05,2.73665270489735,1.65428313927736,1.95752789366979,-4.52726201229746,0.87626516470194,0.0106946225067164,0.545284306717159,0.00888390774983423,0.199047407811869,0.164222489432518,0.549598203783243,0.540963601342857,0.545283420543686,0.549597234792903,0.540962798516948,4.85214716035062e-06
7,4,"A+C control","4-10","Cycle 2",0.385350474521868,0.581724093443654,0.595162921421421,0.121792412702749,0.00107751963037985,0.447102168232774,5.14222600407148e-05,0.122869932333129,0.350528076383518,1.07238550423356,-0.301684555189826,0.745050308007128,0.425145731402771,0.609950027995546,0.00717093160201064,0.461157194172715,0.433047142292833,0.613288658835166,0.606601062645967,0.609948682875604,0.613287277212535,0.606599754521576,2.91058424063855e-06
7,6,"A+C evolution","7-7","Cycle 3",-0.496019031885084,0.450156156267373,0.378476666152133,0.300342972887372,0.00286961213957373,0.197745891878408,5.15558313826875e-05,0.303212585026945,0.55064742351794,0.583249918210078,-1.57528798198025,0.641814869134444,0.171463854232236,0.549276005752091,0.00718023895025002,0.211819160220898,0.183672623535918,0.552757679271076,0.5457895000586,0.549275376804297,0.552757006850251,0.545788914829326,3.15995142885103e-06
7,6,"A+C evolution","4-10","Cycle 3",1.29177849273029,0.748227543151225,0.78444806539552,0.0999246282242179,0.00151919900655276,0.797874602528793,6.86182761350255e-05,0.101443827230771,0.318502476019843,1.91604334572918,0.667513639731396,0.871696565307155,0.660946198179502,0.689519654524858,0.00828361491952792,0.814110487771068,0.781638717286519,0.692984731961593,0.686033187521145,0.689516870489014,0.69298191457532,0.686030437987109,3.14486009238007e-06
7,6,"A+C control","7-7","Cycle 3",0.388911498363217,0.587132542787323,0.596020637248405,0.0473687239177412,0.00106907311026049,0.318805160789039,7.25766378928027e-05,0.0484377970280017,0.220085885571978,0.820279834084294,-0.0424568373578592,0.694295737888211,0.489387384789324,0.579033033109946,0.00851919232631842,0.335502777748623,0.302107543829455,0.583097681949064,0.574957642408849,0.579031634950008,0.583096215856538,0.574956312931853,4.3122066300267e-06
7,6,"A+C control","4-10","Cycle 3",0.13827156196969,0.535574759982412,0.534512920224712,0.0251871523030583,0.000570534610539959,0.17893030169443,5.18117254240892e-05,0.0257576869135983,0.160492015108535,0.452835911582419,-0.176292787643039,0.611313285393248,0.456040595891037,0.544613609582468,0.0071980362199762,0.193038452685583,0.164822150703277,0.548110307956426,0.541112506756741,0.544613036306211,0.548109690556467,0.541111977829657,3.1868757360485e-06
7,8,"A+C evolution","7-7","Cycle 4",0.828537051951369,0.662158738700758,0.696045508323489,0.145818725547481,0.00125157555176779,0.868495998463347,6.47912461511864e-05,0.147070301099248,0.38349745905188,1.58019207169305,0.0768820322096839,0.829231718293113,0.519211046188479,0.704432650222575,0.00804930097282903,0.884272628370092,0.852719368556602,0.70770683161198,0.701137280774522,0.704429892424104,0.707704047804696,0.701134550013401,2.80871841880371e-06
7,8,"A+C evolution","4-10","Cycle 4",1.74129450029651,0.758879852365246,0.85085141642891,0.333145790558369,0.0113689873145367,0.724826312254361,7.49255942045318e-05,0.344514777872906,0.586953812384676,2.89172397257048,0.590865028022547,0.947435803726379,0.643563598666856,0.673668917247422,0.00865595715126477,0.74179198827084,0.707860636237883,0.677387590381409,0.669928266409493,0.673666056646699,0.677384685879038,0.669925451059065,3.62109650346778e-06
7,8,"A+C control","7-7","Cycle 4",-0.245075326655237,0.624938122516892,0.439035997886056,1.18358643630183,0.692839606425972,0.759884229462644,9.03380566325961e-05,1.8764260427278,1.36982701197188,2.43978561680964,-2.92993627012011,0.919811276669433,0.0506933917528831,0.68132859822465,0.00950463342968029,0.778513310984818,0.741255147940471,0.685359610001683,0.677270261538154,0.681325041610457,0.685355999073681,0.677266761219184,4.2586324809737e-06
7,8,"A+C control","4-10","Cycle 4",0.411875618617794,0.597680889849266,0.601537531620694,0.0181538993932523,0.000616957443448399,0.356487864308375,5.34325644136705e-05,0.0187708568367007,0.13700677660868,0.680408900770806,0.143342336464781,0.663829953708621,0.535774350375417,0.5881899799645,0.00730975816382939,0.370814990309481,0.342160738307269,0.591655894135611,0.584715296436047,0.588188838559441,0.591654710925416,0.584714197282811,3.13498221055913e-06
8,4,"A+C evolution","4-10","Cycle 2",0.204579058466683,0.586151628270061,0.550967129617841,0.201007540935604,0.00147183835315636,0.614817194849082,4.4369113490869e-05,0.20247937928876,0.449977087515309,1.08653414999669,-0.677376033063323,0.747728517793696,0.336847196218977,0.649038884667144,0.00666101444908124,0.627872783169281,0.601761606528883,0.652006965905469,0.646059230547302,0.64903737837205,0.65200543563912,0.646057748668497,2.30218483027035e-06
8,4,"A+C control","4-10","Cycle 2",0.277576912865309,0.567391291381985,0.568952072012277,0.10491356115748,0.000601154508614939,0.396475271151029,4.09138267486614e-05,0.105514715666095,0.324830287482702,0.914244276331405,-0.359090450600787,0.713867887215107,0.4111797600202,0.597840512329701,0.00639639169756367,0.409012198878254,0.383938343423805,0.600850999035477,0.594822631207656,0.597839549892325,0.600850009452672,0.59482169620086,2.36503418494297e-06
8,6,"A+C evolution","4-10","Cycle 3",1.10023845933525,0.723146227593617,0.75030478302562,0.0731751283875233,0.000862696409377749,0.699011989059783,5.12494847314302e-05,0.0740378247969011,0.272098924652232,1.63355235165363,0.566924567016876,0.836655694381958,0.638053232624724,0.667968681034917,0.00715887454362976,0.713043383165297,0.684980594954268,0.671073287155376,0.664849406496832,0.667966771828145,0.671071351888781,0.664847523974359,2.52092430238941e-06
8,6,"A+C control","4-10","Cycle 3",0.14500302593125,0.538588859282191,0.536187372752154,0.0361005579465341,0.000473854970630771,0.230822690454396,4.15701747222209e-05,0.0365744129171649,0.191244380093024,0.519842010913576,-0.229835959051077,0.627110822438712,0.442792618404499,0.557450821424231,0.00644749367756347,0.243459778062421,0.218185602846372,0.560566080224173,0.554331035973423,0.55745023224668,0.560565460024248,0.554330478002687,2.52998558857605e-06
8,8,"A+C evolution","4-10","Cycle 4",1.82366182438667,0.75808403509956,0.861004937054988,0.388183464512412,0.022530135985679,0.751785632040556,6.86546695470799e-05,0.410713600498091,0.640869409862954,3.07976586771806,0.567557781055276,0.956050347865229,0.638199455113819,0.679567654909075,0.00828581133909528,0.768025822265183,0.73554544181593,0.683093684807433,0.676021000009563,0.679564970385389,0.683090963644101,0.67601835326754,3.25542861825424e-06
8,8,"A+C control","4-10","Cycle 4",0.603135784616863,0.639530282121741,0.646373396211437,0.0220204594547391,0.000680366319625577,0.477989791661183,5.09796338056128e-05,0.0227008257743646,0.150667932136751,0.898444931604895,0.307826637628831,0.710629830790854,0.576354679579438,0.617273081120008,0.00714000236733944,0.491984196301169,0.463995387021198,0.620573746764096,0.613961563957125,0.617271668708022,0.620572299425165,0.613960186979626,2.84530879309304e-06
8,10,"A+C evolution","7-7","Cycle 5",1.19735581548051,0.744544404403854,0.76805406382256,0.0594823724866014,0.000642496796449954,0.880460620646568,4.03209345938551e-05,0.0601248692830514,0.245203730157295,1.67795512658881,0.716756504372212,0.84263356626505,0.671892377753095,0.706917663914262,0.0063498767384773,0.892906379053983,0.868014862239152,0.709489582844444,0.704332464300132,0.706915935345602,0.70948784183649,0.704330748568687,1.73080262941896e-06
8,10,"A+C evolution","4-10","Cycle 5",-0.811158712876833,0.488521574149629,0.307643635986394,1.09681134238172,0.67470712610639,0.0742469762808663,4.82654722169987e-05,1.77151846848811,1.33098402262691,1.79756997147191,-3.41988739722558,0.857852871808124,0.0316796824086386,0.518553221791464,0.00694733562000561,0.0878637540960773,0.0606301984656553,0.521951817932712,0.51515290803348,0.518552998229705,0.521951553564559,0.515152725360843,3.00829071285475e-06
8,10,"A+C control","7-7","Cycle 5",0.953556177735485,0.66168205127524,0.721829791421047,0.393603726238829,0.00634440710241651,0.703552880067595,6.59858391328711e-05,0.399948133341245,0.632414526510299,2.19308864969567,-0.285976294224701,0.899627150211947,0.428989220981128,0.668975020167486,0.00812316681675756,0.719474287028439,0.68763147310675,0.672491240984233,0.665439829196868,0.668972551037692,0.672488734140041,0.665437398818754,3.23587757352675e-06
8,10,"A+C control","4-10","Cycle 5",-1.31994821278435,0.382059218924176,0.210826909649921,0.979879632144762,2.36815160797996,-0.0631516795253208,4.84750851917235e-05,3.34803124012472,1.82976261851769,2.26638651951032,-4.90628294507903,0.906054660675778,0.00734558634729404,0.484217325056092,0.00696240512981854,-0.0495053654708765,-0.0767979935797651,0.487626185655038,0.4808099324872,0.484217516132147,0.487626335518625,0.480810164704671,3.02365843418952e-06
9,6,"A+C evolution","4-10","Cycle 3",0.996185520102644,0.703219256328263,0.730307945689152,0.0738534334335288,0.000711025545554889,0.600492211550302,4.17381134449591e-05,0.0745644589790836,0.273064935462398,1.53139279360894,0.460978246596344,0.822210005153854,0.613246217751287,0.645768908396334,0.00646050411693694,0.613154799619498,0.587829623481106,0.648660118205446,0.642867005735666,0.645767516645387,0.648658704132099,0.64286563669651,2.18403921912259e-06
9,6,"A+C control","4-10","Cycle 3",0.00556887544070474,0.506198312934575,0.501392215262186,0.0337850817786979,0.000401809354026459,0.146279824757111,3.43772993872291e-05,0.0341868911327244,0.184896974374175,0.367966945214088,-0.356829194332679,0.590967629527899,0.41172734470381,0.536504885743925,0.00586321578890195,0.157771727703359,0.134787921810863,0.539361317554509,0.533646056347046,0.536504573681419,0.539360981366991,0.533645768491314,2.12573655084833e-06
9,8,"A+C evolution","4-10","Cycle 4",1.51782252382088,0.747630410655573,0.820217612330358,0.218572307906922,0.00266418995940099,0.832179897158261,4.94150033893323e-05,0.221236497866323,0.470357840230524,2.43972389067271,0.595921156969059,0.919806723724677,0.644722577778883,0.696815660224515,0.00702958059839506,0.845957875131115,0.818401919185407,0.699718527704593,0.693897006648423,0.696813605549459,0.699716454084963,0.693894971516697,2.20550559913569e-06
9,8,"A+C control","4-10","Cycle 4",0.21207051046427,0.552028832342565,0.552819816406201,0.0252009693365033,0.000680581700803888,0.336246826974367,3.56459034707048e-05,0.0258815510373072,0.160877441045372,0.527390294913199,-0.103249273984659,0.628874234286363,0.474210587915363,0.583278545237477,0.00597041903644165,0.347948848285793,0.324544805662942,0.586120091757807,0.580431455048571,0.583277823690487,0.586119347068593,0.580430756833187,2.10597568124157e-06
9,10,"A+C evolution","4-10","Cycle 5",0.514654499485329,0.609145810931369,0.625896962356236,0.0622649709859883,0.000858328455830817,0.344645238821804,4.50886726141618e-05,0.0631232994418191,0.251243506267961,1.00709177177053,0.0222172272001249,0.732450618736351,0.505554078341755,0.585318463833882,0.00671480994624284,0.35780626631644,0.331484211327168,0.58850928945875,0.582120464437357,0.585317530112293,0.588508323030399,0.582119563731851,2.65632552643362e-06
9,10,"A+C control","4-10","Cycle 5",-0.145503881919177,0.473792917929557,0.463688071394912,0.0849386835886165,0.000817590276568526,0.095564400604937,4.64608310118332e-05,0.085756273865185,0.292841721524077,0.428465892268014,-0.719473656106368,0.605507278232973,0.327508897974331,0.523872934509418,0.0068162182338767,0.108924188343335,0.0822046128665387,0.527204155475792,0.52053958799525,0.523872657852451,0.527203840429264,0.520539349826257,2.89057762020542e-06
10,2,"A+C evolution","4-10","Cycle 1",1.73705454220072,0.830983558922739,0.850312551017892,0.052941482208186,0.000994851342483122,1.36171295406766,5.08998383810657e-05,0.0539363335506691,0.232241971983251,2.1922488072879,1.28186027711355,0.899551288547425,0.782766270356019,0.796037956593042,0.007134412265987,1.37569640210899,1.34772950602632,0.798298934131836,0.793758182321834,0.7960355100834,0.79829648934022,0.793755734547828,1.34178417167694e-06
10,2,"A+C control","4-10","Cycle 1",1.15327257052911,0.737058254073402,0.760108157571139,0.0587357669185108,0.000620919514053085,0.799337603700838,3.97133555769224e-05,0.0593566864325639,0.243632277074619,1.63079183359536,0.675753307462855,0.83627808316773,0.662790221534885,0.689832770308802,0.00630185334460604,0.811689236256266,0.78698597114541,0.692469353445235,0.687183794042927,0.689831157260017,0.692467725697384,0.687182196078956,1.81809281114726e-06
10,4,"A+C evolution","4-10","Cycle 2",-0.789734694166281,0.350893748238842,0.312225638562866,0.147525613186116,0.000806488315513883,-0.273119817279206,3.71696434652071e-05,0.14833210150163,0.385139067742589,-0.0348621213908071,-1.54460726694175,0.491285352259396,0.175866511583537,0.432141345346865,0.00609669118991663,-0.26117030254697,-0.285069332011443,0.43507604370191,0.42921140244377,0.432141964302768,0.435076636830058,0.429212047055559,2.23831153590548e-06
10,4,"A+C control","4-10","Cycle 2",-0.053099772327871,0.493922642138981,0.486728175192252,0.0563637266295206,0.000357687760957356,0.0541116164899825,2.7574335510036e-05,0.056721414390478,0.238162579744338,0.413698883971031,-0.519898428626773,0.601974469318379,0.372875984777687,0.513524604204549,0.00525112707045221,0.0644038255480689,0.0438194074318962,0.516095393328135,0.51095309928996,0.513524511039771,0.516095282488168,0.510953023820085,1.72087501328409e-06
10,6,"A+C evolution","4-10","Cycle 3",1.18813938045417,0.72551272750081,0.766408128761573,0.108739766158287,0.000887586647913986,0.581777133596087,3.9845165715857e-05,0.109627352806201,0.331100215654115,1.83709580313624,0.539182957772105,0.862604870997569,0.63162233242941,0.641476222156011,0.00631230272688637,0.594149246940784,0.56940502025139,0.644316608263306,0.63862587534532,0.641474925700498,0.64431529044704,0.638624600599776,2.10752478704942e-06
10,6,"A+C control","4-10","Cycle 3",0.262289900841175,0.562613887871142,0.565199116600565,0.0209666312251635,0.000351953821265035,0.231475059229517,3.07778993289156e-05,0.0213185850464285,0.146008852630341,0.548467251996643,-0.023887450314292,0.633779908701638,0.494028421372407,0.557611754374333,0.00554778328063701,0.242348714459566,0.220601403999469,0.560292371592148,0.554927776537158,0.557611316967489,0.560291914419698,0.55492735899729,1.87288009137871e-06
10,8,"A+C evolution","4-10","Cycle 4",0.29284104512724,0.679788788825763,0.572691525111184,1.43741830159561,0.551448842539407,0.719648188031826,4.17054187676314e-05,1.98886714413501,1.41027201068979,3.05697418607922,-2.47129209582474,0.955082668841751,0.0778953762431232,0.672529540969881,0.00645797327089787,0.732305815642786,0.706990560420866,0.675311063860702,0.669735842992428,0.672527956297651,0.675309460714366,0.669734277211376,2.02283041308425e-06
10,8,"A+C control","4-10","Cycle 4",-0.905244821681574,0.473716212220866,0.287973878538492,1.04647105504014,0.460672928523032,0.192268754098745,3.35365025933564e-05,1.50714398356317,1.22765792611915,1.50096471351196,-3.31145435687511,0.81771831571218,0.0351803210710393,0.547919657804953,0.00579107093665381,0.203619253134586,0.180918255062903,0.550729659923071,0.545106597268248,0.547919259730797,0.550729238977509,0.545106222166651,2.05770342066101e-06
10,10,"A+C evolution","4-10","Cycle 5",1.29891153084681,0.747321285983575,0.785651738473051,0.100296237475084,0.00129276269403329,0.657474108166822,4.22875448913324e-05,0.101589000169117,0.318730293773776,1.92362290664341,0.67420015505021,0.872541890428485,0.662443005270204,0.658692753845403,0.00650288742723818,0.670219767524209,0.644728448809435,0.661552367081498,0.655821549363398,0.65869124516252,0.661550837468708,0.655820062026513,2.1373185792085e-06
10,10,"A+C control","4-10","Cycle 5",0.28984745841973,0.563989413560718,0.571958787816995,0.0460499683329674,0.000466223815626121,0.23434621159031,3.69692497537111e-05,0.0465161921485935,0.215676127906158,0.712572669115801,-0.13287775227634,0.67096937622745,0.466829354025501,0.558319895160303,0.00608023435022953,0.24626347091676,0.22242895226386,0.561256601082467,0.555379104347998,0.558319363482765,0.561256043427481,0.555378598795838,2.24813568426666e-06
