ID_flask;Strain;Replicat;Acclim_days;Conc_accli;Initial_density;Saccli;Sexp;Inhibitor ;V_inhibitor_microL;Transfer_date;Transfer_hour;Measure_date;Measure_hour;After_Shock;DunaAlive.Count;DunaDead.Count;All.Count;SingleCell.Count;DunaAlive.SingleCell.Percent;DunaAlive.SingleCell.Count;DunaAlive.SingleCell.Concentration;DunaDead.SingleCell.Percent;DunaDead.SingleCell.Count;DunaDead.SingleCell.Concentration
1;A;A_A5;13/07/2022;4.85E+05;20000;2.4;4.0;0;0;19/07/2022;13:50;19/07/2022;14:50;0.04;286;2;588;561;50.4456328;283;8060.285112;0.178253119;1;28.48157283
2;A;A_A5;13/07/2022;4.85E+05;20000;2.4;4.0;Z-VAD(Ome)-FMK;1.6;19/07/2022;13:50;19/07/2022;14:50;0.04;510;1;785;762;66.92913386;510;14525.61859;0.131233596;1;28.48160508
3;A;A_A5;13/07/2022;4.85E+05;20000;2.4;4.0;Z-VAD(Ome)-FMK;3;19/07/2022;13:50;19/07/2022;14:50;0.04;660;1;957;925;71.02702703;657;18712.56282;0.108108108;1;28.48183078
4;A;A_A5;13/07/2022;4.85E+05;20000;2.4;4.0;Z-VAD(Ome)-FMK;4;19/07/2022;13:50;19/07/2022;14:50;0.04;674;1;966;938;71.53518124;671;19111.13537;0;0;0
5;A;A_B8;13/07/2022;5.14E+05;20000;2.4;4.0;0;0;19/07/2022;13:50;19/07/2022;14:50;0.04;296;1;604;562;52.66903915;296;8430.531243;0.177935943;1;28.48152447
6;A;A_B8;13/07/2022;5.14E+05;20000;2.4;4.0;Z-VAD(Ome)-FMK;1.6;19/07/2022;13:50;19/07/2022;14:50;0.04;311;2;599;579;53.71329879;311;8857.744082;0.345423143;2;56.96298445
7;A;A_B8;13/07/2022;5.14E+05;20000;2.4;4.0;Z-VAD(Ome)-FMK;3;19/07/2022;13:50;19/07/2022;14:50;0.04;555;0;803;781;70.9346991;554;15778.79135;0;0;0
8;A;A_B8;13/07/2022;5.14E+05;20000;2.4;4.0;Z-VAD(Ome)-FMK;4;19/07/2022;13:50;19/07/2022;14:50;0.04;631;0;915;893;70.43673012;629;17914.84847;0;0;0
9;A;A_D4;13/07/2022;7.09E+05;20000;2.4;4.0;0;0;19/07/2022;13:50;19/07/2022;14:50;0.04;271;0;645;611;43.86252046;268;7633.074481;0;0;0
10;A;A_D4;13/07/2022;7.09E+05;20000;2.4;4.0;Z-VAD(Ome)-FMK;1.6;19/07/2022;13:50;19/07/2022;14:50;0.04;375;1;656;631;59.42947702;375;10680.54749;0;0;0
11;A;A_D4;13/07/2022;7.09E+05;20000;2.4;4.0;Z-VAD(Ome)-FMK;3;19/07/2022;13:50;19/07/2022;14:50;0.04;557;1;819;793;69.73518285;553;15750.28303;0.126103405;1;28.48152447
12;A;A_D4;13/07/2022;7.09E+05;20000;2.4;4.0;Z-VAD(Ome)-FMK;4;19/07/2022;13:50;19/07/2022;14:50;0.04;620;1;889;870;71.14942529;619;17630.07362;0.114942529;1;28.48154059
13;C;C_A5;13/07/2022;8.60E+05;20000;2.4;4.0;0;0;19/07/2022;13:50;19/07/2022;14:50;0.04;795;0;1064;1039;76.41963426;794;22614.33043;0;0;0
14;C;C_A5;13/07/2022;8.60E+05;20000;2.4;4.0;Z-VAD(Ome)-FMK;1.6;19/07/2022;13:50;19/07/2022;14:50;0.04;788;1;1023;1001;78.62137862;787;22414.92169;0.0999001;1;28.4814761
15;C;C_A5;13/07/2022;8.60E+05;20000;2.4;4.0;Z-VAD(Ome)-FMK;3;19/07/2022;13:50;19/07/2022;14:50;0.04;739;0;949;927;79.61165049;738;21019.29367;0;0;0
16;C;C_A5;13/07/2022;8.60E+05;20000;2.4;4.0;Z-VAD(Ome)-FMK;4;19/07/2022;13:50;19/07/2022;14:50;0.04;790;1;1003;987;79.8378926;788;22443.44128;0.101317123;1;28.48152447
17;C;C_B8;13/07/2022;8.90E+05;20000;2.4;4.0;0;0;19/07/2022;13:50;19/07/2022;14:50;0.04;767;0;983;958;80.06263048;767;21845.32927;0;0;0
18;C;C_B8;13/07/2022;8.90E+05;20000;2.4;4.0;Z-VAD(Ome)-FMK;1.6;19/07/2022;13:50;19/07/2022;14:50;0.04;775;1;1007;982;78.81873727;774;22044.63755;0.101832994;1;28.48144386
19;C;C_B8;13/07/2022;8.90E+05;20000;2.4;4.0;Z-VAD(Ome)-FMK;3;19/07/2022;13:50;19/07/2022;14:50;0.04;816;0;1051;1026;79.04483431;811;23098.49019;0;0;0
20;C;C_B8;13/07/2022;8.90E+05;20000;2.4;4.0;Z-VAD(Ome)-FMK;4;19/07/2022;13:50;19/07/2022;14:50;0.04;751;0;980;957;78.36990596;750;21361.16753;0;0;0
21;C;C_D4;13/07/2022;8.64E+05;20000;2.4;4.0;0;0;19/07/2022;13:50;19/07/2022;14:50;0.04;811;2;1019;998;81.06212425;809;23041.54025;0.200400802;2;56.96301669
22;C;C_D4;13/07/2022;8.64E+05;20000;2.4;4.0;Z-VAD(Ome)-FMK;1.6;19/07/2022;13:50;19/07/2022;14:50;0.04;752;1;940;917;81.78844057;750;21361.15544;0.109051254;1;28.48154059
23;C;C_D4;13/07/2022;8.64E+05;20000;2.4;4.0;Z-VAD(Ome)-FMK;3;19/07/2022;13:50;19/07/2022;14:50;0.04;729;3;974;950;76.63157895;728;20734.5146;0.315789474;3;85.44442831
24;C;C_D4;13/07/2022;8.64E+05;20000;2.4;4.0;Z-VAD(Ome)-FMK;4;19/07/2022;13:50;19/07/2022;14:50;0.04;682;8;883;864;78.93518519;682;19424.35571;0.810185185;7;199.3702199
25;A;A_A5;13/07/2022;4.85E+05;20000;2.4;2.4;0;0;19/07/2022;13:50;19/07/2022;14:50;0.04;790;2;1420;1346;57.87518574;779;22187.23315;0.14858841;2;56.96337137
26;A;A_A5;13/07/2022;4.85E+05;20000;2.4;2.4;Z-VAD(Ome)-FMK;1.6;19/07/2022;13:50;19/07/2022;14:50;0.04;695;1;1304;1253;55.22745411;692;19709.35996;0.07980846;1;28.48173405
27;A;A_A5;13/07/2022;4.85E+05;20000;2.4;2.4;Z-VAD(Ome)-FMK;3;19/07/2022;13:50;19/07/2022;14:50;0.04;668;1;1317;1236;53.88349515;666;18968.85635;0.080906149;1;28.48176629
28;A;A_A5;13/07/2022;4.85E+05;20000;2.4;2.4;Z-VAD(Ome)-FMK;4;19/07/2022;13:50;19/07/2022;14:50;0.04;588;1;1180;1120;52.05357143;583;16604.96374;0.089285714;1;28.48192751
29;A;A_B8;13/07/2022;5.14E+05;20000;2.4;2.4;0;0;19/07/2022;13:50;19/07/2022;14:50;0.04;540;2;1212;1120;48.03571429;538;15323.25965;0.178571429;2;56.96379053
30;A;A_B8;13/07/2022;5.14E+05;20000;2.4;2.4;Z-VAD(Ome)-FMK;1.6;19/07/2022;13:50;19/07/2022;14:50;0.04;647;0;1251;1178;54.58404075;643;18313.72389;0;0;0
31;A;A_B8;13/07/2022;5.14E+05;20000;2.4;2.4;Z-VAD(Ome)-FMK;3;19/07/2022;13:50;19/07/2022;14:50;0.04;608;2;1236;1162;52.15146299;606;17375.04857;0.08605852;1;28.67169732
32;A;A_B8;13/07/2022;5.14E+05;20000;2.4;2.4;Z-VAD(Ome)-FMK;4;19/07/2022;13:50;19/07/2022;14:50;0.04;574;1;1231;1155;49.17748918;568;16177.62494;0.086580087;1;28.48173405
33;A;A_D4;13/07/2022;7.09E+05;20000;2.4;2.4;0;0;19/07/2022;13:50;19/07/2022;14:50;0.04;651;0;1336;1254;50.63795853;635;18085.87041;0;0;0
34;A;A_D4;13/07/2022;7.09E+05;20000;2.4;2.4;Z-VAD(Ome)-FMK;1.6;19/07/2022;13:50;19/07/2022;14:50;0.04;735;0;1351;1271;57.04169945;725;20649.23381;0;0;0
35;A;A_D4;13/07/2022;7.09E+05;20000;2.4;2.4;Z-VAD(Ome)-FMK;3;19/07/2022;13:50;19/07/2022;14:50;0.04;653;0;1227;1153;55.68083261;642;18407.16675;0;0;0
36;A;A_D4;13/07/2022;7.09E+05;20000;2.4;2.4;Z-VAD(Ome)-FMK;4;19/07/2022;13:50;19/07/2022;14:50;0.04;751;0;1417;1323;55.78231293;738;21019.56732;0;0;0
37;C;C_A5;13/07/2022;8.60E+05;20000;2.4;2.4;0;0;19/07/2022;13:50;19/07/2022;14:50;0.04;794;1;1325;1242;63.36553945;787;22564.57436;0;0;0
38;C;C_A5;13/07/2022;8.60E+05;20000;2.4;2.4;Z-VAD(Ome)-FMK;1.6;19/07/2022;13:50;19/07/2022;14:50;0.04;731;1;1321;1236;58.57605178;724;20620.70542;0.080906149;1;28.48163732
39;C;C_A5;13/07/2022;8.60E+05;20000;2.4;2.4;Z-VAD(Ome)-FMK;3;19/07/2022;13:50;19/07/2022;14:50;0.04;728;0;1235;1183;61.28486898;725;20786.96871;0;0;0
40;C;C_A5;13/07/2022;8.60E+05;20000;2.4;2.4;Z-VAD(Ome)-FMK;4;19/07/2022;13:50;19/07/2022;14:50;0.04;741;1;1245;1185;62.02531646;735;21073.60146;0;0;0
41;C;C_B8;13/07/2022;8.90E+05;20000;2.4;2.4;0;0;19/07/2022;13:50;19/07/2022;14:50;0.04;748;1;1269;1207;61.64043082;744;21331.63341;0.082850041;1;28.67155028
42;C;C_B8;13/07/2022;8.90E+05;20000;2.4;2.4;Z-VAD(Ome)-FMK;1.6;19/07/2022;13:50;19/07/2022;14:50;0.04;753;1;1348;1255;59.44223108;746;21247.36157;0.079681275;1;28.48171793
43;C;C_B8;13/07/2022;8.90E+05;20000;2.4;2.4;Z-VAD(Ome)-FMK;3;19/07/2022;13:50;19/07/2022;14:50;0.04;769;0;1310;1235;61.6194332;761;21674.46466;0;0;0
44;C;C_B8;13/07/2022;8.90E+05;20000;2.4;2.4;Z-VAD(Ome)-FMK;4;19/07/2022;13:50;19/07/2022;14:50;0.04;767;0;1353;1272;59.90566038;762;21847.73376;0;0;0
45;C;C_D4;13/07/2022;8.64E+05;20000;2.4;2.4;0;0;19/07/2022;13:50;19/07/2022;14:50;0.04;706;0;1289;1232;57.06168831;703;20156.11133;0;0;0
46;C;C_D4;13/07/2022;8.64E+05;20000;2.4;2.4;Z-VAD(Ome)-FMK;1.6;19/07/2022;13:50;19/07/2022;14:50;0.04;761;1;1326;1243;60.82059533;756;21532.13;0;0;0
47;C;C_D4;13/07/2022;8.64E+05;20000;2.4;2.4;Z-VAD(Ome)-FMK;3;19/07/2022;13:50;19/07/2022;14:50;0.04;762;2;1401;1327;56.9706104;756;21675.80317;0.07535795;1;28.67169732
48;C;C_D4;13/07/2022;8.64E+05;20000;2.4;2.4;Z-VAD(Ome)-FMK;4;19/07/2022;13:50;19/07/2022;14:50;0.04;743;1;1265;1205;61.41078838;740;21076.47127;0.082987552;1;28.48171793
1;A;A_A5;13/07/2022;4.85E+05;20000;2.4;4.0;0;0;19/07/2022;13:50;19/07/2022;17:50;0.16;260;3;569;535;48.22429907;258;7348.229153;0.373831776;2;56.96301669
2;A;A_A5;13/07/2022;4.85E+05;20000;2.4;4.0;Z-VAD(Ome)-FMK;1.6;19/07/2022;13:50;19/07/2022;17:50;0.16;280;1;568;535;52.3364486;280;7974.817823;0;0;0
3;A;A_A5;13/07/2022;4.85E+05;20000;2.4;4.0;Z-VAD(Ome)-FMK;3;19/07/2022;13:50;19/07/2022;17:50;0.16;554;1;838;805;68.07453416;548;15607.88424;0.124223602;1;28.48154059
4;A;A_A5;13/07/2022;4.85E+05;20000;2.4;4.0;Z-VAD(Ome)-FMK;4;19/07/2022;13:50;19/07/2022;17:50;0.16;509;2;811;787;64.42185515;507;14440.14925;0;0;0
5;A;A_B8;13/07/2022;5.14E+05;20000;2.4;4.0;0;0;19/07/2022;13:50;19/07/2022;17:50;0.16;234;1;487;461;50.54229935;233;6636.198957;0;0;0
6;A;A_B8;13/07/2022;5.14E+05;20000;2.4;4.0;Z-VAD(Ome)-FMK;1.6;19/07/2022;13:50;19/07/2022;17:50;0.16;253;0;578;554;45.66787004;253;7205.817533;0;0;0
7;A;A_B8;13/07/2022;5.14E+05;20000;2.4;4.0;Z-VAD(Ome)-FMK;3;19/07/2022;13:50;19/07/2022;17:50;0.16;308;0;572;551;55.7168784;307;8743.83791;0;0;0
8;A;A_B8;13/07/2022;5.14E+05;20000;2.4;4.0;Z-VAD(Ome)-FMK;4;19/07/2022;13:50;19/07/2022;17:50;0.16;403;1;680;653;61.7151608;403;11478.04137;0.153139357;1;28.48149223
9;A;A_D4;13/07/2022;7.09E+05;20000;2.4;4.0;0;0;19/07/2022;13:50;19/07/2022;17:50;0.16;255;1;580;552;45.83333333;253;7205.809376;0.18115942;1;28.48145998
10;A;A_D4;13/07/2022;7.09E+05;20000;2.4;4.0;Z-VAD(Ome)-FMK;1.6;19/07/2022;13:50;19/07/2022;17:50;0.16;278;0;540;508;54.72440945;278;7917.863802;0;0;0
11;A;A_D4;13/07/2022;7.09E+05;20000;2.4;4.0;Z-VAD(Ome)-FMK;3;19/07/2022;13:50;19/07/2022;17:50;0.16;301;1;572;550;54.54545455;300;8544.481523;0.181818182;1;28.48160508
12;A;A_D4;13/07/2022;7.09E+05;20000;2.4;4.0;Z-VAD(Ome)-FMK;4;19/07/2022;13:50;19/07/2022;17:50;0.16;393;1;684;660;59.09090909;390;11107.8134;0.151515152;1;28.48157283
13;C;C_A5;13/07/2022;8.60E+05;20000;2.4;4.0;0;0;19/07/2022;13:50;19/07/2022;17:50;0.16;805;0;1032;1000;80.4;804;22899.14567;0;0;0
14;C;C_A5;13/07/2022;8.60E+05;20000;2.4;4.0;Z-VAD(Ome)-FMK;1.6;19/07/2022;13:50;19/07/2022;17:50;0.16;746;1;929;905;82.20994475;744;21190.2662;0;0;0
15;C;C_A5;13/07/2022;8.60E+05;20000;2.4;4.0;Z-VAD(Ome)-FMK;3;19/07/2022;13:50;19/07/2022;17:50;0.16;780;2;998;968;80.47520661;779;22187.095;0.20661157;2;56.96301669
16;C;C_A5;13/07/2022;8.60E+05;20000;2.4;4.0;Z-VAD(Ome)-FMK;4;19/07/2022;13:50;19/07/2022;17:50;0.16;766;1;966;937;81.32337247;762;21702.86022;0;0;0
17;C;C_B8;13/07/2022;8.90E+05;20000;2.4;4.0;0;0;19/07/2022;13:50;19/07/2022;17:50;0.16;789;0;992;972;80.96707819;787;22414.89632;0;0;0
18;C;C_B8;13/07/2022;8.90E+05;20000;2.4;4.0;Z-VAD(Ome)-FMK;1.6;19/07/2022;13:50;19/07/2022;17:50;0.16;752;0;970;945;79.25925926;749;21332.58938;0;0;0
19;C;C_B8;13/07/2022;8.90E+05;20000;2.4;4.0;Z-VAD(Ome)-FMK;3;19/07/2022;13:50;19/07/2022;17:50;0.16;783;0;953;941;83.10308183;782;22272.50171;0;0;0
20;C;C_B8;13/07/2022;8.90E+05;20000;2.4;4.0;Z-VAD(Ome)-FMK;4;19/07/2022;13:50;19/07/2022;17:50;0.16;761;0;966;940;80.53191489;757;21560.47741;0;0;0
21;C;C_D4;13/07/2022;8.64E+05;20000;2.4;4.0;0;0;19/07/2022;13:50;19/07/2022;17:50;0.16;713;2;957;940;75.74468085;712;20278.90281;0.106382979;1;28.48160508
22;C;C_D4;13/07/2022;8.64E+05;20000;2.4;4.0;Z-VAD(Ome)-FMK;1.6;19/07/2022;13:50;19/07/2022;17:50;0.16;723;4;961;944;76.58898305;723;20592.11888;0.31779661;3;85.44447668
23;C;C_D4;13/07/2022;8.64E+05;20000;2.4;4.0;Z-VAD(Ome)-FMK;3;19/07/2022;13:50;19/07/2022;17:50;0.16;763;2;1003;974;77.92607803;759;21617.42813;0.205338809;2;56.96291996
24;C;C_D4;13/07/2022;8.64E+05;20000;2.4;4.0;Z-VAD(Ome)-FMK;4;19/07/2022;13:50;19/07/2022;17:50;0.16;731;3;967;935;78.07486631;730;20791.52463;0.213903743;2;56.96308118
25;A;A_A5;13/07/2022;4.85E+05;20000;2.4;2.4;0;0;19/07/2022;13:50;19/07/2022;17:50;0.16;679;1;1413;1286;50.93312597;655;18655.63084;0.077760498;1;28.48187914
26;A;A_A5;13/07/2022;4.85E+05;20000;2.4;2.4;Z-VAD(Ome)-FMK;1.6;19/07/2022;13:50;19/07/2022;17:50;0.16;755;0;1469;1354;53.02806499;718;20449.93135;0;0;0
27;A;A_A5;13/07/2022;4.85E+05;20000;2.4;2.4;Z-VAD(Ome)-FMK;3;19/07/2022;13:50;19/07/2022;17:50;0.16;671;0;1313;1217;53.57436319;652;18570.04855;0;0;0
28;A;A_A5;13/07/2022;4.85E+05;20000;2.4;2.4;Z-VAD(Ome)-FMK;4;19/07/2022;13:50;19/07/2022;17:50;0.16;646;3;1368;1280;49.296875;631;17971.92332;0.078125;1;28.48165344
29;A;A_B8;13/07/2022;5.14E+05;20000;2.4;2.4;0;0;19/07/2022;13:50;19/07/2022;17:50;0.16;550;4;1198;1113;47.97843666;534;15209.32346;0.179694519;2;56.96375829
30;A;A_B8;13/07/2022;5.14E+05;20000;2.4;2.4;Z-VAD(Ome)-FMK;1.6;19/07/2022;13:50;19/07/2022;17:50;0.16;682;2;1378;1264;52.68987342;666;18968.86709;0.079113924;1;28.48178241
31;A;A_B8;13/07/2022;5.14E+05;20000;2.4;2.4;Z-VAD(Ome)-FMK;3;19/07/2022;13:50;19/07/2022;17:50;0.16;666;1;1340;1261;51.78429818;653;18598.57233;0;0;0
32;A;A_B8;13/07/2022;5.14E+05;20000;2.4;2.4;Z-VAD(Ome)-FMK;4;19/07/2022;13:50;19/07/2022;17:50;0.16;683;1;1347;1219;54.14273995;660;18923.32023;0.082034454;1;28.67169732
33;A;A_D4;13/07/2022;7.09E+05;20000;2.4;2.4;0;0;19/07/2022;13:50;19/07/2022;17:50;0.16;642;2;1395;1284;47.2741433;607;17403.72027;0.15576324;2;57.34339463
34;A;A_D4;13/07/2022;7.09E+05;20000;2.4;2.4;Z-VAD(Ome)-FMK;1.6;19/07/2022;13:50;19/07/2022;17:50;0.16;716;1;1393;1295;52.2007722;676;19382.06739;0;0;0
35;A;A_D4;13/07/2022;7.09E+05;20000;2.4;2.4;Z-VAD(Ome)-FMK;3;19/07/2022;13:50;19/07/2022;17:50;0.16;736;0;1442;1330;52.70676692;701;19965.67297;0;0;0
36;A;A_D4;13/07/2022;7.09E+05;20000;2.4;2.4;Z-VAD(Ome)-FMK;4;19/07/2022;13:50;19/07/2022;17:50;0.16;706;0;1397;1291;51.74283501;668;19152.70472;0;0;0
37;C;C_A5;13/07/2022;8.60E+05;20000;2.4;2.4;0;0;19/07/2022;13:50;19/07/2022;17:50;0.16;818;0;1336;1269;64.06619385;813;23309.9571;0;0;0
38;C;C_A5;13/07/2022;8.60E+05;20000;2.4;2.4;Z-VAD(Ome)-FMK;1.6;19/07/2022;13:50;19/07/2022;17:50;0.16;817;0;1337;1258;64.22893482;808;23013.0848;0;0;0
39;C;C_A5;13/07/2022;8.60E+05;20000;2.4;2.4;Z-VAD(Ome)-FMK;3;19/07/2022;13:50;19/07/2022;17:50;0.16;858;1;1336;1271;66.95515342;851;24238.01055;0;0;0
40;C;C_A5;13/07/2022;8.60E+05;20000;2.4;2.4;Z-VAD(Ome)-FMK;4;19/07/2022;13:50;19/07/2022;17:50;0.16;837;0;1316;1264;65.98101266;834;23912.14106;0;0;0
41;C;C_B8;13/07/2022;8.90E+05;20000;2.4;2.4;0;0;19/07/2022;13:50;19/07/2022;17:50;0.16;817;1;1348;1266;64.29699842;814;23184.0659;0.078988942;1;28.48165344
42;C;C_B8;13/07/2022;8.90E+05;20000;2.4;2.4;Z-VAD(Ome)-FMK;1.6;19/07/2022;13:50;19/07/2022;17:50;0.16;834;0;1369;1299;63.89530408;830;23797.44097;0;0;0
43;C;C_B8;13/07/2022;8.90E+05;20000;2.4;2.4;Z-VAD(Ome)-FMK;3;19/07/2022;13:50;19/07/2022;17:50;0.16;846;1;1432;1329;63.20541761;840;24084.14341;0;0;0
44;C;C_B8;13/07/2022;8.90E+05;20000;2.4;2.4;Z-VAD(Ome)-FMK;4;19/07/2022;13:50;19/07/2022;17:50;0.16;908;1;1369;1306;69.21898928;904;25918.9633;0.076569678;1;28.67141958
45;C;C_D4;13/07/2022;8.64E+05;20000;2.4;2.4;0;0;19/07/2022;13:50;19/07/2022;17:50;0.16;790;0;1442;1369;57.34112491;785;22507.25674;0;0;0
46;C;C_D4;13/07/2022;8.64E+05;20000;2.4;2.4;Z-VAD(Ome)-FMK;1.6;19/07/2022;13:50;19/07/2022;17:50;0.16;733;0;1333;1258;57.71065183;726;20815.58109;0;0;0
47;C;C_D4;13/07/2022;8.64E+05;20000;2.4;2.4;Z-VAD(Ome)-FMK;3;19/07/2022;13:50;19/07/2022;17:50;0.16;853;0;1483;1421;59.88740324;851;24237.99683;0;0;0
48;C;C_D4;13/07/2022;8.64E+05;20000;2.4;2.4;Z-VAD(Ome)-FMK;4;19/07/2022;13:50;19/07/2022;17:50;0.16;857;2;1483;1398;61.15879828;855;24351.79991;0;0;0
1;A;A_A5;13/07/2022;4.85E+05;20000;2.4;4.0;0;0;19/07/2022;13:50;20/07/2022;13:50;1;230;6;488;458;48.25327511;221;6294.413345;1.310043668;6;170.8890501
2;A;A_A5;13/07/2022;4.85E+05;20000;2.4;4.0;Z-VAD(Ome)-FMK;1.6;19/07/2022;13:50;20/07/2022;13:50;1;303;2;582;537;54.74860335;294;8373.563454;0.186219739;1;28.48150835
3;A;A_A5;13/07/2022;4.85E+05;20000;2.4;4.0;Z-VAD(Ome)-FMK;3;19/07/2022;13:50;20/07/2022;13:50;1;477;3;790;751;61.65113182;463;13186.93836;0.399467377;3;85.44452504
4;A;A_A5;13/07/2022;4.85E+05;20000;2.4;4.0;Z-VAD(Ome)-FMK;4;19/07/2022;13:50;20/07/2022;13:50;1;527;7;794;736;68.20652174;502;14297.71719;0.951086957;7;199.3705584
5;A;A_B8;13/07/2022;5.14E+05;20000;2.4;4.0;0;0;19/07/2022;13:50;20/07/2022;13:50;1;237;2;505;470;48.72340426;229;6522.265411;0.425531915;2;56.96301669
6;A;A_B8;13/07/2022;5.14E+05;20000;2.4;4.0;Z-VAD(Ome)-FMK;1.6;19/07/2022;13:50;20/07/2022;13:50;1;303;4;568;535;53.64485981;287;8174.169761;0.560747664;3;85.44428322
7;A;A_B8;13/07/2022;5.14E+05;20000;2.4;4.0;Z-VAD(Ome)-FMK;3;19/07/2022;13:50;20/07/2022;13:50;1;337;8;648;604;53.31125828;322;9171.061261;1.158940397;7;199.370897
8;A;A_B8;13/07/2022;5.14E+05;20000;2.4;4.0;Z-VAD(Ome)-FMK;4;19/07/2022;13:50;20/07/2022;13:50;1;321;5;650;600;51.33333333;308;8772.309536;0.5;3;85.4445734
9;A;A_D4;13/07/2022;7.09E+05;20000;2.4;4.0;0;0;19/07/2022;13:50;20/07/2022;13:50;1;158;2;476;445;33.48314607;149;4243.747146;0.449438202;2;56.96304894
10;A;A_D4;13/07/2022;7.09E+05;20000;2.4;4.0;Z-VAD(Ome)-FMK;1.6;19/07/2022;13:50;20/07/2022;13:50;1;225;9;521;488;43.85245902;214;6095.049686;1.844262295;9;256.3338653
11;A;A_D4;13/07/2022;7.09E+05;20000;2.4;4.0;Z-VAD(Ome)-FMK;3;19/07/2022;13:50;20/07/2022;13:50;1;257;2;565;530;45.66037736;242;6892.532823;0.188679245;1;28.48154059
12;A;A_D4;13/07/2022;7.09E+05;20000;2.4;4.0;Z-VAD(Ome)-FMK;4;19/07/2022;13:50;20/07/2022;13:50;1;265;2;576;527;47.24857685;249;7091.907621;0.189753321;1;28.48155671
13;C;C_A5;13/07/2022;8.60E+05;20000;2.4;4.0;0;0;19/07/2022;13:50;20/07/2022;13:50;1;793;3;940;930;85.05376344;791;22528.94961;0.322580645;3;85.44481523
14;C;C_A5;13/07/2022;8.60E+05;20000;2.4;4.0;Z-VAD(Ome)-FMK;1.6;19/07/2022;13:50;20/07/2022;13:50;1;725;3;893;869;82.62370541;718;20449.65354;0.230149597;2;56.96282324
15;C;C_A5;13/07/2022;8.60E+05;20000;2.4;4.0;Z-VAD(Ome)-FMK;3;19/07/2022;13:50;20/07/2022;13:50;1;758;2;917;898;83.51893096;750;21361.13126;0.222717149;2;56.96301669
16;C;C_A5;13/07/2022;8.60E+05;20000;2.4;4.0;Z-VAD(Ome)-FMK;4;19/07/2022;13:50;20/07/2022;13:50;1;747;1;918;895;82.5698324;739;21047.83467;0.111731844;1;28.48150835
17;C;C_B8;13/07/2022;8.90E+05;20000;2.4;4.0;0;0;19/07/2022;13:50;20/07/2022;13:50;1;766;1;911;891;85.18518519;759;21617.4526;0.112233446;1;28.48149223
18;C;C_B8;13/07/2022;8.90E+05;20000;2.4;4.0;Z-VAD(Ome)-FMK;1.6;19/07/2022;13:50;20/07/2022;13:50;1;736;0;885;862;84.80278422;731;20819.91189;0;0;0
19;C;C_B8;13/07/2022;8.90E+05;20000;2.4;4.0;Z-VAD(Ome)-FMK;3;19/07/2022;13:50;20/07/2022;13:50;1;826;1;983;955;85.96858639;821;23383.27865;0;0;0
20;C;C_B8;13/07/2022;8.90E+05;20000;2.4;4.0;Z-VAD(Ome)-FMK;4;19/07/2022;13:50;20/07/2022;13:50;1;768;3;940;911;83.4248079;760;21645.94634;0.329308452;3;85.44452504
21;C;C_D4;13/07/2022;8.64E+05;20000;2.4;4.0;0;0;19/07/2022;13:50;20/07/2022;13:50;1;783;4;1032;997;77.53259779;773;22016.20595;0.200601805;2;56.96301669
22;C;C_D4;13/07/2022;8.64E+05;20000;2.4;4.0;Z-VAD(Ome)-FMK;1.6;19/07/2022;13:50;20/07/2022;13:50;1;728;0;975;943;76.77624602;724;20620.56536;0;0;0
23;C;C_D4;13/07/2022;8.64E+05;20000;2.4;4.0;Z-VAD(Ome)-FMK;3;19/07/2022;13:50;20/07/2022;13:50;1;780;2;1029;1008;77.18253968;778;22158.65112;0.198412698;2;56.96311342
24;C;C_D4;13/07/2022;8.64E+05;20000;2.4;4.0;Z-VAD(Ome)-FMK;4;19/07/2022;13:50;20/07/2022;13:50;1;789;8;1048;1017;77.18780728;785;22358.03467;0.786627335;8;227.8525827
25;A;A_A5;13/07/2022;4.85E+05;20000;2.4;2.4;0;0;19/07/2022;13:50;20/07/2022;13:50;1;1367;1;2090;2027;66.45288604;1347;38365.13464;0.049333991;1;28.48191139
26;A;A_A5;13/07/2022;4.85E+05;20000;2.4;2.4;Z-VAD(Ome)-FMK;1.6;19/07/2022;13:50;20/07/2022;13:50;1;1509;2;2268;2189;68.52444038;1500;42722.64944;0;0;0
27;A;A_A5;13/07/2022;4.85E+05;20000;2.4;2.4;Z-VAD(Ome)-FMK;3;19/07/2022;13:50;20/07/2022;13:50;1;1459;1;2212;2130;68.12206573;1451;41327.06628;0.046948357;1;28.48178241
28;A;A_A5;13/07/2022;4.85E+05;20000;2.4;2.4;Z-VAD(Ome)-FMK;4;19/07/2022;13:50;20/07/2022;13:50;1;1372;1;2091;2000;68.25;1365;38877.58898;0;0;0
29;A;A_B8;13/07/2022;5.14E+05;20000;2.4;2.4;0;0;19/07/2022;13:50;20/07/2022;13:50;1;1007;1;1615;1517;65.91957811;1000;28481.58895;0;0;0
30;A;A_B8;13/07/2022;5.14E+05;20000;2.4;2.4;Z-VAD(Ome)-FMK;1.6;19/07/2022;13:50;20/07/2022;13:50;1;1362;1;1970;1914;71.0031348;1359;38706.85185;0.052246604;1;28.48186302
31;A;A_B8;13/07/2022;5.14E+05;20000;2.4;2.4;Z-VAD(Ome)-FMK;3;19/07/2022;13:50;20/07/2022;13:50;1;1400;3;2142;2053;67.85192401;1393;39939.6516;0.097418412;2;57.34336196
32;A;A_B8;13/07/2022;5.14E+05;20000;2.4;2.4;Z-VAD(Ome)-FMK;4;19/07/2022;13:50;20/07/2022;13:50;1;1512;0;2317;2224;67.67086331;1505;43150.60941;0;0;0
33;A;A_D4;13/07/2022;7.09E+05;20000;2.4;2.4;0;0;19/07/2022;13:50;20/07/2022;13:50;1;1003;2;1723;1634;60.03671971;981;27940.56529;0.122399021;2;56.96343585
34;A;A_D4;13/07/2022;7.09E+05;20000;2.4;2.4;Z-VAD(Ome)-FMK;1.6;19/07/2022;13:50;20/07/2022;13:50;1;1251;2;2024;1930;64.04145078;1236;35203.64248;0.051813472;1;28.48191139
35;A;A_D4;13/07/2022;7.09E+05;20000;2.4;2.4;Z-VAD(Ome)-FMK;3;19/07/2022;13:50;20/07/2022;13:50;1;1161;1;1871;1760;65.51136364;1153;33058.50468;0.056818182;1;28.67172999
36;A;A_D4;13/07/2022;7.09E+05;20000;2.4;2.4;Z-VAD(Ome)-FMK;4;19/07/2022;13:50;20/07/2022;13:50;1;1186;1;1812;1754;67.21778791;1179;33803.93114;0;0;0
37;C;C_A5;13/07/2022;8.60E+05;20000;2.4;2.4;0;0;19/07/2022;13:50;20/07/2022;13:50;1;1147;0;1516;1430;79.93006993;1143;32554.40089;0;0;0
38;C;C_A5;13/07/2022;8.60E+05;20000;2.4;2.4;Z-VAD(Ome)-FMK;1.6;19/07/2022;13:50;20/07/2022;13:50;1;1153;0;1497;1436;79.80501393;1146;32857.4094;0;0;0
39;C;C_A5;13/07/2022;8.60E+05;20000;2.4;2.4;Z-VAD(Ome)-FMK;3;19/07/2022;13:50;20/07/2022;13:50;1;1198;1;1567;1486;80.34993271;1194;34233.61646;0;0;0
40;C;C_A5;13/07/2022;8.60E+05;20000;2.4;2.4;Z-VAD(Ome)-FMK;4;19/07/2022;13:50;20/07/2022;13:50;1;1269;0;1642;1577;79.83512999;1259;36097.4818;0;0;0
41;C;C_B8;13/07/2022;8.90E+05;20000;2.4;2.4;0;0;19/07/2022;13:50;20/07/2022;13:50;1;1257;0;1646;1562;79.96158771;1249;35810.68468;0;0;0
42;C;C_B8;13/07/2022;8.90E+05;20000;2.4;2.4;Z-VAD(Ome)-FMK;1.6;19/07/2022;13:50;20/07/2022;13:50;1;1220;0;1674;1590;75.97484277;1208;34634.99591;0;0;0
43;C;C_B8;13/07/2022;8.90E+05;20000;2.4;2.4;Z-VAD(Ome)-FMK;3;19/07/2022;13:50;20/07/2022;13:50;1;1235;1;1670;1590;76.60377358;1218;34690.55571;0;0;0
44;C;C_B8;13/07/2022;8.90E+05;20000;2.4;2.4;Z-VAD(Ome)-FMK;4;19/07/2022;13:50;20/07/2022;13:50;1;1294;0;1679;1594;80.36386449;1281;36728.27684;0;0;0
45;C;C_D4;13/07/2022;8.64E+05;20000;2.4;2.4;0;0;19/07/2022;13:50;20/07/2022;13:50;1;1218;0;1863;1769;68.343697;1209;34664.0228;0;0;0
46;C;C_D4;13/07/2022;8.64E+05;20000;2.4;2.4;Z-VAD(Ome)-FMK;1.6;19/07/2022;13:50;20/07/2022;13:50;1;1193;0;1782;1704;69.42488263;1183;33918.52129;0;0;0
47;C;C_D4;13/07/2022;8.64E+05;20000;2.4;2.4;Z-VAD(Ome)-FMK;3;19/07/2022;13:50;20/07/2022;13:50;1;1213;4;1852;1745;68.99713467;1204;34520.56621;0.171919771;3;86.01469985
48;C;C_D4;13/07/2022;8.64E+05;20000;2.4;2.4;Z-VAD(Ome)-FMK;4;19/07/2022;13:50;20/07/2022;13:50;1;993;1;1615;1506;65.53784861;987;28298.85238;0.066401062;1;28.67158296
1;A;A_A5;13/07/2022;4.85E+05;20000;2.4;4.0;0;0;19/07/2022;13:50;21/07/2022;14:00;2;426;5;811;777;54.05405405;420;11962.21996;0.643500644;5;142.4073805
2;A;A_A5;13/07/2022;4.85E+05;20000;2.4;4.0;Z-VAD(Ome)-FMK;1.6;19/07/2022;13:50;21/07/2022;14:00;2;514;5;901;869;58.6881473;510;14525.55281;0.575373993;5;142.4073805
3;A;A_A5;13/07/2022;4.85E+05;20000;2.4;4.0;Z-VAD(Ome)-FMK;3;19/07/2022;13:50;21/07/2022;14:00;2;1006;8;1379;1340;73.73134328;988;28139.68246;0.597014925;8;227.8516799
4;A;A_A5;13/07/2022;4.85E+05;20000;2.4;4.0;Z-VAD(Ome)-FMK;4;19/07/2022;13:50;21/07/2022;14:00;2;1120;3;1563;1515;72.73927393;1102;31386.74656;0.198019802;3;85.44486359
5;A;A_B8;13/07/2022;5.14E+05;20000;2.4;4.0;0;0;19/07/2022;13:50;21/07/2022;14:00;2;466;3;836;806;56.82382134;458;13044.56036;0.372208437;3;85.4447185
6;A;A_B8;13/07/2022;5.14E+05;20000;2.4;4.0;Z-VAD(Ome)-FMK;1.6;19/07/2022;13:50;21/07/2022;14:00;2;419;4;774;742;55.79514825;414;11791.33778;0.539083558;4;113.9259689
7;A;A_B8;13/07/2022;5.14E+05;20000;2.4;4.0;Z-VAD(Ome)-FMK;3;19/07/2022;13:50;21/07/2022;14:00;2;566;3;903;882;63.49206349;560;15949.66273;0.340136054;3;85.44462177
8;A;A_B8;13/07/2022;5.14E+05;20000;2.4;4.0;Z-VAD(Ome)-FMK;4;19/07/2022;13:50;21/07/2022;14:00;2;848;6;1193;1159;72.47627265;840;23924.4941;0.517687662;6;170.8892435
9;A;A_D4;13/07/2022;7.09E+05;20000;2.4;4.0;0;0;19/07/2022;13:50;21/07/2022;14:00;2;293;7;597;569;50.96660808;290;8259.656121;1.230228471;7;199.3710098
10;A;A_D4;13/07/2022;7.09E+05;20000;2.4;4.0;Z-VAD(Ome)-FMK;1.6;19/07/2022;13:50;21/07/2022;14:00;2;359;4;739;685;51.24087591;351;9997.015088;0.583941606;4;113.9260979
11;A;A_D4;13/07/2022;7.09E+05;20000;2.4;4.0;Z-VAD(Ome)-FMK;3;19/07/2022;13:50;21/07/2022;14:00;2;550;4;906;855;62.33918129;533;15180.76425;0.467836257;4;113.9269362
12;A;A_D4;13/07/2022;7.09E+05;20000;2.4;4.0;Z-VAD(Ome)-FMK;4;19/07/2022;13:50;21/07/2022;14:00;2;638;6;1033;997;62.68806419;625;17800.97294;0.501504514;5;142.4077836
13;C;C_A5;13/07/2022;8.60E+05;20000;2.4;4.0;0;0;19/07/2022;13:50;21/07/2022;14:00;2;1075;0;1236;1201;88.00999167;1057;30104.9032;0;0;0
14;C;C_A5;13/07/2022;8.60E+05;20000;2.4;4.0;Z-VAD(Ome)-FMK;1.6;19/07/2022;13:50;21/07/2022;14:00;2;1089;6;1306;1256;84.9522293;1067;30389.6834;0.398089172;5;142.4071387
15;C;C_A5;13/07/2022;8.60E+05;20000;2.4;4.0;Z-VAD(Ome)-FMK;3;19/07/2022;13:50;21/07/2022;14:00;2;1004;2;1222;1187;82.89806234;984;28025.70903;0.168491997;2;56.96282324
16;C;C_A5;13/07/2022;8.60E+05;20000;2.4;4.0;Z-VAD(Ome)-FMK;4;19/07/2022;13:50;21/07/2022;14:00;2;1046;1;1261;1210;84.54545455;1023;29136.53356;0.082644628;1;28.48145998
17;C;C_B8;13/07/2022;8.90E+05;20000;2.4;4.0;0;0;19/07/2022;13:50;21/07/2022;14:00;2;920;6;1117;1079;84.15199259;908;25861.07783;0.370713624;4;113.925453
18;C;C_B8;13/07/2022;8.90E+05;20000;2.4;4.0;Z-VAD(Ome)-FMK;1.6;19/07/2022;13:50;21/07/2022;14:00;2;962;0;1215;1168;81.25;949;27028.84433;0;0;0
19;C;C_B8;13/07/2022;8.90E+05;20000;2.4;4.0;Z-VAD(Ome)-FMK;3;19/07/2022;13:50;21/07/2022;14:00;2;996;3;1227;1180;82.62711864;975;27769.39205;0.254237288;3;85.44428322
20;C;C_B8;13/07/2022;8.90E+05;20000;2.4;4.0;Z-VAD(Ome)-FMK;4;19/07/2022;13:50;21/07/2022;14:00;2;1034;2;1272;1230;82.5203252;1015;28908.66552;0.162601626;2;56.96288772
21;C;C_D4;13/07/2022;8.64E+05;20000;2.4;4.0;0;0;19/07/2022;13:50;21/07/2022;14:00;2;1113;7;1430;1386;79.29292929;1099;31301.12452;0.505050505;7;199.3702199
22;C;C_D4;13/07/2022;8.64E+05;20000;2.4;4.0;Z-VAD(Ome)-FMK;1.6;19/07/2022;13:50;21/07/2022;14:00;2;1047;6;1372;1322;78.13918306;1033;29421.38147;0.378214826;5;142.4074611
23;C;C_D4;13/07/2022;8.64E+05;20000;2.4;4.0;Z-VAD(Ome)-FMK;3;19/07/2022;13:50;21/07/2022;14:00;2;1162;4;1507;1468;78.47411444;1152;32810.67904;0.204359673;3;85.44447668
24;C;C_D4;13/07/2022;8.64E+05;20000;2.4;4.0;Z-VAD(Ome)-FMK;4;19/07/2022;13:50;21/07/2022;14:00;2;1093;6;1436;1389;77.89776818;1082;30816.97459;0.431965443;6;170.8889534
25;A;A_A5;13/07/2022;4.85E+05;20000;2.4;2.4;0;0;19/07/2022;13:50;21/07/2022;14:00;2;2843;2;3840;3680;75.10869565;2764;78723.64659;0.054347826;2;56.96356483
26;A;A_A5;13/07/2022;4.85E+05;20000;2.4;2.4;Z-VAD(Ome)-FMK;1.6;19/07/2022;13:50;21/07/2022;14:00;2;3718;2;4678;4574;80.4110188;3678;104756.7666;0.043725404;2;56.963984
27;A;A_A5;13/07/2022;4.85E+05;20000;2.4;2.4;Z-VAD(Ome)-FMK;3;19/07/2022;13:50;21/07/2022;14:00;2;3463;1;4501;4384;78.42153285;3438;97920.58965;0.022810219;1;28.4818469
28;A;A_A5;13/07/2022;4.85E+05;20000;2.4;2.4;Z-VAD(Ome)-FMK;4;19/07/2022;13:50;21/07/2022;14:00;2;3218;1;4192;4065;78.32718327;3184;90685.89254;0.024600246;1;28.48175017
29;A;A_B8;13/07/2022;5.14E+05;20000;2.4;2.4;0;0;19/07/2022;13:50;21/07/2022;14:00;2;1855;2;2623;2488;71.94533762;1790;50982.50595;0.080385852;2;56.9636938
30;A;A_B8;13/07/2022;5.14E+05;20000;2.4;2.4;Z-VAD(Ome)-FMK;1.6;19/07/2022;13:50;21/07/2022;14:00;2;2584;1;3541;3419;74.84644633;2559;72885.37627;0.029248318;1;28.48197588
31;A;A_B8;13/07/2022;5.14E+05;20000;2.4;2.4;Z-VAD(Ome)-FMK;3;19/07/2022;13:50;21/07/2022;14:00;2;3359;2;4389;4266;78.12939522;3333;95562.98497;0.046882325;2;57.34352533
32;A;A_B8;13/07/2022;5.14E+05;20000;2.4;2.4;Z-VAD(Ome)-FMK;4;19/07/2022;13:50;21/07/2022;14:00;2;3644;0;4595;4447;81.42568023;3621;103820.2751;0;0;0
33;A;A_D4;13/07/2022;7.09E+05;20000;2.4;2.4;0;0;19/07/2022;13:50;21/07/2022;14:00;2;2536;4;3469;3307;74.65981252;2469;70321.56058;0.090716662;3;85.44539561
34;A;A_D4;13/07/2022;7.09E+05;20000;2.4;2.4;Z-VAD(Ome)-FMK;1.6;19/07/2022;13:50;21/07/2022;14:00;2;2759;1;3621;3510;77.80626781;2731;78302.67308;0;0;0
35;A;A_D4;13/07/2022;7.09E+05;20000;2.4;2.4;Z-VAD(Ome)-FMK;3;19/07/2022;13:50;21/07/2022;14:00;2;2332;0;3164;3049;75.69694982;2308;66174.16429;0;0;0
36;A;A_D4;13/07/2022;7.09E+05;20000;2.4;2.4;Z-VAD(Ome)-FMK;4;19/07/2022;13:50;21/07/2022;14:00;2;2003;1;2862;2767;71.88290567;1989;57027.87598;0.036140224;1;28.67163197
37;C;C_A5;13/07/2022;8.60E+05;20000;2.4;2.4;0;0;19/07/2022;13:50;21/07/2022;14:00;2;1912;2;2304;2221;85.36695182;1896;54360.7947;0;0;0
38;C;C_A5;13/07/2022;8.60E+05;20000;2.4;2.4;Z-VAD(Ome)-FMK;1.6;19/07/2022;13:50;21/07/2022;14:00;2;2279;0;2590;2515;90.09940358;2266;64969.25167;0;0;0
39;C;C_A5;13/07/2022;8.60E+05;20000;2.4;2.4;Z-VAD(Ome)-FMK;3;19/07/2022;13:50;21/07/2022;14:00;2;2305;1;2664;2573;89.15662651;2294;65771.97418;0;0;0
40;C;C_A5;13/07/2022;8.60E+05;20000;2.4;2.4;Z-VAD(Ome)-FMK;4;19/07/2022;13:50;21/07/2022;14:00;2;2397;0;2759;2655;89.26553672;2370;67501.09837;0;0;0
41;C;C_B8;13/07/2022;8.90E+05;20000;2.4;2.4;0;0;19/07/2022;13:50;21/07/2022;14:00;2;2621;0;3004;2910;88.79725086;2584;73596.30088;0;0;0
42;C;C_B8;13/07/2022;8.90E+05;20000;2.4;2.4;Z-VAD(Ome)-FMK;1.6;19/07/2022;13:50;21/07/2022;14:00;2;2396;2;2889;2758;84.7715736;2338;66590.06805;0.072516316;2;56.96327464
43;C;C_B8;13/07/2022;8.90E+05;20000;2.4;2.4;Z-VAD(Ome)-FMK;3;19/07/2022;13:50;21/07/2022;14:00;2;2319;0;2686;2581;88.33785355;2280;65370.68765;0;0;0
44;C;C_B8;13/07/2022;8.90E+05;20000;2.4;2.4;Z-VAD(Ome)-FMK;4;19/07/2022;13:50;21/07/2022;14:00;2;2639;1;3069;2963;88.15389808;2612;74393.57347;0;0;0
45;C;C_D4;13/07/2022;8.64E+05;20000;2.4;2.4;0;0;19/07/2022;13:50;21/07/2022;14:00;2;2691;1;3230;3112;85.41131105;2658;76209.06749;0.032133676;1;28.67158296
46;C;C_D4;13/07/2022;8.64E+05;20000;2.4;2.4;Z-VAD(Ome)-FMK;1.6;19/07/2022;13:50;21/07/2022;14:00;2;2673;2;3298;3181;82.83558629;2635;75049.32674;0.031436655;1;28.48171793
47;C;C_D4;13/07/2022;8.64E+05;20000;2.4;2.4;Z-VAD(Ome)-FMK;3;19/07/2022;13:50;21/07/2022;14:00;2;2657;2;3249;3132;83.65261814;2620;74621.63634;0.03192848;1;28.48154059
48;C;C_D4;13/07/2022;8.64E+05;20000;2.4;2.4;Z-VAD(Ome)-FMK;4;19/07/2022;13:50;21/07/2022;14:00;2;2054;1;2715;2602;78.01691007;2030;57818.05103;0.038431975;1;28.48179854
1;A;A_A5;13/07/2022;4.85E+05;20000;2.4;4.0;0;0;19/07/2022;13:50;22/07/2022;13:45;3;869;7;1317;1282;67.16068643;861;24522.66197;0.546021841;7;199.3712355
2;A;A_A5;13/07/2022;4.85E+05;20000;2.4;4.0;Z-VAD(Ome)-FMK;1.6;19/07/2022;13:50;22/07/2022;13:45;3;1254;4;1733;1672;73.80382775;1234;35146.12162;0.23923445;4;113.9258399
3;A;A_A5;13/07/2022;4.85E+05;20000;2.4;4.0;Z-VAD(Ome)-FMK;3;19/07/2022;13:50;22/07/2022;13:45;3;1747;11;2231;2175;79.2183908;1723;49073.72221;0.459770115;10;284.8155671
4;A;A_A5;13/07/2022;4.85E+05;20000;2.4;4.0;Z-VAD(Ome)-FMK;4;19/07/2022;13:50;22/07/2022;13:45;3;1972;4;2464;2380;81.63865546;1943;55339.72734;0.168067227;4;113.9263558
5;A;A_B8;13/07/2022;5.14E+05;20000;2.4;4.0;0;0;19/07/2022;13:50;22/07/2022;13:45;3;886;5;1277;1229;71.11472742;874;24892.86648;0.406834825;5;142.4077029
6;A;A_B8;13/07/2022;5.14E+05;20000;2.4;4.0;Z-VAD(Ome)-FMK;1.6;19/07/2022;13:50;22/07/2022;13:45;3;866;8;1290;1246;68.21829856;850;24209.25469;0.561797753;7;199.3703327
7;A;A_B8;13/07/2022;5.14E+05;20000;2.4;4.0;Z-VAD(Ome)-FMK;3;19/07/2022;13:50;22/07/2022;13:45;3;1105;7;1576;1516;71.89973615;1090;31044.86167;0.329815303;5;142.4076223
8;A;A_B8;13/07/2022;5.14E+05;20000;2.4;4.0;Z-VAD(Ome)-FMK;4;19/07/2022;13:50;22/07/2022;13:45;3;1338;5;1735;1689;78.74481942;1330;37880.36322;0.296033156;5;142.4073805
9;A;A_D4;13/07/2022;7.09E+05;20000;2.4;4.0;0;0;19/07/2022;13:50;22/07/2022;13:45;3;561;4;855;809;67.61433869;547;15683.20396;0.370828183;3;86.01391567
10;A;A_D4;13/07/2022;7.09E+05;20000;2.4;4.0;Z-VAD(Ome)-FMK;1.6;19/07/2022;13:50;22/07/2022;13:45;3;688;6;1068;1022;66.04696673;675;19224.95284;0.587084149;6;170.8884697
11;A;A_D4;13/07/2022;7.09E+05;20000;2.4;4.0;Z-VAD(Ome)-FMK;3;19/07/2022;13:50;22/07/2022;13:45;3;715;6;1110;1058;66.63516068;705;20079.61114;0.472589792;5;142.4085896
12;A;A_D4;13/07/2022;7.09E+05;20000;2.4;4.0;Z-VAD(Ome)-FMK;4;19/07/2022;13:50;22/07/2022;13:45;3;729;14;1174;1123;63.84683882;717;20421.25304;1.157613535;13;370.2598181
13;C;C_A5;13/07/2022;8.60E+05;20000;2.4;4.0;0;0;19/07/2022;13:50;22/07/2022;13:45;3;1468;1;1621;1578;92.20532319;1455;41440.43045;0.063371356;1;28.4813955
14;C;C_A5;13/07/2022;8.60E+05;20000;2.4;4.0;Z-VAD(Ome)-FMK;1.6;19/07/2022;13:50;22/07/2022;13:45;3;1569;3;1798;1742;88.63375431;1544;43975.47378;0.114810563;2;56.96304894
15;C;C_A5;13/07/2022;8.60E+05;20000;2.4;4.0;Z-VAD(Ome)-FMK;3;19/07/2022;13:50;22/07/2022;13:45;3;1292;7;1532;1488;85.75268817;1276;36342.32237;0.268817204;4;113.9257754
16;C;C_A5;13/07/2022;8.60E+05;20000;2.4;4.0;Z-VAD(Ome)-FMK;4;19/07/2022;13:50;22/07/2022;13:45;3;1350;4;1579;1529;86.85415304;1328;37823.33604;0.261608895;4;113.925711
17;C;C_B8;13/07/2022;8.90E+05;20000;2.4;4.0;0;0;19/07/2022;13:50;22/07/2022;13:45;3;1315;4;1513;1434;88.84239888;1274;36285.42109;0.278940028;4;113.9259689
18;C;C_B8;13/07/2022;8.90E+05;20000;2.4;4.0;Z-VAD(Ome)-FMK;1.6;19/07/2022;13:50;22/07/2022;13:45;3;1485;1;1713;1646;87.42405832;1439;40984.93691;0.060753341;1;28.48154059
19;C;C_B8;13/07/2022;8.90E+05;20000;2.4;4.0;Z-VAD(Ome)-FMK;3;19/07/2022;13:50;22/07/2022;13:45;3;1507;2;1746;1674;87.6344086;1467;41782.25449;0.119474313;2;56.96285548
20;C;C_B8;13/07/2022;8.90E+05;20000;2.4;4.0;Z-VAD(Ome)-FMK;4;19/07/2022;13:50;22/07/2022;13:45;3;1541;5;1791;1737;87.33448474;1517;43206.32588;0.172711572;3;85.44428322
21;C;C_D4;13/07/2022;8.64E+05;20000;2.4;4.0;0;0;19/07/2022;13:50;22/07/2022;13:45;3;1742;2;2004;1942;88.36251287;1716;48874.13;0.051493306;1;28.48142774
22;C;C_D4;13/07/2022;8.64E+05;20000;2.4;4.0;Z-VAD(Ome)-FMK;1.6;19/07/2022;13:50;22/07/2022;13:45;3;1582;7;1894;1839;84.66557912;1557;44345.7587;0.380641653;7;199.3707841
23;C;C_D4;13/07/2022;8.64E+05;20000;2.4;4.0;Z-VAD(Ome)-FMK;3;19/07/2022;13:50;22/07/2022;13:45;3;1472;3;1835;1761;82.28279387;1449;41269.63551;0.170357751;3;85.44437995
24;C;C_D4;13/07/2022;8.64E+05;20000;2.4;4.0;Z-VAD(Ome)-FMK;4;19/07/2022;13:50;22/07/2022;13:45;3;1376;6;1738;1678;81.22765197;1363;38820.16404;0.357568534;6;170.8884697
25;A;A_A5;13/07/2022;4.85E+05;20000;2.4;2.4;0;0;19/07/2022;13:50;22/07/2022;13:45;3;7312;2;8475;8263;87.24434225;7209;205327.029;0.012102142;1;28.48204036
26;A;A_A5;13/07/2022;4.85E+05;20000;2.4;2.4;Z-VAD(Ome)-FMK;1.6;19/07/2022;13:50;22/07/2022;13:45;3;7584;1;9048;8801;84.81990683;7465;212618.7924;0.011362345;1;28.48208873
27;A;A_A5;13/07/2022;4.85E+05;20000;2.4;2.4;Z-VAD(Ome)-FMK;3;19/07/2022;13:50;22/07/2022;13:45;3;7405;4;8646;8455;86.72974571;7333;208857.2651;0.047309284;4;113.9273231
28;A;A_A5;13/07/2022;4.85E+05;20000;2.4;2.4;Z-VAD(Ome)-FMK;4;19/07/2022;13:50;22/07/2022;13:45;3;7209;2;8368;8096;87.10474308;7052;200853.9843;0.024703557;2;56.9636938
29;A;A_B8;13/07/2022;5.14E+05;20000;2.4;2.4;0;0;19/07/2022;13:50;22/07/2022;13:45;3;5433;1;6371;6187;86.73024083;5366;152833.0714;0;0;0
30;A;A_B8;13/07/2022;5.14E+05;20000;2.4;2.4;Z-VAD(Ome)-FMK;1.6;19/07/2022;13:50;22/07/2022;13:45;3;6100;4;7281;7090;85.02115656;6028;172833.6808;0.042313117;3;86.01543504
31;A;A_B8;13/07/2022;5.14E+05;20000;2.4;2.4;Z-VAD(Ome)-FMK;3;19/07/2022;13:50;22/07/2022;13:45;3;8053;5;9238;9006;88.31889851;7954;226546.0208;0.044414835;4;113.928097
32;A;A_B8;13/07/2022;5.14E+05;20000;2.4;2.4;Z-VAD(Ome)-FMK;4;19/07/2022;13:50;22/07/2022;13:45;3;8063;4;9287;9072;87.90784832;7975;228657.9587;0.033068783;3;86.01553307
33;A;A_D4;13/07/2022;7.09E+05;20000;2.4;2.4;0;0;19/07/2022;13:50;22/07/2022;13:45;3;6647;2;7585;7408;88.59341253;6563;188172.8856;0.02699784;2;57.34355801
34;A;A_D4;13/07/2022;7.09E+05;20000;2.4;2.4;Z-VAD(Ome)-FMK;1.6;19/07/2022;13:50;22/07/2022;13:45;3;6644;2;7796;7597;86.34987495;6560;188087.0846;0.013163091;1;28.67181168
35;A;A_D4;13/07/2022;7.09E+05;20000;2.4;2.4;Z-VAD(Ome)-FMK;3;19/07/2022;13:50;22/07/2022;13:45;3;4953;1;5987;5854;83.65220362;4897;139475.4464;0.017082337;1;28.48181466
36;A;A_D4;13/07/2022;7.09E+05;20000;2.4;2.4;Z-VAD(Ome)-FMK;4;19/07/2022;13:50;22/07/2022;13:45;3;3899;2;5055;4878;78.35178352;3822;109582.6027;0.020500205;1;28.67153394
37;C;C_A5;13/07/2022;8.60E+05;20000;2.4;2.4;0;0;19/07/2022;13:50;22/07/2022;13:45;3;4057;1;4467;4335;92.3183391;4002;114743.8058;0;0;0
38;C;C_A5;13/07/2022;8.60E+05;20000;2.4;2.4;Z-VAD(Ome)-FMK;1.6;19/07/2022;13:50;22/07/2022;13:45;3;4986;0;5289;5145;95.35471331;4906;140661.5837;0;0;0
39;C;C_A5;13/07/2022;8.60E+05;20000;2.4;2.4;Z-VAD(Ome)-FMK;3;19/07/2022;13:50;22/07/2022;13:45;3;4934;0;5227;5112;95.81377152;4898;140432.133;0;0;0
40;C;C_A5;13/07/2022;8.60E+05;20000;2.4;2.4;Z-VAD(Ome)-FMK;4;19/07/2022;13:50;22/07/2022;13:45;3;4270;0;4596;4501;94.11241946;4236;121452.2026;0;0;0
41;C;C_B8;13/07/2022;8.90E+05;20000;2.4;2.4;0;0;19/07/2022;13:50;22/07/2022;13:45;3;4737;0;5083;4961;94.85990728;4706;134927.4699;0;0;0
42;C;C_B8;13/07/2022;8.90E+05;20000;2.4;2.4;Z-VAD(Ome)-FMK;1.6;19/07/2022;13:50;22/07/2022;13:45;3;4808;0;5153;5045;94.43012884;4764;136590.4872;0;0;0
43;C;C_B8;13/07/2022;8.90E+05;20000;2.4;2.4;Z-VAD(Ome)-FMK;3;19/07/2022;13:50;22/07/2022;13:45;3;4338;0;4665;4545;94.19141914;4281;122742.0675;0;0;0
44;C;C_B8;13/07/2022;8.90E+05;20000;2.4;2.4;Z-VAD(Ome)-FMK;4;19/07/2022;13:50;22/07/2022;13:45;3;5234;1;5599;5443;94.8006614;5160;147944.4407;0.018372221;1;28.67140325
45;C;C_D4;13/07/2022;8.64E+05;20000;2.4;2.4;0;0;19/07/2022;13:50;22/07/2022;13:45;3;5466;1;5979;5816;92.58940853;5385;154395.5065;0;0;0
46;C;C_D4;13/07/2022;8.64E+05;20000;2.4;2.4;Z-VAD(Ome)-FMK;1.6;19/07/2022;13:50;22/07/2022;13:45;3;5191;2;5725;5525;92.01809955;5084;145765.9955;0.036199095;2;57.34303521
47;C;C_D4;13/07/2022;8.64E+05;20000;2.4;2.4;Z-VAD(Ome)-FMK;3;19/07/2022;13:50;22/07/2022;13:45;3;5057;3;5689;5498;90.17824664;4958;142153.1413;0.054565296;3;86.01440578
48;C;C_D4;13/07/2022;8.64E+05;20000;2.4;2.4;Z-VAD(Ome)-FMK;4;19/07/2022;13:50;22/07/2022;13:45;3;4345;2;4948;4790;89.39457203;4282;121958.1639;0.041753653;2;56.96317791
1;A;A_A5;13/07/2022;4.85E+05;20000;2.4;4.0;0;0;19/07/2022;13:50;25/07/2022;14:30;6;5849;9;6411;6322;91.90129706;5810;165478.4065;0.142360013;9;256.334881
2;A;A_A5;13/07/2022;4.85E+05;20000;2.4;4.0;Z-VAD(Ome)-FMK;1.6;19/07/2022;13:50;25/07/2022;14:30;6;8147;6;8785;8641;93.25309571;8058;229505.5531;0.069436408;6;170.8902108
3;A;A_A5;13/07/2022;4.85E+05;20000;2.4;4.0;Z-VAD(Ome)-FMK;3;19/07/2022;13:50;25/07/2022;14:30;6;9165;17;9766;9630;94.26791277;9078;258557.6208;0.15576324;15;427.2267362
4;A;A_A5;13/07/2022;4.85E+05;20000;2.4;4.0;Z-VAD(Ome)-FMK;4;19/07/2022;13:50;25/07/2022;14:30;6;9374;7;10047;9888;93.80056634;9275;264168.0833;0.07079288;7;199.3721383
5;A;A_B8;13/07/2022;5.14E+05;20000;2.4;4.0;0;0;19/07/2022;13:50;25/07/2022;14:30;6;6468;4;7057;6921;92.24100564;6384;181827.3902;0.057795116;4;113.9269362
6;A;A_B8;13/07/2022;5.14E+05;20000;2.4;4.0;Z-VAD(Ome)-FMK;1.6;19/07/2022;13:50;25/07/2022;14:30;6;6917;9;7530;7424;92.24137931;6848;195043.1356;0.107758621;8;227.8541303
7;A;A_B8;13/07/2022;5.14E+05;20000;2.4;4.0;Z-VAD(Ome)-FMK;3;19/07/2022;13:50;25/07/2022;14:30;6;7161;11;7804;7684;92.15252473;7081;201678.7022;0.143154607;11;313.2983652
8;A;A_B8;13/07/2022;5.14E+05;20000;2.4;4.0;Z-VAD(Ome)-FMK;4;19/07/2022;13:50;25/07/2022;14:30;6;7871;10;8487;8331;93.38614812;7780;221587.2638;0.096026888;8;227.8532275
9;A;A_D4;13/07/2022;7.09E+05;20000;2.4;4.0;0;0;19/07/2022;13:50;25/07/2022;14:30;6;4383;9;4837;4739;91.20067525;4322;123097.0791;0.189913484;9;256.3335751
10;A;A_D4;13/07/2022;7.09E+05;20000;2.4;4.0;Z-VAD(Ome)-FMK;1.6;19/07/2022;13:50;25/07/2022;14:30;6;4849;7;5373;5254;91.0354016;4783;136228.9051;0.095165588;5;142.4094763
11;A;A_D4;13/07/2022;7.09E+05;20000;2.4;4.0;Z-VAD(Ome)-FMK;3;19/07/2022;13:50;25/07/2022;14:30;6;5105;10;5574;5481;92.09998176;5048;143775.6307;0.164203612;9;256.3353162
12;A;A_D4;13/07/2022;7.09E+05;20000;2.4;4.0;Z-VAD(Ome)-FMK;4;19/07/2022;13:50;25/07/2022;14:30;6;5048;9;5634;5506;90.26516527;4970;141553.1766;0.145296041;8;227.8521957
13;C;C_A5;13/07/2022;8.60E+05;20000;2.4;4.0;0;0;19/07/2022;13:50;25/07/2022;14:30;6;5658;5;5899;5724;96.5234102;5525;157360.0664;0.069881202;4;113.9258399
14;C;C_A5;13/07/2022;8.60E+05;20000;2.4;4.0;Z-VAD(Ome)-FMK;1.6;19/07/2022;13:50;25/07/2022;14:30;6;5163;9;5472;5274;94.99431172;5010;142691.8722;0.132726583;7;199.3698813
15;C;C_A5;13/07/2022;8.60E+05;20000;2.4;4.0;Z-VAD(Ome)-FMK;3;19/07/2022;13:50;25/07/2022;14:30;6;4758;7;5099;4890;94.15132924;4604;131128.9387;0.102249489;5;142.4076223
16;C;C_A5;13/07/2022;8.60E+05;20000;2.4;4.0;Z-VAD(Ome)-FMK;4;19/07/2022;13:50;25/07/2022;14:30;6;5163;13;5480;5292;94.76568405;5015;142834.6835;0.170068027;9;256.33343
17;C;C_B8;13/07/2022;8.90E+05;20000;2.4;4.0;0;0;19/07/2022;13:50;25/07/2022;14:30;6;4939;5;5194;5062;95.51560648;4835;137707.5472;0.098775188;5;142.4069775
18;C;C_B8;13/07/2022;8.90E+05;20000;2.4;4.0;Z-VAD(Ome)-FMK;1.6;19/07/2022;13:50;25/07/2022;14:30;6;4499;6;4803;4699;94.12640987;4423;125974.2106;0.106405618;5;142.408106
19;C;C_B8;13/07/2022;8.90E+05;20000;2.4;4.0;Z-VAD(Ome)-FMK;3;19/07/2022;13:50;25/07/2022;14:30;6;4670;4;4974;4727;94.22466681;4454;126856.6382;0.084620267;4;113.9260334
20;C;C_B8;13/07/2022;8.90E+05;20000;2.4;4.0;Z-VAD(Ome)-FMK;4;19/07/2022;13:50;25/07/2022;14:30;6;4846;10;5128;4913;95.09464686;4672;133065.6823;0.162833299;8;227.8521957
21;C;C_D4;13/07/2022;8.64E+05;20000;2.4;4.0;0;0;19/07/2022;13:50;25/07/2022;14:30;6;4267;5;4624;4423;92.9007461;4109;117030.6503;0.113045444;5;142.4077029
22;C;C_D4;13/07/2022;8.64E+05;20000;2.4;4.0;Z-VAD(Ome)-FMK;1.6;19/07/2022;13:50;25/07/2022;14:30;6;3981;10;4387;4202;91.55164208;3847;110299.4539;0.190385531;8;229.3724022
23;C;C_D4;13/07/2022;8.64E+05;20000;2.4;4.0;Z-VAD(Ome)-FMK;3;19/07/2022;13:50;25/07/2022;14:30;6;4006;11;4426;4260;91.12676056;3882;110565.4032;0.211267606;9;256.3340104
24;C;C_D4;13/07/2022;8.64E+05;20000;2.4;4.0;Z-VAD(Ome)-FMK;4;19/07/2022;13:50;25/07/2022;14:30;6;3808;7;4272;4080;89.82843137;3665;104384.7872;0.147058824;6;170.8891468
25;A;A_A5;13/07/2022;4.85E+05;20000;2.4;2.4;0;0;19/07/2022;13:50;25/07/2022;14:30;6;29296;7;30559;29866;96.31353378;28765;819286.3548;0.023438023;7;199.3743954
26;A;A_A5;13/07/2022;4.85E+05;20000;2.4;2.4;Z-VAD(Ome)-FMK;1.6;19/07/2022;13:50;25/07/2022;14:30;6;29902;23;31274;30584;96.06984044;29382;836881.1007;0.055584619;17;484.207294
27;A;A_A5;13/07/2022;4.85E+05;20000;2.4;2.4;Z-VAD(Ome)-FMK;3;19/07/2022;13:50;25/07/2022;14:30;6;17701;14;18995;18604;93.86153515;17462;497350.5736;0.064502258;12;341.7825497
28;A;A_A5;13/07/2022;4.85E+05;20000;2.4;2.4;Z-VAD(Ome)-FMK;4;19/07/2022;13:50;25/07/2022;14:30;6;22066;5;23353;22874;95.12109819;21758;619704.8679;0.017487103;4;113.9268072
29;A;A_B8;13/07/2022;5.14E+05;20000;2.4;2.4;0;0;19/07/2022;13:50;25/07/2022;14:30;6;20714;8;22062;21623;94.53359848;20441;582198.4211;0.032372936;7;199.3732669
30;A;A_B8;13/07/2022;5.14E+05;20000;2.4;2.4;Z-VAD(Ome)-FMK;1.6;19/07/2022;13:50;25/07/2022;14:30;6;22396;9;23695;23156;95.21506305;22048;632155.3835;0.030229746;7;200.702453
31;A;A_B8;13/07/2022;5.14E+05;20000;2.4;2.4;Z-VAD(Ome)-FMK;3;19/07/2022;13:50;25/07/2022;14:30;6;28429;11;29654;29019;96.28519246;27941;801109.504;0.031014163;9;258.0432173
32;A;A_B8;13/07/2022;5.14E+05;20000;2.4;2.4;Z-VAD(Ome)-FMK;4;19/07/2022;13:50;25/07/2022;14:30;6;26502;8;27882;27230;95.54168197;26016;740983.729;0.029379361;8;227.8547752
33;A;A_D4;13/07/2022;7.09E+05;20000;2.4;2.4;0;0;19/07/2022;13:50;25/07/2022;14:30;6;25564;9;26991;26384;95.25090964;25131;720565.2593;0.018950879;5;143.3618358
34;A;A_D4;13/07/2022;7.09E+05;20000;2.4;2.4;Z-VAD(Ome)-FMK;1.6;19/07/2022;13:50;25/07/2022;14:30;6;26193;5;27881;27234;94.59866344;25763;738679.4607;0.018359404;5;143.3605288
35;A;A_D4;13/07/2022;7.09E+05;20000;2.4;2.4;Z-VAD(Ome)-FMK;3;19/07/2022;13:50;25/07/2022;14:30;6;25448;9;26934;26410;95.08898145;25113;720032.745;0.018932223;5;143.3585683
36;A;A_D4;13/07/2022;7.09E+05;20000;2.4;2.4;Z-VAD(Ome)-FMK;4;19/07/2022;13:50;25/07/2022;14:30;6;24840;10;26321;25801;94.94593233;24497;697726.5175;0.023254913;6;170.8927259
37;C;C_A5;13/07/2022;8.60E+05;20000;2.4;2.4;0;0;19/07/2022;13:50;25/07/2022;14:30;6;28287;2;28764;28078;98.75703398;27729;795037.0419;0.007123014;2;57.34336196
38;C;C_A5;13/07/2022;8.60E+05;20000;2.4;2.4;Z-VAD(Ome)-FMK;1.6;19/07/2022;13:50;25/07/2022;14:30;6;31145;2;31506;30962;99.12796331;30692;874158.4126;0.003229766;1;28.48163732
39;C;C_A5;13/07/2022;8.60E+05;20000;2.4;2.4;Z-VAD(Ome)-FMK;3;19/07/2022;13:50;25/07/2022;14:30;6;28141;2;28505;28030;99.0724224;27770;796210.3123;0.007135212;2;57.34319858
40;C;C_A5;13/07/2022;8.60E+05;20000;2.4;2.4;Z-VAD(Ome)-FMK;4;19/07/2022;13:50;25/07/2022;14:30;6;22871;3;23225;22908;98.88685175;22653;649501.8098;0.013095862;3;86.01533701
41;C;C_B8;13/07/2022;8.90E+05;20000;2.4;2.4;0;0;19/07/2022;13:50;25/07/2022;14:30;6;19264;1;19682;19323;98.59235108;19051;542618.1082;0.00517518;1;28.48239505
42;C;C_B8;13/07/2022;8.90E+05;20000;2.4;2.4;Z-VAD(Ome)-FMK;1.6;19/07/2022;13:50;25/07/2022;14:30;6;19594;6;20036;19755;98.27891673;19415;556663.541;0.030372058;6;172.0309681
43;C;C_B8;13/07/2022;8.90E+05;20000;2.4;2.4;Z-VAD(Ome)-FMK;3;19/07/2022;13:50;25/07/2022;14:30;6;26035;2;26535;26087;98.44750259;25682;731466.2377;0.003833327;1;28.48166956
44;C;C_B8;13/07/2022;8.90E+05;20000;2.4;2.4;Z-VAD(Ome)-FMK;4;19/07/2022;13:50;25/07/2022;14:30;6;31385;1;31906;31283;98.67979414;30870;879226.1533;0.003196624;1;28.48157283
45;C;C_D4;13/07/2022;8.64E+05;20000;2.4;2.4;0;0;19/07/2022;13:50;25/07/2022;14:30;6;34305;6;34843;34111;98.77165724;33692;966005.1747;0.017589634;6;172.0298898
46;C;C_D4;13/07/2022;8.64E+05;20000;2.4;2.4;Z-VAD(Ome)-FMK;1.6;19/07/2022;13:50;25/07/2022;14:30;6;35569;11;36166;35377;98.71102694;34921;1001238.066;0.025440258;9;258.0436585
47;C;C_D4;13/07/2022;8.64E+05;20000;2.4;2.4;Z-VAD(Ome)-FMK;3;19/07/2022;13:50;25/07/2022;14:30;6;33258;17;33965;33227;98.33268125;32673;930584.7501;0.04815361;16;455.7082607
48;C;C_D4;13/07/2022;8.64E+05;20000;2.4;2.4;Z-VAD(Ome)-FMK;4;19/07/2022;13:50;25/07/2022;14:30;6;31887;9;32456;31914;98.56802657;31457;901920.4432;0.02820079;9;258.0438055
1;A;A_A5;13/07/2022;4.85E+05;20000;2.4;4.0;0;0;19/07/2022;13:50;26/07/2022;13:45;7;7628;14;8212;8076;93.36305102;7540;214751.7885;0.160970778;13;370.2617043
2;A;A_A5;13/07/2022;4.85E+05;20000;2.4;4.0;Z-VAD(Ome)-FMK;1.6;19/07/2022;13:50;26/07/2022;13:45;7;11395;16;12048;11839;95.05870428;11254;320531.9835;0.118253231;14;398.7424711
3;A;A_A5;13/07/2022;4.85E+05;20000;2.4;4.0;Z-VAD(Ome)-FMK;3;19/07/2022;13:50;26/07/2022;13:45;7;11996;17;12676;12470;95.0521251;11853;337596.2868;0.120288693;15;427.2289127
4;A;A_A5;13/07/2022;4.85E+05;20000;2.4;4.0;Z-VAD(Ome)-FMK;4;19/07/2022;13:50;26/07/2022;13:45;7;12725;22;13461;13215;95.035944;12559;357703.1103;0.136208854;18;512.6726638
5;A;A_B8;13/07/2022;5.14E+05;20000;2.4;4.0;0;0;19/07/2022;13:50;26/07/2022;13:45;7;9552;12;10175;9985;94.4016024;9426;268467.7614;0.12018027;12;341.7794544
6;A;A_B8;13/07/2022;5.14E+05;20000;2.4;4.0;Z-VAD(Ome)-FMK;1.6;19/07/2022;13:50;26/07/2022;13:45;7;9602;12;10249;10084;94.08964697;9488;270233.316;0.119000397;12;341.7790674
7;A;A_B8;13/07/2022;5.14E+05;20000;2.4;4.0;Z-VAD(Ome)-FMK;3;19/07/2022;13:50;26/07/2022;13:45;7;10624;16;11295;11071;94.56237016;10469;298175.2738;0.1174239;13;370.2625426
8;A;A_B8;13/07/2022;5.14E+05;20000;2.4;4.0;Z-VAD(Ome)-FMK;4;19/07/2022;13:50;26/07/2022;13:45;7;11316;15;11919;11708;95.36214554;11165;320117.8589;0.128117526;15;430.0732542
9;A;A_D4;13/07/2022;7.09E+05;20000;2.4;4.0;0;0;19/07/2022;13:50;26/07/2022;13:45;7;6264;8;6732;6636;93.44484629;6201;176614.2331;0.120554551;8;227.8525827
10;A;A_D4;13/07/2022;7.09E+05;20000;2.4;4.0;Z-VAD(Ome)-FMK;1.6;19/07/2022;13:50;26/07/2022;13:45;7;6993;12;7522;7375;93.55932203;6900;196523.7425;0.149152542;11;313.2987199
11;A;A_D4;13/07/2022;7.09E+05;20000;2.4;4.0;Z-VAD(Ome)-FMK;3;19/07/2022;13:50;26/07/2022;13:45;7;7358;21;7934;7781;93.11142527;7245;206348.528;0.231332734;18;512.6671502
12;A;A_D4;13/07/2022;7.09E+05;20000;2.4;4.0;Z-VAD(Ome)-FMK;4;19/07/2022;13:50;26/07/2022;13:45;7;7212;12;7840;7662;92.61289481;7096;202105.3552;0.117462803;9;256.3343006
13;C;C_A5;13/07/2022;8.60E+05;20000;2.4;4.0;0;0;19/07/2022;13:50;26/07/2022;13:45;7;8083;6;8323;8169;97.41706451;7958;226655.202;0.073448402;6;170.8885664
14;C;C_A5;13/07/2022;8.60E+05;20000;2.4;4.0;Z-VAD(Ome)-FMK;1.6;19/07/2022;13:50;26/07/2022;13:45;7;7294;9;7585;7394;96.57830674;7141;203386.1057;0.121720314;9;256.3331398
15;C;C_A5;13/07/2022;8.60E+05;20000;2.4;4.0;Z-VAD(Ome)-FMK;3;19/07/2022;13:50;26/07/2022;13:45;7;6357;14;6712;6554;95.16325908;6237;177639.2681;0.167836436;11;313.2967691
16;C;C_A5;13/07/2022;8.60E+05;20000;2.4;4.0;Z-VAD(Ome)-FMK;4;19/07/2022;13:50;26/07/2022;13:45;7;6895;21;7260;7050;95.67375887;6745;192108.2088;0.241134752;17;484.1867382
17;C;C_B8;13/07/2022;8.90E+05;20000;2.4;4.0;0;0;19/07/2022;13:50;26/07/2022;13:45;7;7143;7;7483;7324;96.01310759;7032;200281.9667;0.081922447;6;170.8890501
18;C;C_B8;13/07/2022;8.90E+05;20000;2.4;4.0;Z-VAD(Ome)-FMK;1.6;19/07/2022;13:50;26/07/2022;13:45;7;6267;14;6596;6463;95.54386508;6175;177045.7133;0.201144979;13;372.7278174
19;C;C_B8;13/07/2022;8.90E+05;20000;2.4;4.0;Z-VAD(Ome)-FMK;3;19/07/2022;13:50;26/07/2022;13:45;7;6410;16;6769;6562;95.21487351;6248;177953.5722;0.198110332;13;370.2619139
20;C;C_B8;13/07/2022;8.90E+05;20000;2.4;4.0;Z-VAD(Ome)-FMK;4;19/07/2022;13:50;26/07/2022;13:45;7;6504;23;6831;6602;95.74371403;6321;180031.6143;0.318085429;21;598.1116753
21;C;C_D4;13/07/2022;8.64E+05;20000;2.4;4.0;0;0;19/07/2022;13:50;26/07/2022;13:45;7;5624;13;5994;5797;94.41090219;5473;155879.5599;0.207003623;12;341.7786805
22;C;C_D4;13/07/2022;8.64E+05;20000;2.4;4.0;Z-VAD(Ome)-FMK;1.6;19/07/2022;13:50;26/07/2022;13:45;7;5453;4;5848;5689;93.79504307;5336;151977.3285;0.070311127;4;113.9260334
23;C;C_D4;13/07/2022;8.64E+05;20000;2.4;4.0;Z-VAD(Ome)-FMK;3;19/07/2022;13:50;26/07/2022;13:45;7;5185;16;5636;5447;92.61979071;5045;143689.3723;0.238663484;13;370.2600277
24;C;C_D4;13/07/2022;8.64E+05;20000;2.4;4.0;Z-VAD(Ome)-FMK;4;19/07/2022;13:50;26/07/2022;13:45;7;5037;13;5498;5350;92.54205607;4951;141011.7084;0.242990654;13;370.2589798
25;A;A_A5;13/07/2022;4.85E+05;20000;2.4;2.4;0;0;19/07/2022;13:50;26/07/2022;13:45;7;36293;19;37608;36821;96.92295158;35688;1016464.755;0.040737623;15;427.2296381
26;A;A_A5;13/07/2022;4.85E+05;20000;2.4;2.4;Z-VAD(Ome)-FMK;1.6;19/07/2022;13:50;26/07/2022;13:45;7;36760;30;38238;37310;96.58000536;36034;1026317.195;0.061645671;23;655.0839619
27;A;A_A5;13/07/2022;4.85E+05;20000;2.4;2.4;Z-VAD(Ome)-FMK;3;19/07/2022;13:50;26/07/2022;13:45;7;24655;21;26174;25550;94.85322896;24235;690261.0761;0.078277886;20;569.63984
28;A;A_A5;13/07/2022;4.85E+05;20000;2.4;2.4;Z-VAD(Ome)-FMK;4;19/07/2022;13:50;26/07/2022;13:45;7;27377;36;28982;28408;94.99436778;26986;768613.2958;0.098563785;28;797.4939703
29;A;A_B8;13/07/2022;5.14E+05;20000;2.4;2.4;0;0;19/07/2022;13:50;26/07/2022;13:45;7;28248;20;29685;29122;95.62530046;27848;798454.8865;0.065242772;19;544.765974
30;A;A_B8;13/07/2022;5.14E+05;20000;2.4;2.4;Z-VAD(Ome)-FMK;1.6;19/07/2022;13:50;26/07/2022;13:45;7;28279;18;29873;29145;95.26162292;27764;796043.7259;0.051466804;15;430.0769301
31;A;A_B8;13/07/2022;5.14E+05;20000;2.4;2.4;Z-VAD(Ome)-FMK;3;19/07/2022;13:50;26/07/2022;13:45;7;32523;27;34130;33319;95.70215193;31887;914251.8076;0.072030973;24;688.1187751
32;A;A_B8;13/07/2022;5.14E+05;20000;2.4;2.4;Z-VAD(Ome)-FMK;4;19/07/2022;13:50;26/07/2022;13:45;7;30681;22;32179;31402;95.83466021;30094;862847.0424;0.0605057;19;544.7628698
33;A;A_D4;13/07/2022;7.09E+05;20000;2.4;2.4;0;0;19/07/2022;13:50;26/07/2022;13:45;7;30635;16;32372;31683;95.22141211;30169;859280.026;0.041031468;13;370.2688302
34;A;A_D4;13/07/2022;7.09E+05;20000;2.4;2.4;Z-VAD(Ome)-FMK;1.6;19/07/2022;13:50;26/07/2022;13:45;7;30075;27;32057;31380;94.47100064;29645;849979.7319;0.082855322;26;745.4705019
35;A;A_D4;13/07/2022;7.09E+05;20000;2.4;2.4;Z-VAD(Ome)-FMK;3;19/07/2022;13:50;26/07/2022;13:45;7;28874;24;31163;30352;93.57208751;28401;814319.2598;0.059304164;18;516.0996682
36;A;A_D4;13/07/2022;7.09E+05;20000;2.4;2.4;Z-VAD(Ome)-FMK;4;19/07/2022;13:50;26/07/2022;13:45;7;29229;21;31095;30480;94.54396325;28817;820763.7051;0.059055118;18;512.6746952
37;C;C_A5;13/07/2022;8.60E+05;20000;2.4;2.4;0;0;19/07/2022;13:50;26/07/2022;13:45;7;35719;3;36142;35434;99.17593272;35142;1007579.639;0.005644296;2;57.34332928
38;C;C_A5;13/07/2022;8.60E+05;20000;2.4;2.4;Z-VAD(Ome)-FMK;1.6;19/07/2022;13:50;26/07/2022;13:45;7;35933;3;36284;34800;99.25287356;34540;990329.4542;0.00862069;3;86.01587616
39;C;C_A5;13/07/2022;8.60E+05;20000;2.4;2.4;Z-VAD(Ome)-FMK;3;19/07/2022;13:50;26/07/2022;13:45;7;36859;13;37348;36566;99.01547886;36206;1038093.388;0.013673905;5;143.3593035
40;C;C_A5;13/07/2022;8.60E+05;20000;2.4;2.4;Z-VAD(Ome)-FMK;4;19/07/2022;13:50;26/07/2022;13:45;7;30286;7;30993;30368;98.14607482;29805;854564.321;0.02305058;7;200.7029105
41;C;C_B8;13/07/2022;8.90E+05;20000;2.4;2.4;0;0;19/07/2022;13:50;26/07/2022;13:45;7;28801;4;29338;28702;98.60985297;28303;811489.5004;0.013936311;4;114.6860051
42;C;C_B8;13/07/2022;8.90E+05;20000;2.4;2.4;Z-VAD(Ome)-FMK;1.6;19/07/2022;13:50;26/07/2022;13:45;7;28604;5;29174;28523;98.49244469;28093;805468.0262;0.01402377;4;114.6859397
43;C;C_B8;13/07/2022;8.90E+05;20000;2.4;2.4;Z-VAD(Ome)-FMK;3;19/07/2022;13:50;26/07/2022;13:45;7;29746;4;30347;28454;98.39741337;27998;802748.8092;0.007028889;2;57.34329661
44;C;C_B8;13/07/2022;8.90E+05;20000;2.4;2.4;Z-VAD(Ome)-FMK;4;19/07/2022;13:50;26/07/2022;13:45;7;38045;11;38619;37658;98.84752244;37224;1067268.571;0.013277391;5;143.357588
45;C;C_D4;13/07/2022;8.64E+05;20000;2.4;2.4;0;0;19/07/2022;13:50;26/07/2022;13:45;7;47268;14;47801;46432;99.19021365;46056;1311773.306;0.03015162;14;398.7499194
46;C;C_D4;13/07/2022;8.64E+05;20000;2.4;2.4;Z-VAD(Ome)-FMK;1.6;19/07/2022;13:50;26/07/2022;13:45;7;44542;11;45142;43811;98.98199082;43365;1243355.239;0.02510785;11;315.3904676
47;C;C_D4;13/07/2022;8.64E+05;20000;2.4;2.4;Z-VAD(Ome)-FMK;3;19/07/2022;13:50;26/07/2022;13:45;7;41429;16;42075;40603;98.86707879;40143;1150969.913;0.036943083;15;430.0761949
48;C;C_D4;13/07/2022;8.64E+05;20000;2.4;2.4;Z-VAD(Ome)-FMK;4;19/07/2022;13:50;26/07/2022;13:45;7;41872;8;42450;41432;98.96215486;41002;1175597.603;0.01448156;6;172.0302819
1;A;A_A5;13/07/2022;4.85E+05;20000;2.4;4.0;0;0;19/07/2022;13:50;27/07/2022;13:45;8;11434;22;12061;11866;95.19635935;11296;321729.6678;0.176976235;21;598.116415
2;A;A_A5;13/07/2022;4.85E+05;20000;2.4;4.0;Z-VAD(Ome)-FMK;1.6;19/07/2022;13:50;27/07/2022;13:45;8;15072;18;15701;15446;96.36799171;14885;423949.8914;0.103586689;16;455.7069709
3;A;A_A5;13/07/2022;4.85E+05;20000;2.4;4.0;Z-VAD(Ome)-FMK;3;19/07/2022;13:50;27/07/2022;13:45;8;15985;39;16724;16377;96.07986811;15735;448158.8169;0.201502107;33;939.8945635
4;A;A_A5;13/07/2022;4.85E+05;20000;2.4;4.0;Z-VAD(Ome)-FMK;4;19/07/2022;13:50;27/07/2022;13:45;8;16621;46;17373;17042;96.0626687;16371;466276.3156;0.205374956;35;996.8646415
5;A;A_B8;13/07/2022;5.14E+05;20000;2.4;4.0;0;0;19/07/2022;13:50;27/07/2022;13:45;8;13486;43;14115;13865;95.88892896;13295;378665.2972;0.281283808;39;1110.789514
6;A;A_B8;13/07/2022;5.14E+05;20000;2.4;4.0;Z-VAD(Ome)-FMK;1.6;19/07/2022;13:50;27/07/2022;13:45;8;14159;17;14815;14535;95.93395253;13944;397147.9508;0.116959064;17;484.1878344
7;A;A_B8;13/07/2022;5.14E+05;20000;2.4;4.0;Z-VAD(Ome)-FMK;3;19/07/2022;13:50;27/07/2022;13:45;8;15253;34;15971;15675;95.96810207;15043;428451.2103;0.178628389;28;797.4894562
8;A;A_B8;13/07/2022;5.14E+05;20000;2.4;4.0;Z-VAD(Ome)-FMK;4;19/07/2022;13:50;27/07/2022;13:45;8;15606;37;16303;15972;96.25594791;15374;437876.94;0.175306787;28;797.4862963
9;A;A_D4;13/07/2022;7.09E+05;20000;2.4;4.0;0;0;19/07/2022;13:50;27/07/2022;13:45;8;8920;19;9482;9325;94.44504021;8807;250838.4898;0.203753351;19;541.1526406
10;A;A_D4;13/07/2022;7.09E+05;20000;2.4;4.0;Z-VAD(Ome)-FMK;1.6;19/07/2022;13:50;27/07/2022;13:45;8;10580;18;11159;10919;95.20102573;10395;296066.6199;0.164850261;18;512.6694717
11;A;A_D4;13/07/2022;7.09E+05;20000;2.4;4.0;Z-VAD(Ome)-FMK;3;19/07/2022;13:50;27/07/2022;13:45;8;10673;28;11247;10994;95.17918865;10464;298033.5399;0.19101328;21;598.1177693
12;A;A_D4;13/07/2022;7.09E+05;20000;2.4;4.0;Z-VAD(Ome)-FMK;4;19/07/2022;13:50;27/07/2022;13:45;8;10055;27;10805;10603;93.45468264;9909;282225.3429;0.235782326;25;712.0429482
13;C;C_A5;13/07/2022;8.60E+05;20000;2.4;4.0;0;0;19/07/2022;13:50;27/07/2022;13:45;8;10987;14;11270;11061;97.81213272;10819;308140.2179;0.117530061;13;370.2581415
14;C;C_A5;13/07/2022;8.60E+05;20000;2.4;4.0;Z-VAD(Ome)-FMK;1.6;19/07/2022;13:50;27/07/2022;13:45;8;10685;18;10984;10778;97.53200965;10512;299397.6157;0.148450547;16;455.7041335
15;C;C_A5;13/07/2022;8.60E+05;20000;2.4;4.0;Z-VAD(Ome)-FMK;3;19/07/2022;13:50;27/07/2022;13:45;8;9392;19;9787;9558;96.39045825;9213;262400.2849;0.198786357;19;541.1489649
16;C;C_A5;13/07/2022;8.60E+05;20000;2.4;4.0;Z-VAD(Ome)-FMK;4;19/07/2022;13:50;27/07/2022;13:45;8;10037;20;10445;10192;96.49725275;9835;280116.4274;0.176609105;18;512.6686012
17;C;C_B8;13/07/2022;8.90E+05;20000;2.4;4.0;0;0;19/07/2022;13:50;27/07/2022;13:45;8;10447;28;10814;10592;96.94108761;10268;292447.7966;0.23602719;25;712.0369026
18;C;C_B8;13/07/2022;8.90E+05;20000;2.4;4.0;Z-VAD(Ome)-FMK;1.6;19/07/2022;13:50;27/07/2022;13:45;8;8751;19;9105;8901;96.62959218;8601;244969.3146;0.179755084;16;455.7038756
19;C;C_B8;13/07/2022;8.90E+05;20000;2.4;4.0;Z-VAD(Ome)-FMK;3;19/07/2022;13:50;27/07/2022;13:45;8;9243;25;9631;9361;96.37859203;9022;256960.0229;0.224335007;21;598.1113367
20;C;C_B8;13/07/2022;8.90E+05;20000;2.4;4.0;Z-VAD(Ome)-FMK;4;19/07/2022;13:50;27/07/2022;13:45;8;9442;26;9821;9573;96.5841429;9246;263339.2809;0.198474877;19;541.147127
21;C;C_D4;13/07/2022;8.64E+05;20000;2.4;4.0;0;0;19/07/2022;13:50;27/07/2022;13:45;8;7495;18;7954;7671;94.90288098;7280;207345.7329;0.23464998;18;512.6680208
22;C;C_D4;13/07/2022;8.64E+05;20000;2.4;4.0;Z-VAD(Ome)-FMK;1.6;19/07/2022;13:50;27/07/2022;13:45;8;7293;18;7735;7470;94.97991968;7095;202076.6449;0.227576975;17;484.1864641
23;C;C_D4;13/07/2022;8.64E+05;20000;2.4;4.0;Z-VAD(Ome)-FMK;3;19/07/2022;13:50;27/07/2022;13:45;8;6945;26;7445;7218;93.66860626;6761;192563.1509;0.346356331;25;712.0364996
24;C;C_D4;13/07/2022;8.64E+05;20000;2.4;4.0;Z-VAD(Ome)-FMK;4;19/07/2022;13:50;27/07/2022;13:45;8;6741;19;7185;6952;94.37571922;6561;186867.9167;0.258918297;18;512.6691815
25;A;A_A5;13/07/2022;4.85E+05;20000;2.4;2.4;0;0;19/07/2022;13:50;27/07/2022;13:45;8;37422;43;39166;38123;96.09159825;36633;1043393.216;0.089185006;34;968.3992392
26;A;A_A5;13/07/2022;4.85E+05;20000;2.4;2.4;Z-VAD(Ome)-FMK;1.6;19/07/2022;13:50;27/07/2022;13:45;8;37317;31;39184;38125;95.75344262;36506;1039768.897;0.070819672;27;769.0177016
27;A;A_A5;13/07/2022;4.85E+05;20000;2.4;2.4;Z-VAD(Ome)-FMK;3;19/07/2022;13:50;27/07/2022;13:45;8;27740;45;29682;29032;94.10994764;27322;778187.1878;0.110223202;32;911.4263235
28;A;A_A5;13/07/2022;4.85E+05;20000;2.4;2.4;Z-VAD(Ome)-FMK;4;19/07/2022;13:50;27/07/2022;13:45;8;28028;46;29587;28794;95.25248316;27427;781174.268;0.145863722;42;1196.241633
29;A;A_B8;13/07/2022;5.14E+05;20000;2.4;2.4;0;0;19/07/2022;13:50;27/07/2022;13:45;8;30140;42;31718;31078;95.524165;29687;845548.7254;0.102966729;32;911.4278712
30;A;A_B8;13/07/2022;5.14E+05;20000;2.4;2.4;Z-VAD(Ome)-FMK;1.6;19/07/2022;13:50;27/07/2022;13:45;8;31068;58;32843;32148;95.25942516;30624;872234.4978;0.14619883;47;1338.656655
31;A;A_B8;13/07/2022;5.14E+05;20000;2.4;2.4;Z-VAD(Ome)-FMK;3;19/07/2022;13:50;27/07/2022;13:45;8;34077;40;35778;35017;95.76205843;33533;961451.8611;0.094239941;33;946.1697854
32;A;A_B8;13/07/2022;5.14E+05;20000;2.4;2.4;Z-VAD(Ome)-FMK;4;19/07/2022;13:50;27/07/2022;13:45;8;32795;54;34553;33831;95.47160888;32299;926095.1198;0.138925837;47;1347.610472
33;A;A_D4;13/07/2022;7.09E+05;20000;2.4;2.4;0;0;19/07/2022;13:50;27/07/2022;13:45;8;30949;45;33607;32573;92.96042735;30280;868198.2884;0.095170847;31;888.8423693
34;A;A_D4;13/07/2022;7.09E+05;20000;2.4;2.4;Z-VAD(Ome)-FMK;1.6;19/07/2022;13:50;27/07/2022;13:45;8;30577;49;33905;32710;91.23815347;29844;855712.754;0.125343932;41;1175.58715
35;A;A_D4;13/07/2022;7.09E+05;20000;2.4;2.4;Z-VAD(Ome)-FMK;3;19/07/2022;13:50;27/07/2022;13:45;8;29979;75;33747;32583;89.83212104;29270;839252.621;0.196421447;64;1835.058686
36;A;A_D4;13/07/2022;7.09E+05;20000;2.4;2.4;Z-VAD(Ome)-FMK;4;19/07/2022;13:50;27/07/2022;13:45;8;31846;61;35241;34080;91.49647887;31182;888139.048;0.11443662;39;1110.814665
37;C;C_A5;13/07/2022;8.60E+05;20000;2.4;2.4;0;0;19/07/2022;13:50;27/07/2022;13:45;8;44256;7;44742;43532;99.21437104;43190;1230149.072;0.016080125;7;199.3758625
38;C;C_A5;13/07/2022;8.60E+05;20000;2.4;2.4;Z-VAD(Ome)-FMK;1.6;19/07/2022;13:50;27/07/2022;13:45;8;42697;10;43280;41947;98.95344125;41508;1190124.479;0.023839607;10;286.7217111
39;C;C_A5;13/07/2022;8.60E+05;20000;2.4;2.4;Z-VAD(Ome)-FMK;3;19/07/2022;13:50;27/07/2022;13:45;8;48372;9;48894;47396;99.20246434;47018;1348111.214;0.016879062;8;229.3778917
40;C;C_A5;13/07/2022;8.60E+05;20000;2.4;2.4;Z-VAD(Ome)-FMK;4;19/07/2022;13:50;27/07/2022;13:45;8;36955;18;37611;36778;98.61602045;36269;1039905.048;0.038066235;14;401.4081083
41;C;C_B8;13/07/2022;8.90E+05;20000;2.4;2.4;0;0;19/07/2022;13:50;27/07/2022;13:45;8;33903;7;34496;33825;98.66371027;33373;956855.1023;0.017738359;6;172.0292037
42;C;C_B8;13/07/2022;8.90E+05;20000;2.4;2.4;Z-VAD(Ome)-FMK;1.6;19/07/2022;13:50;27/07/2022;13:45;8;34007;25;34696;33913;98.47845959;33397;951217.3942;0.058974435;20;569.6424195
43;C;C_B8;13/07/2022;8.90E+05;20000;2.4;2.4;Z-VAD(Ome)-FMK;3;19/07/2022;13:50;27/07/2022;13:45;8;38156;22;38786;37960;98.7170706;37473;1067308.707;0.047418335;18;512.677307
44;C;C_B8;13/07/2022;8.90E+05;20000;2.4;2.4;Z-VAD(Ome)-FMK;4;19/07/2022;13:50;27/07/2022;13:45;8;42227;21;42765;41864;99.05646856;41469;1189020.492;0.045385056;19;544.7777701
45;C;C_D4;13/07/2022;8.64E+05;20000;2.4;2.4;0;0;19/07/2022;13:50;27/07/2022;13:45;8;52397;7;52822;50840;99.39417781;50532;1448873.709;0.011801731;6;172.0343991
46;C;C_D4;13/07/2022;8.64E+05;20000;2.4;2.4;Z-VAD(Ome)-FMK;1.6;19/07/2022;13:50;27/07/2022;13:45;8;51985;11;52521;50502;99.2317136;50114;1436846.889;0.013860837;7;200.7009663
47;C;C_D4;13/07/2022;8.64E+05;20000;2.4;2.4;Z-VAD(Ome)-FMK;3;19/07/2022;13:50;27/07/2022;13:45;8;46434;7;47154;45561;98.7928272;45011;1282003.668;0.015364017;7;199.3740568
48;C;C_D4;13/07/2022;8.64E+05;20000;2.4;2.4;Z-VAD(Ome)-FMK;4;19/07/2022;13:50;27/07/2022;13:45;8;52239;13;52723;51186;99.32598757;50841;1448088.201;0.02344391;12;341.7922231
