  Well ,  Sample ID ,  Date , DunaAlive.Count Count for DunaAlive, DunaDead.Count Count for DunaDead, All.Count Count for All, SingleCell.Count Count for SingleCell, DunaAlive.SingleCell.Percent Percent for DunaAlive gated by SingleCell  (%) , DunaAlive.SingleCell.Count Count for DunaAlive gated by SingleCell, DunaAlive.SingleCell.Concentration Concentration for DunaAlive gated by SingleCell  (cells/mL) , DunaDead.SingleCell.Percent Percent for DunaDead gated by SingleCell  (%) , DunaDead.SingleCell.Count Count for DunaDead gated by SingleCell, DunaDead.SingleCell.Concentration Concentration for DunaDead gated by SingleCell  (cells/mL) , StrainA.SingleCell.StrainA.Count Count for StrainA gated by SingleCell.StrainA, StrainA.SingleCell.StrainA.Concentration Concentration for StrainA gated by SingleCell.StrainA  (cells/mL) , StrainA.P02.DunaAlive.Percent Percent for StrainA gated by P02.DunaAlive  (%) , StrainA.SingleCell.StrainA.Mean Mean for StrainA gated by SingleCell.StrainA, StrainA.SingleCell.StrainA.Median Median for StrainA gated by SingleCell.StrainA, StrainA.SingleCell.StrainA.Mean.Y Mean for StrainA gated by SingleCell.StrainA, StrainA.SingleCell.StrainA.Median.Y Median for StrainA gated by SingleCell.StrainA, StrainC.SingleCell.StrainC.Count Count for StrainC gated by SingleCell.StrainC, StrainC.SingleCell.StrainC.Mean Mean for StrainC gated by SingleCell.StrainC, StrainC.SingleCell.StrainC.Median Median for StrainC gated by SingleCell.StrainC, StrainC.SingleCell.StrainC.Concentration Concentration for StrainC gated by SingleCell.StrainC  (cells/mL) , StrainC.SingleCell.StrainC.Mean.Y Mean for StrainC gated by SingleCell.StrainC, StrainC.SingleCell.StrainC.Median.Y Median for StrainC gated by SingleCell.StrainC,
 A01, 1, 10.05.2022, 14155, 39, 15610, 15062, 91.4022042225468, 13767, 392116.466841238, 0.225733634311512, 34, 968.399787361233, 631, 17972.360759557, 4.46485340868951, 52.1201374863472, 52.0103439109497, 5295.77355671214, 5487.10669218458, 12623, 55.847217166081, 55.5566379467927, 359532.662231201, 9312.91861106319, 9118.22184556953,
 A02, 2, 10.05.2022, 14009, 47, 15540, 15008, 90.8981876332623, 13642, 388551.554780416, 0.29317697228145, 44, 1253.20835730379, 1097, 31244.7629082332, 7.85209508173317, 50.4735959555588, 50.172423924674, 5148.26725376697, 5282.0718923868, 11995, 55.8269142690424, 55.464134020211, 341641.687405886, 9259.41980015996, 9072.34515405335,
 A03, 3, 10.05.2022, 13340, 51, 14851, 14309, 90.6771961702425, 12975, 372016.756545573, 0.314487385561535, 45, 1290.23152559158, 1540, 44154.5899869119, 11.5967016491754, 51.2337996344783, 50.9649468844717, 5152.9202244779, 5262.19681691868, 10905, 56.3399984383002, 56.0315345870212, 312666.10636836, 9251.99400585624, 9069.70087934571,
 A04, 4, 10.05.2022, 12791, 47, 14372, 13821, 89.6389552130815, 12389, 352865.995450907, 0.32559149120903, 45, 1281.69907137709, 2239, 63771.6493514069, 17.5826753185834, 50.3035673988055, 50.2834371352095, 5060.08511423541, 5155.05219116933, 9547, 55.9680707820042, 55.6954003659379, 271919.578543047, 9202.72082925966, 9016.10080615831,
 A05, 5, 10.05.2022, 12295, 39, 13919, 13436, 88.9997022923489, 11958, 340588.045892713, 0.26793688597797, 36, 1025.3528727327, 2781, 79208.5094186013, 22.7165514436763, 50.3371574532376, 50.3389529132259, 5011.21470781801, 5107.89755006317, 8549, 55.8041709288226, 55.6213954516087, 243492.825249774, 9126.06890121882, 8934.50604696555,
 A06, 6, 10.05.2022, 11930, 65, 13597, 13129, 88.4911265138244, 11618, 330904.719568895, 0.464620306192399, 61, 1737.40642913605, 3628, 103332.959424682, 30.7041072925398, 50.2156653054122, 50.480809587437, 4999.3026950909, 5065.50218583575, 7369, 56.2205532461411, 55.9266792247557, 209884.393054156, 9141.68697736963, 8915.00602786841,
 A08, 8, 10.05.2022, 11861, 87, 13761, 13292, 86.9169425218176, 11553, 329053.757366947, 0.616912428528438, 82, 2335.53259794769, 5830, 166050.67129311, 49.7006997723632, 49.7114407553584, 49.6266081070169, 4942.02899227588, 5019.56898964683, 5052, 56.3733449351336, 55.8403335478293, 143891.59371746, 8981.30904186835, 8759.99642919344,
 A09, 9, 10.05.2022, 11727, 75, 13662, 13253, 86.4257149324681, 11454, 326234.952303768, 0.528182298347544, 70, 1993.75298247457, 7184, 204616.020372819, 61.7890338535005, 50.0448298919657, 50.25568841513, 4978.7775566034, 5059.97686240832, 3572, 56.978985401438, 56.2381459392488, 101738.366477131, 8919.97918887996, 8670.84605632535,
 A10, 10, 10.05.2022, 11251, 80, 13279, 12883, 85.4614608398665, 11010, 313589.039463595, 0.582162539781107, 75, 2136.16511896182, 8197, 233468.606401734, 73.6467869522709, 50.077313290817, 50.1477646834031, 4949.23878062651, 5013.01760519459, 2075, 58.074424481786, 57.5240623500383, 59100.5682912771, 8804.35529127527, 8512.82563705642,
 A11, 11, 10.05.2022, 11233, 89, 13372, 12989, 84.8025252136423, 11015, 313729.852200984, 0.646701054738625, 84, 2392.49274488268, 8885, 253063.071884317, 80.2100952550521, 50.0641382795475, 50.1446814100139, 4935.66842044669, 5004.02924852205, 1394, 59.2282682700786, 58.7914820535746, 39703.9867424578, 8645.78305474183, 8317.1003769107,
 A12, 7, 10.05.2022, 17575, 76, 19474, 18744, 90.8344003414426, 17026, 484939.336696457, 0.378787878787879, 71, 2022.2420360301, 8913, 253862.581227271, 51.4992887624467, 49.6756385449354, 49.6728626647974, 4938.91026976716, 5004.92763324525, 7108, 56.4769941035413, 55.8650164166566, 202452.061860591, 8961.4219989714, 8728.03618783649,
 B01, 12, 10.05.2022, 12597, 58, 13875, 13147, 91.5798280976649, 12040, 342921.048476926, 0.365102304708298, 48, 1367.1271035625, 4274, 121731.275846377, 34.18274192268, 54.660042644596, 54.8350365067356, 5639.58219423398, 5837.65855416835, 6116, 65.0295880621792, 64.8294335999724, 174194.778445588, 8389.89846774458, 8205.20510013645,
 B02, 13, 10.05.2022, 13933, 59, 15294, 14580, 91.8724279835391, 13395, 381518.010462329, 0.349794238683128, 51, 1452.58816973339, 5125, 145970.869997718, 37.0415560180866, 54.507920549125, 54.6685176449478, 5534.66665701818, 5749.3217445259, 6457, 65.2938314899966, 65.5757122302835, 183909.055136637, 8405.0021572677, 8224.19543198099,
 B03, 14, 10.05.2022, 13485, 66, 14933, 14252, 90.9626719056974, 12964, 369238.663227169, 0.399943867527365, 57, 1623.46527336845, 5505, 156792.567191111, 41.1345939933259, 54.6122674476155, 54.7795390964748, 5433.31479091453, 5649.71522824537, 5790, 65.0723917919419, 65.3320879854637, 164909.893557954, 8380.64883794405, 8216.46051396442,
 B04, 15, 10.05.2022, 12291, 52, 13658, 13066, 90.5862544007347, 11836, 337112.094015967, 0.352058778509108, 46, 1310.16866548956, 5491, 156394.263960939, 45.1061752501831, 54.7150759714328, 54.7980370033835, 5337.10143824873, 5554.90441074543, 4877, 65.1545904264971, 65.2210697097566, 138906.360469404, 8382.26988136524, 8218.91468207023,
 B05, 16, 10.05.2022, 12621, 51, 14048, 13486, 90.4345246922735, 12196, 347365.19467403, 0.35592466261308, 48, 1367.13097280694, 6230, 177442.207512234, 49.9564218366215, 54.5810796095587, 54.841208027865, 5284.82005858563, 5445.0422397114, 4616, 65.0714917385228, 64.9682049701284, 131472.428551601, 8369.1537365869, 8178.43815508159,
 B06, 17, 10.05.2022, 11542, 63, 13039, 12521, 89.2420733168277, 11174, 318257.59844431, 0.471208369938503, 59, 1680.43657671508, 6217, 177072.444024367, 54.3926529197713, 55.0368128086926, 55.3068617861948, 5241.55633306214, 5396.72797162365, 3757, 65.3863312329305, 65.551039083407, 107006.783368111, 8359.17719605221, 8191.14064955836,
 B08, 19, 10.05.2022, 10764, 72, 12429, 11956, 87.4205419872867, 10452, 297697.150551072, 0.518568082970893, 62, 1765.9034954235, 7233, 206012.580361261, 68.1995540691193, 54.839594079086, 55.0139002868041, 5064.85118626607, 5171.39023761473, 2296, 65.3943667458051, 65.7329851879603, 65395.3939595542, 8356.0623588107, 8145.70143432346,
 B09, 20, 10.05.2022, 10158, 63, 11902, 11474, 86.2994596478996, 9902, 282033.154763404, 0.488059961652432, 56, 1595.01683162499, 7498, 213561.360777217, 74.8375664500886, 54.7868339556616, 55.0354834766592, 5004.79285129415, 5133.67906199737, 1602, 65.3813410526398, 65.3320879854637, 45628.8743618434, 8299.18095930419, 8107.62373121873,
 B10, 21, 10.05.2022, 10009, 60, 11914, 11524, 84.8923984727525, 9783, 278638.696836618, 0.485942381117667, 56, 1594.98794059599, 8237, 234605.636905164, 83.2850434608852, 55.4296723581984, 55.6861520121921, 4973.44344230938, 5046.94624272397, 912, 65.9731182231692, 66.3466421474229, 25975.5178897061, 8316.5789178176, 8161.52914563737,
 B11, 22, 10.05.2022, 10529, 78, 12432, 12042, 85.6087028732769, 10309, 293621.520321375, 0.581298787576815, 70, 1993.7439540689, 9163, 260981.083587619, 88.3749643840821, 55.1196879060412, 55.4024489370513, 4938.9536889689, 5017.94067157914, 577, 66.5155421584322, 65.9210815975485, 16434.1465928251, 8236.39024853354, 8091.01659282476,
 B12, 18, 10.05.2022, 13543, 56, 15226, 14704, 89.6150707290533, 13177, 375306.571246583, 0.340043525571273, 50, 1424.09718162929, 9262, 263799.76192501, 69.2904083290261, 55.0013947040627, 55.1742617995324, 5068.31247890535, 5171.52367163036, 2784, 65.7867435972437, 65.6312112297203, 79293.7310731189, 8346.62418952497, 8165.62984088669,
 C01, 23, 10.05.2022, 9768, 44, 11275, 10802, 87.3727087576375, 9438, 268814.105602809, 0.351786706165525, 38, 1082.31998441478, 824, 23469.254398889, 8.45618345618346, 52.8020735877677, 51.7636369033384, 5064.32965809994, 5284.72002489194, 8179, 64.9940434417564, 64.9774610042962, 232955.135592856, 9782.07867420292, 9693.94389000493,
 C02, 24, 10.05.2022, 10179, 43, 11762, 11261, 87.3634668324305, 9838, 280207.74059407, 0.364088446851967, 41, 1167.76960402082, 1404, 39988.9883913472, 13.910993221338, 51.1540031074947, 50.9402756542024, 4947.76951310178, 5059.62964665028, 7969, 64.615493961283, 64.5549766699943, 226974.535961998, 9747.17707500945, 9609.3002803108,
 C03, 25, 10.05.2022, 10269, 59, 11867, 11384, 87.2452565003514, 9932, 282885.066027678, 0.491918482080112, 56, 1595.00238597966, 2220, 63230.4517299079, 21.7742720810205, 50.7368457327711, 50.7645110305128, 4847.56339677145, 4926.191835604, 7216, 64.3674772076557, 64.4347191342978, 205527.450307665, 9695.94837282072, 9549.56978203177,
 C04, 26, 10.05.2022, 10756, 43, 12348, 11838, 87.8780199358, 10403, 296300.678540591, 0.329447541814496, 39, 1110.80711939662, 3126, 89035.4629547139, 29.2952770546672, 50.154195124664, 49.9966599838514, 4813.76676368465, 4878.30444122602, 6753, 64.7201295950026, 64.6104985247207, 192340.5250586, 9722.90638774576, 9620.12602375036,
 C05, 27, 10.05.2022, 10407, 64, 12040, 11581, 87.3067956135049, 10111, 287980.932069075, 0.518089974958985, 60, 1708.91661795515, 3767, 107291.481663951, 36.4466224656481, 50.2651160473193, 50.3420343135297, 4795.33944374667, 4848.80648063944, 5841, 64.5820614604282, 64.6721744751094, 166363.032757934, 9684.13419307983, 9553.30318152439,
 C06, 268, 10.05.2022, 10397, 54, 11997, 11592, 87.3447204968944, 10125, 288382.944012217, 0.41407867494824, 48, 1367.14877161347, 4697, 133781.203755593, 45.5996922189093, 49.6972894505058, 49.6759441982559, 4725.41699431522, 4811.48470921648, 4904, 64.6825496946367, 64.5488282389165, 139677.032833176, 9680.11144035608, 9570.57864086982,
 C08, 30, 10.05.2022, 10854, 76, 12467, 12055, 87.789299046039, 10583, 303437.241066445, 0.597262546661136, 72, 2064.39396738014, 6648, 190612.376321433, 61.9310853141699, 49.6022629554189, 49.6389375343094, 4711.27990581599, 4778.67987088945, 3414, 64.7994093847113, 64.4563004679262, 97886.6806199417, 9619.88686076035, 9490.22098271908,
 C09, 31, 10.05.2022, 11344, 86, 13024, 12657, 87.7696136525243, 11109, 318520.237879922, 0.60835901082405, 77, 2207.76472380538, 7914, 226912.337976569, 70.6540902679831, 49.5440664158379, 49.5248473814504, 4731.87753300236, 4794.80416629984, 2593, 64.5121141880883, 64.2867105814821, 74347.1938808747, 9479.19604737094, 9360.71335900943,
 C10, 32, 10.05.2022, 11536, 70, 13289, 12914, 87.5329100201332, 11304, 321961.348769736, 0.503329719684064, 65, 1851.3347195712, 9294, 264712.382826073, 81.7094313453537, 49.4409939306531, 49.4199988479192, 4704.15240868262, 4756.0151867877, 1388, 64.2711493920795, 63.5990260867914, 39533.1167809973, 9225.12140889715, 9091.8049936767,
 C11, 33, 10.05.2022, 12260, 71, 14036, 13643, 88.1550978523785, 12027, 344840.594957476, 0.476434801729825, 65, 1863.69324621568, 10397, 298104.902783145, 85.9951060358891, 49.6533946129864, 49.5371787217796, 4725.20170181323, 4786.86924975384, 950, 64.1468855329417, 63.3461553594293, 27238.5935985368, 8947.70427959333, 8739.35147785251,
 C12, 29, 10.05.2022, 11707, 77, 13408, 13007, 88.0218343968632, 11449, 326092.725959919, 0.561236257399862, 73, 2079.20071578951, 6404, 182400.018957753, 55.180661142906, 49.2451360720634, 49.0561137301276, 4701.53386740316, 4769.45967291919, 4464, 64.096286407751, 63.9043159605954, 127144.547880608, 9570.4933253611, 9484.22103775765,
 D01, 34, 10.05.2022, 12162, 50, 13719, 13302, 89.3399488798677, 11884, 338481.525668855, 0.3382949932341, 45, 1281.6954438824, 896, 25519.9803937474, 7.42476566354218, 53.7034834293423, 52.9262154364764, 5190.52095782238, 5451.55664202976, 10430, 57.347468610329, 57.3482914852242, 297068.521770966, 9081.89640988221, 8931.30374950371,
 D02, 35, 10.05.2022, 12976, 57, 14591, 14058, 89.8776497368047, 12635, 359870.580007071, 0.362782757148954, 51, 1452.58405859601, 1595, 45428.8543815812, 12.4152281134402, 52.0276765467655, 51.8068063412951, 4913.51062594555, 4990.37007752304, 10455, 57.4191448416883, 57.2835360347563, 297779.732012182, 9078.18832629106, 8924.8291039944,
 D03, 36, 10.05.2022, 12517, 54, 14051, 13604, 89.7750661570126, 12213, 347850.568277981, 0.345486621581888, 47, 1338.65362393066, 2129, 60638.1609648589, 17.0727810178158, 51.6675704663507, 51.646463713804, 4765.73866662417, 4825.47010033355, 9545, 57.5107150513271, 57.468556585066, 271860.613625917, 9064.05854925322, 8908.6556818,
 D04, 37, 10.05.2022, 12404, 63, 13980, 13533, 89.6105815414173, 12127, 347706.032160337, 0.399024606517402, 54, 1548.2910642911, 2921, 83751.0777554501, 23.7262173492422, 51.7838128004861, 52.050432913203, 4716.05868313745, 4780.14919805345, 8721, 57.6015535335791, 57.3421211469393, 250049.006883013, 9089.9215090022, 8956.51668282659,
 D05, 38, 10.05.2022, 12567, 65, 14189, 13763, 89.1593402601177, 12271, 351833.404961278, 0.443217321804839, 61, 1748.98848526102, 3780, 108379.942201421, 30.4846025304369, 51.0863057522507, 50.9371995811365, 4647.28944375218, 4689.14028239597, 7936, 57.545509140053, 57.4870630729801, 227540.53473822, 9060.91642535295, 8901.60613286027,
 D06, 39, 10.05.2022, 12082, 71, 13643, 13221, 89.2822025565388, 11804, 338443.222167708, 0.476514635806671, 63, 1806.33031146777, 4399, 126127.73079598, 36.8233736136401, 51.1354067099708, 50.924855211238, 4660.164287824, 4693.88185364509, 6902, 57.0645085609012, 56.839466998301, 197893.520789692, 8996.4081090272, 8833.87514025405,
 D08, 41, 10.05.2022, 11741, 87, 13521, 13101, 87.7184947713915, 11492, 329498.525107934, 0.618273414243187, 81, 2322.43130297099, 6507, 186568.648005336, 56.0769951452176, 51.1992053615731, 51.1592225340813, 4608.62537458133, 4646.73211899553, 4479, 57.6046157619796, 57.2156968894352, 128421.849456877, 9006.2399972429, 8851.84180210371,
 D09, 42, 10.05.2022, 11765, 84, 13566, 13151, 87.4534255950118, 11501, 329755.82142714, 0.55509086761463, 73, 2093.05060118087, 7775, 222924.224988785, 66.9868253293668, 51.1209095560616, 51.0975562327987, 4619.89815853504, 4671.12441031251, 3260, 58.1336487416103, 57.7676757850478, 93470.4789020499, 9027.38872891482, 8847.11479469906,
 D10, 43, 10.05.2022, 11257, 90, 13061, 12698, 86.9349503858875, 11039, 316509.75230016, 0.637895731611277, 81, 2322.42865624721, 8910, 255467.152187193, 80.3677711646087, 51.1225014864, 51.1222194415372, 4601.18177854428, 4627.59353358291, 1703, 58.3279693141917, 58.2703326496893, 48828.3456986296, 8916.07299953633, 8738.37279756895,
 D11, 44, 10.05.2022, 11514, 95, 13365, 12989, 87.0120871506659, 11302, 324050.662093007, 0.631303410578182, 82, 2351.10195466524, 9911, 284167.944788868, 87.2503039777662, 51.1516451139883, 51.1777200751813, 4596.38600489977, 4636.37148862358, 942, 58.3043636670565, 57.8694379733971, 27009.0005035934, 8795.72013212379, 8640.69093743402,
 D12, 40, 10.05.2022, 12970, 77, 14646, 14188, 89.237383704539, 12661, 363013.393977498, 0.507471102340006, 72, 2064.36808833266, 5993, 171829.97157469, 46.692367000771, 50.9239677168521, 50.9433658964496, 4617.27910151927, 4643.20038407523, 6118, 57.9806174262877, 57.8879464391452, 175413.943950267, 9030.22383891518, 8873.70724771614,
 E01, 45, 10.05.2022, 12606, 48, 14036, 13620, 90.7562408223201, 12361, 352066.899517224, 0.286343612334802, 39, 1110.80083174272, 866, 24665.4748792101, 6.86974456607964, 52.3377589708247, 51.7050455015304, 5234.01442899888, 5408.91540840383, 10917, 55.3484977088676, 55.353107726119, 310938.786670135, 9061.41679897535, 8926.39709590853,
 E02, 46, 10.05.2022, 12908, 36, 14323, 13887, 90.8763591848491, 12620, 361837.438678318, 0.216029379995679, 30, 860.152389885066, 1431, 41029.2689975176, 11.1093895258754, 50.8313238622914, 50.5763986557127, 5071.21853772041, 5206.20212025058, 10577, 55.5895687446223, 55.3901171145146, 303261.060927145, 9110.32080563209, 8985.7512476901,
 E03, 47, 10.05.2022, 12599, 42, 14028, 13634, 90.4870177497433, 12337, 351382.534183111, 0.249376558603491, 34, 968.388276098384, 2096, 59698.2890206533, 16.7235494880546, 50.6018463671276, 50.4253034586409, 4981.33338325016, 5062.43305244491, 9637, 55.5161371353754, 55.3346047116229, 274481.112257651, 9063.87729760824, 8913.46450337856,
 E04, 48, 10.05.2022, 12194, 58, 13667, 13245, 89.8980747451869, 11907, 339136.230518767, 0.422801057002643, 56, 1594.99696893012, 2864, 81572.7021252833, 23.6509758897819, 50.8392353992204, 50.8878540163937, 4960.94165928165, 5011.21534191525, 8447, 55.4074670582696, 55.1742617995324, 240588.20350987, 9064.12314713643, 8924.13829497823,
 E05, 49, 10.05.2022, 12537, 52, 14016, 13598, 90.1382556258273, 12257, 351431.997767939, 0.31622297396676, 43, 1232.89352239711, 3641, 104394.542210416, 29.2414453218473, 50.5973536441189, 50.5609773363897, 4950.92746643293, 5041.84801998499, 7958, 55.5343429432691, 55.4949566137035, 228171.31747061, 9041.65489757635, 8895.82204708686,
 E06, 50, 10.05.2022, 12620, 60, 14188, 13775, 89.7059891107078, 12357, 351951.178249012, 0.399274047186933, 55, 1566.50601308535, 4552, 129649.734028446, 36.3074484944532, 50.4134989992042, 50.3358717015325, 4943.72313330125, 5027.02576879916, 7123, 55.7035820068966, 55.6121441216014, 202876.769658308, 9034.02007150035, 8889.20232247741,
 E08, 52, 10.05.2022, 11311, 60, 12931, 12536, 88.3056796426292, 11070, 317398.944739369, 0.446713465220166, 56, 1605.6315181034, 5718, 163946.446794915, 51.0918574838653, 50.0098013495616, 49.9442360418507, 4876.88943346122, 4950.38762002078, 4721, 55.6140338842127, 55.6892397214978, 135360.471374396, 8911.03850037501, 8769.52353435975,
 E09, 53, 10.05.2022, 11774, 78, 13376, 13016, 88.7062077443147, 11546, 328855.871809062, 0.553165334972342, 72, 2050.72083580915, 7257, 206695.570909264, 62.2388313232546, 50.1390478425914, 50.0860802284242, 4909.98676367397, 4974.33630439812, 3624, 56.532287299024, 56.2319715652475, 103219.615402394, 8927.26693585979, 8744.74097970266,
 E10, 54, 10.05.2022, 10825, 70, 12527, 12209, 87.1733966745843, 10643, 305156.873833385, 0.483250061430093, 59, 1691.65231195807, 7900, 226509.377363877, 73.7182448036952, 49.9174502075428, 49.8208827106648, 4874.72356184981, 4951.41228356001, 2084, 57.2109009352666, 57.181768210655, 59752.600307129, 8809.55568708315, 8631.32748651351,
 E11, 55, 10.05.2022, 11165, 80, 13004, 12649, 86.6155427306506, 10956, 312050.647307727, 0.569214957704166, 72, 2050.7161926028, 9000, 256339.524075351, 81.6748768472906, 49.9926436815891, 49.7715392899739, 4883.34848285934, 4962.32708330346, 1305, 57.4750213216522, 57.4932174452589, 37169.2309909258, 8488.70352592303, 8175.35425001229,
 E12, 51, 10.05.2022, 13339, 45, 14997, 14569, 89.539433042762, 13045, 374024.84898713, 0.274555563182099, 40, 1146.87573472481, 5371, 153996.739280174, 40.5727565784542, 50.0058435776662, 49.9133999324752, 4902.63178205187, 4975.26486526437, 6988, 55.5072740596747, 55.2544357601576, 200359.190856425, 8952.42288830913, 8792.98598916441,
 F01, 56, 10.05.2022, 13745, 60, 15141, 14631, 91.5863577335794, 13400, 381655.668315688, 0.348574943612877, 51, 1452.57008090299, 947, 26972.2326787281, 6.93343033830484, 52.966140190209, 52.8367859648109, 5025.07969529774, 5155.30689887799, 11753, 55.2062983890443, 54.9645581092255, 334746.199232409, 9310.46304090552, 9197.77729729609,
 F02, 57, 10.05.2022, 13807, 43, 15301, 14789, 91.0000676178241, 13458, 385864.581973185, 0.256947731422003, 38, 1089.52698134797, 1505, 43151.0028139132, 10.9726950097776, 52.2258999490223, 52.0781719494166, 4814.19876359187, 4954.52290585805, 11235, 55.4282312070892, 55.1619202027996, 322127.253564329, 9346.49863483498, 9182.10726419079,
 F03, 58, 10.05.2022, 13334, 61, 14841, 14365, 90.5116602854159, 13002, 372791.532727025, 0.355029585798817, 51, 1462.26489532982, 2290, 65658.5609863781, 17.3166341682916, 51.8098373926887, 51.7266367914483, 4645.38636907763, 4681.44704885442, 10072, 55.5669902673428, 55.5134675337171, 288782.980897293, 9330.34577077324, 9188.4305844678,
 F04, 59, 10.05.2022, 12746, 58, 14178, 13735, 90.542409901711, 12436, 356563.665925944, 0.378594830724427, 52, 1490.93845514226, 3138, 89972.4013891616, 24.7764004393535, 51.7785067066296, 51.5847764779098, 4579.73841870733, 4644.82949346142, 8749, 55.3467969060444, 55.146493304645, 250850.395077685, 9260.70453014705, 9107.80590499422,
 F05, 60, 10.05.2022, 12568, 61, 14043, 13512, 90.1791000592066, 12185, 349367.617916484, 0.414446417998816, 56, 1605.62877335438, 3673, 105312.044366618, 29.4875875238701, 51.7294167490901, 51.5693591072616, 4567.81165465968, 4606.08792494962, 7978, 55.9380354413408, 55.6614870571004, 228744.756318236, 9343.589729942, 9209.11510429257,
 F06, 61, 10.05.2022, 12370, 69, 13924, 13487, 89.5306591532587, 12075, 343924.72560328, 0.452287387854971, 61, 1737.42511484887, 4656, 132613.956307153, 37.9385610347615, 51.3080243618161, 51.3380870462181, 4510.68845891288, 4553.02882464904, 6894, 55.4671877296234, 55.3068617861948, 196357.520356854, 9321.49818411182, 9184.69859309893,
 F08, 63, 10.05.2022, 11292, 66, 12860, 12483, 88.4082351998718, 11036, 316421.9333966, 0.496675478650965, 62, 1777.65131121685, 6092, 174668.577224727, 54.6493092454835, 51.3144586111671, 51.2640741187099, 4508.88198596041, 4556.24934166031, 4537, 55.5787251646309, 55.6429878737362, 130083.935467595, 9263.92947280114, 9133.65749734176,
 F09, 64, 10.05.2022, 10901, 76, 12590, 12239, 87.4009314486478, 10697, 306702.020012424, 0.612795163003513, 75, 2150.38342534653, 7097, 203483.615595791, 65.9113842766719, 51.3963378500939, 51.257897123558, 4498.70654854747, 4551.7967292543, 3212, 56.1902829812052, 55.667644631391, 92093.7541628405, 9293.63364548134, 9146.54300967313,
 F10, 65, 10.05.2022, 10347, 72, 12034, 11686, 86.9159678247476, 10157, 291220.586882193, 0.513434879342803, 60, 1720.31458235026, 8270, 237116.693267277, 81.0573112979608, 51.4073483740202, 51.21473522416, 4480.33739328726, 4525.38344815947, 1572, 56.0288290319539, 55.8187564750539, 45072.2420575768, 9235.3676114647, 8983.01878714083,
 F11, 66, 10.05.2022, 10734, 74, 12427, 12128, 87.0135224274406, 10553, 302574.145890501, 0.577176781002638, 70, 2007.03024849191, 9449, 270920.411685715, 89.2491149618036, 51.1865024614296, 51.1900695358574, 4455.8128799432, 4498.35782724779, 783, 56.4150641173754, 55.5288903958971, 22450.0669224166, 9153.72971007203, 8972.38293468164,
 F12, 62, 10.05.2022, 12717, 49, 14297, 13892, 89.5119493233516, 12435, 356534.790873293, 0.323927440253383, 45, 1290.23446636897, 5761, 165178.683572259, 45.8205551623811, 51.3949489947163, 51.2455734987699, 4508.08935106571, 4529.85249813771, 6173, 55.1127536180014, 54.9429725715241, 176991.496908793, 9214.45859166172, 9032.37011986822,
 G01, 67, 10.05.2022, 12132, 51, 13493, 12998, 90.7370364671488, 11794, 335915.662918538, 0.353900600092322, 46, 1310.16792388102, 983, 27997.7188951096, 8.12726673260798, 53.5165734436226, 53.3116809425086, 5004.3773859184, 5157.37898906262, 10324, 58.2407409895304, 58.3320084413407, 294047.253177123, 9422.36662936177, 9302.60976408296,
 G02, 68, 10.05.2022, 12235, 46, 13606, 13083, 90.7666437361462, 11875, 338221.35761209, 0.336314301001299, 44, 1253.19913557322, 1451, 41327.0896753804, 11.9248058847568, 52.4856982888626, 52.3279579988486, 4817.52602651262, 4943.90210197927, 9907, 58.5512298491516, 58.5077750553338, 282169.178093724, 9447.945167512, 9347.02324381222,
 G03, 69, 10.05.2022, 12197, 65, 13598, 13102, 90.4823691039536, 11855, 337652.868388047, 0.419783239200122, 55, 1566.50423967462, 2401, 68385.0305356138, 19.8081495449701, 51.6643532475049, 51.47993309215, 4650.41567935586, 4716.37990065101, 8982, 58.3223887676688, 58.2795782598203, 255824.383286499, 9432.35193989131, 9322.79382064099,
 G04, 70, 10.05.2022, 11569, 55, 13004, 12560, 89.7213375796178, 11269, 323103.198146504, 0.414012738853503, 52, 1490.93675602256, 2876, 82460.2713523246, 25.1102083153254, 51.5759221120333, 51.5971250233072, 4619.12203790473, 4657.55822470217, 7954, 58.5874268469609, 58.6928025651122, 228055.979950066, 9451.82846063725, 9334.27548287298,
 G05, 71, 10.05.2022, 11714, 55, 13098, 12690, 90.1418439716312, 11439, 325804.768794242, 0.409771473601261, 52, 1481.06023055342, 3645, 103816.625776293, 31.3471060269763, 50.7868802043487, 50.4993113430473, 4547.77653756321, 4592.61229283698, 7360, 58.3488854336992, 58.396762943949, 209626.98647833, 9422.79839806228, 9333.20456104707,
 G06, 72, 10.05.2022, 11121, 54, 12593, 12219, 88.9925525820444, 10874, 311776.391932693, 0.43375071609788, 53, 1519.60168957447, 4512, 129366.845723773, 40.8776189191619, 51.0722651397413, 50.9186911365056, 4527.05428189118, 4578.78645165976, 5944, 58.6479034845438, 58.6465512700052, 170424.763072276, 9459.26309101701, 9345.31980078222,
 G08, 74, 10.05.2022, 10783, 86, 12435, 12023, 87.6070864176994, 10533, 300000.312282026, 0.623804374948016, 75, 2136.14577244393, 6366, 181316.053165041, 59.7143652044885, 50.5150058286078, 50.4098728620022, 4496.45086303689, 4525.99960661578, 3843, 58.6742853269784, 58.6280416474149, 109456.109380027, 9418.90808968098, 9294.84025076063,
 G09, 75, 10.05.2022, 10707, 84, 12291, 11930, 87.9212070410729, 10489, 298745.415740195, 0.670578373847443, 80, 2278.54259311809, 7095, 202078.24622716, 67.0589334080508, 50.7722551652334, 50.6349897625389, 4494.71334289272, 4525.71139302449, 3069, 58.4879903394825, 58.4060125826221, 87410.5902284927, 9375.39355842084, 9276.01516964463,
 G10, 76, 10.05.2022, 10114, 92, 11873, 11547, 85.9444011431541, 9924, 282656.248565402, 0.744782194509396, 86, 2449.45963085697, 8060, 229565.635171014, 80.7791180541823, 50.5180817787646, 50.3081078546877, 4464.65365226726, 4515.58093413816, 1563, 59.123248589481, 58.8685736776637, 44517.5046863889, 9409.27426622823, 9333.56322931325,
 G11, 77, 10.05.2022, 10816, 99, 12561, 12236, 86.6623079437725, 10604, 302026.120423425, 0.75187969924812, 92, 2620.36996217985, 9424, 268417.027430249, 88.5355029585799, 50.2939788256091, 50.2341044078494, 4449.83001524419, 4487.51251174032, 857, 59.1766902172586, 58.7513936759542, 24409.3158433492, 9277.354319492, 9140.47431972478,
 G12, 73, 10.05.2022, 12502, 78, 14048, 13571, 89.8238891754476, 12190, 347195.482462015, 0.50843710854027, 69, 1965.2574478982, 5878, 167417.148967328, 47.5843864981603, 50.4399149972791, 50.3913762107219, 4494.73706020811, 4518.13994507412, 5856, 58.341213695035, 58.3505046854206, 166790.54514336, 9385.1680736669, 9271.51463486168,
 H01, 78, 10.05.2022, 12099, 43, 13391, 12956, 91.1469589379438, 11809, 336343.08197318, 0.293300401358444, 38, 1082.31324540442, 2585, 73625.7826150114, 21.4976444334242, 46.0662971747237, 45.6609251213635, 4912.51629792429, 5043.24321897659, 7028, 58.1552436175218, 58.1994078242558, 200170.986544797, 8725.68966331829, 8566.63585428992,
 H02, 79, 10.05.2022, 12015, 57, 13404, 12974, 90.2420225065516, 11708, 335691.292683239, 0.423924772622167, 55, 1576.95772955057, 3072, 88080.2571850794, 25.7677902621723, 47.9664687735204, 47.8041162544101, 4827.61446100668, 4913.86181480134, 6606, 58.2870249825787, 58.1438888011269, 189406.959298384, 8739.2467522047, 8564.16718559009,
 H03, 80, 10.05.2022, 12571, 51, 14029, 13550, 90.4059040590406, 12250, 348903.019525306, 0.339483394833948, 46, 1310.16644066645, 3884, 110623.618598881, 31.206745684512, 49.4668915281814, 49.6975339272774, 4730.20648768669, 4807.50575895475, 6359, 57.9534852688744, 58.0359725446236, 181116.269482565, 8720.012402053, 8565.8599103146,
 H04, 81, 10.05.2022, 11768, 45, 13119, 12714, 90.3728173666824, 11490, 327259.01427497, 0.330344502123643, 42, 1196.24704956908, 4406, 125492.011914318, 37.8059143439837, 51.1806198632207, 51.6526166438411, 4722.66064972665, 4800.08999768902, 5414, 58.0255936415412, 57.9249493317093, 154201.941103976, 8709.9105119202, 8503.98355598588,
 H05, 82, 10.05.2022, 13107, 52, 14571, 14115, 90.605738575983, 12789, 364254.752384419, 0.318809776833156, 45, 1281.68456152153, 5295, 150811.550072367, 40.863660639353, 51.4322511708124, 52.053504773136, 4709.96869213562, 4787.64716869627, 5702, 58.1868196136505, 57.9372888846699, 162403.67488435, 8729.92778010138, 8563.22222647745,
 H06, 83, 10.05.2022, 12295, 57, 13777, 13383, 89.8229096615109, 12021, 342381.444407314, 0.351191810505866, 47, 1338.65135073153, 5824, 165878.83971618, 47.8568523790159, 52.2386716447395, 52.793598756315, 4694.3766879802, 4749.6982688868, 4664, 57.6048183007411, 57.4037913897262, 132839.78510238, 8642.75720349453, 8457.4124491456,
 H08, 85, 10.05.2022, 11909, 40, 13397, 13036, 89.6440625958883, 11686, 332840.935298732, 0.276158330776312, 36, 1025.3528727327, 7509, 213871.520037496, 63.6997228986481, 53.3468324297404, 53.5768827777193, 4607.37563656001, 4661.60244151489, 3145, 57.9401432040108, 57.8139322054432, 89575.9662428986, 8633.36427177278, 8428.86948346431,
 H09, 86, 10.05.2022, 11705, 57, 13278, 12904, 88.9414135151891, 11477, 326888.377264832, 0.402975821450713, 52, 1481.06609896064, 8571, 244119.567965224, 74.1734301580521, 54.2238279868907, 54.3323868812379, 4613.84681304382, 4680.87397027028, 2088, 58.3887717561221, 58.116141177366, 59470.5002813426, 8688.65889106731, 8504.27300846682,
 H10, 87, 10.05.2022, 11451, 54, 13032, 12707, 88.6047060675218, 11259, 320678.929429168, 0.377744550247895, 48, 1367.13638978595, 9477, 269923.990958364, 83.8092742991878, 54.2073384999442, 54.1381116313872, 4597.55138624454, 4651.81896189224, 1155, 59.2972153499763, 58.9179110206446, 32896.7193792245, 8695.21031019472, 8433.4517287207,
 H11, 88, 10.05.2022, 11692, 59, 13221, 12887, 89.1673779778071, 11491, 327287.311088653, 0.434546442151005, 56, 1594.99516325512, 10343, 294589.910241923, 89.7451248717071, 54.666175926173, 54.754869903867, 4604.43236755307, 4662.9768926975, 629, 60.1894221512447, 60.0157170641256, 17915.2135301334, 8717.46819489209, 8568.08917481222,
 H12, 84, 10.05.2022, 12447, 37, 13896, 13493, 90.2986733862002, 12184, 347025.965529203, 0.266805010005188, 36, 1025.35577470874, 6888, 196184.738227606, 56.0536675504138, 52.9274472189858, 53.3116809425086, 4647.85076048211, 4709.36581693152, 3996, 57.6325076234088, 57.4500560548417, 113814.49099267, 8631.12158003856, 8483.77894684589,
