  Well ,  Sample ID ,  Date , DunaAlive.Count Count for DunaAlive, DunaDead.Count Count for DunaDead, All.Count Count for All, SingleCell.Count Count for SingleCell, DunaAlive.SingleCell.Percent Percent for DunaAlive gated by SingleCell  (%) , DunaAlive.SingleCell.Count Count for DunaAlive gated by SingleCell, DunaAlive.SingleCell.Concentration Concentration for DunaAlive gated by SingleCell  (cells/mL) , DunaDead.SingleCell.Percent Percent for DunaDead gated by SingleCell  (%) , DunaDead.SingleCell.Count Count for DunaDead gated by SingleCell, DunaDead.SingleCell.Concentration Concentration for DunaDead gated by SingleCell  (cells/mL) , StrainA.SingleCell.StrainA.Count Count for StrainA gated by SingleCell.StrainA, StrainA.SingleCell.StrainA.Concentration Concentration for StrainA gated by SingleCell.StrainA  (cells/mL) , StrainA.P02.DunaAlive.Percent Percent for StrainA gated by P02.DunaAlive  (%) , StrainA.SingleCell.StrainA.Mean Mean for StrainA gated by SingleCell.StrainA, StrainA.SingleCell.StrainA.Median Median for StrainA gated by SingleCell.StrainA, StrainA.SingleCell.StrainA.Mean.Y Mean for StrainA gated by SingleCell.StrainA, StrainA.SingleCell.StrainA.Median.Y Median for StrainA gated by SingleCell.StrainA, StrainC.SingleCell.StrainC.Count Count for StrainC gated by SingleCell.StrainC, StrainC.SingleCell.StrainC.Mean Mean for StrainC gated by SingleCell.StrainC, StrainC.SingleCell.StrainC.Median Median for StrainC gated by SingleCell.StrainC, StrainC.SingleCell.StrainC.Concentration Concentration for StrainC gated by SingleCell.StrainC  (cells/mL) , StrainC.SingleCell.StrainC.Mean.Y Mean for StrainC gated by SingleCell.StrainC, StrainC.SingleCell.StrainC.Median.Y Median for StrainC gated by SingleCell.StrainC,
 A01, 1, 10.06.2022, 14155, 39, 15610, 15062, 91.4022042225468, 13767, 392116.466841238, 0.225733634311512, 34, 968.399787361233, 637, 18143.2548396796, 4.50017661603674, 51.5189383524995, 51.1222194415372, 5362.99292494449, 5544.50916602062, 12401, 55.1417843235392, 55.1249119738336, 353209.581266666, 9248.67071305084, 9093.76175877791,
 A02, 2, 10.06.2022, 14009, 47, 15540, 15008, 90.8981876332623, 13642, 388551.554780416, 0.29317697228145, 44, 1253.20835730379, 1096, 31216.2809001126, 7.84495681347705, 50.3320818534917, 50.0028222419541, 5193.47995151446, 5321.19446270033, 11743, 55.1312269393351, 55.0724921348674, 334464.22135951, 9203.60229874663, 9053.08600286814,
 A03, 3, 10.06.2022, 13340, 51, 14851, 14309, 90.6771961702425, 12975, 372016.756545573, 0.314487385561535, 45, 1290.23152559158, 1523, 43667.1691883551, 11.4542728635682, 51.1513794414253, 50.820013905679, 5190.6250142269, 5295.12816393416, 10697, 55.6418383656688, 55.5751389316604, 306702.369538959, 9197.1740491327, 9051.72930690261,
 A04, 4, 10.06.2022, 12791, 47, 14372, 13821, 89.6389552130815, 12389, 352865.995450907, 0.32559149120903, 45, 1281.69907137709, 2227, 63429.862932373, 17.4888593542334, 50.0888566755617, 50.2001817878636, 5080.87785846708, 5175.81526833402, 9332, 55.1205716840948, 55.0879134526957, 265795.905202023, 9143.15472339436, 8996.2794768573,
 A05, 5, 10.06.2022, 12295, 39, 13919, 13436, 88.9997022923489, 11958, 340588.045892713, 0.26793688597797, 36, 1025.3528727327, 2741, 78069.2284488983, 22.3830825538837, 50.2810859840945, 50.2834371352095, 5044.41913703059, 5127.66836900459, 8335, 55.0186560060939, 55.0385653224327, 237397.672061863, 9082.93277087358, 8931.52929489597,
 A06, 6, 10.06.2022, 11930, 65, 13597, 13129, 88.4911265138244, 11618, 330904.719568895, 0.464620306192399, 61, 1737.40642913605, 3582, 102022.784084677, 30.3101424979044, 50.185651276176, 50.3574579672009, 5029.33845131184, 5087.97670809132, 7114, 55.2226896615325, 55.2143493835333, 202621.464538915, 9091.72503994189, 8911.06221419934,
 A08, 8, 10.06.2022, 11861, 87, 13761, 13292, 86.9169425218176, 11553, 329053.757366947, 0.616912428528438, 82, 2335.53259794769, 5729, 163173.978702955, 48.8323075626001, 49.7593982291455, 49.6266081070169, 4978.0356832341, 5043.17677217546, 4788, 55.1897126620196, 54.9892312106178, 136372.318036263, 8956.59392574287, 8776.35284806598,
 A09, 9, 10.06.2022, 11727, 75, 13662, 13253, 86.4257149324681, 11454, 326234.952303768, 0.528182298347544, 70, 1993.75298247457, 7069, 201340.569044468, 60.8169182229044, 50.0793236375346, 50.2341044078494, 5006.01328677183, 5073.50902607947, 3306, 55.4063200022255, 55.057075134085, 94162.1051437278, 8903.10400253953, 8725.39646555335,
 A10, 10, 10.06.2022, 11251, 80, 13279, 12883, 85.4614608398665, 11010, 313589.039463595, 0.582162539781107, 75, 2136.16511896182, 8096, 230591.904041532, 72.757977068705, 50.1662336607005, 50.1693391351418, 4980.25097111905, 5032.21950566735, 1812, 55.6370914584262, 55.377788036872, 51609.7492741176, 8828.16463835347, 8637.25254186688,
 A11, 11, 10.06.2022, 11233, 89, 13372, 12989, 84.8025252136423, 11015, 313729.852200984, 0.646701054738625, 84, 2392.49274488268, 8753, 249303.440428072, 79.0260838600552, 50.1269312834554, 50.1755089038824, 4963.77885334739, 5022.06070490615, 1116, 56.0741473052795, 55.6429878737362, 31785.9750391556, 8737.74391628927, 8470.55753808733,
 A12, 7, 10.06.2022, 17575, 76, 19474, 18744, 90.8344003414426, 17026, 484939.336696457, 0.378787878787879, 71, 2022.2420360301, 8787, 250273.813670373, 50.7937411095306, 49.7430202974024, 49.7067836930136, 4972.71290273398, 5027.61914617786, 6717, 54.9785761215818, 54.6839459236711, 191315.489521326, 8905.16987354848, 8727.62412777632,
 B01, 12, 10.06.2022, 12597, 58, 13875, 13147, 91.5798280976649, 12040, 342921.048476926, 0.365102304708298, 48, 1367.1271035625, 4233, 120563.521445418, 33.8016988171787, 53.9984756399991, 54.1658778737277, 5659.66287901762, 5840.67500518775, 4347, 60.5899388124028, 61.1875487861824, 123810.448316379, 8313.07318777161, 8200.32819189172,
 B02, 13, 10.06.2022, 13933, 59, 15294, 14580, 91.8724279835391, 13395, 381518.010462329, 0.349794238683128, 51, 1452.58816973339, 5062, 144176.496376283, 36.5893920907199, 53.8343008491225, 54.0517676529011, 5549.11628350862, 5752.7441456428, 4561, 60.7483838887395, 61.5884343032697, 129906.953767725, 8325.34188793301, 8217.58374627339,
 B03, 14, 10.06.2022, 13485, 66, 14933, 14252, 90.9626719056974, 12964, 369238.663227169, 0.399943867527365, 57, 1623.46527336845, 5413, 154172.237276201, 40.4449388209121, 54.0971793322658, 54.3416490606266, 5454.95218913989, 5655.30082322995, 4073, 60.4971768763164, 61.4619936876648, 116006.562428592, 8300.06081943255, 8210.7339661595,
 B04, 15, 10.06.2022, 12291, 52, 13658, 13066, 90.5862544007347, 11836, 337112.094015967, 0.352058778509108, 46, 1310.16866548956, 5401, 153830.890484981, 44.3169799039948, 54.3928839630564, 54.4989140851388, 5376.68094748943, 5570.36258120598, 3440, 60.8899180736103, 61.4434893444508, 97977.8306366109, 8323.81213010491, 8230.4735535015,
 B05, 16, 10.06.2022, 12621, 51, 14048, 13486, 90.4345246922735, 12196, 347365.19467403, 0.35592466261308, 48, 1367.13097280694, 6113, 174109.825766017, 48.9739323349972, 54.2128460247584, 54.5420889936066, 5303.64167675784, 5455.65531217874, 3196, 60.4959689302039, 61.0333606038145, 91028.1372727288, 8296.99662699737, 8182.5338699974,
 B06, 17, 10.06.2022, 11542, 63, 13039, 12521, 89.2420733168277, 11174, 318257.59844431, 0.471208369938503, 59, 1680.43657671508, 6090, 173455.233088048, 53.2836596776988, 54.627704896715, 54.9553104361827, 5260.61774627929, 5403.48120282591, 2581, 60.765716283592, 61.5082536051973, 73511.9797373155, 8276.70220561248, 8174.20089010285,
 B08, 19, 10.06.2022, 10764, 72, 12429, 11956, 87.4205419872867, 10452, 297697.150551072, 0.518568082970893, 62, 1765.9034954235, 7077, 201569.33930826, 66.7131178000743, 54.6264938053612, 54.7918703404784, 5076.86707146688, 5174.38339365943, 1539, 60.5448369694666, 61.3293984584489, 43834.2819267221, 8299.90950475716, 8164.57197809274,
 B09, 20, 10.06.2022, 10158, 63, 11902, 11474, 86.2994596478996, 9902, 282033.154763404, 0.488059961652432, 56, 1595.01683162499, 7283, 207437.635441514, 72.6717857846033, 54.6284319096871, 54.8196257896263, 5028.38168518242, 5141.8698812162, 1026, 60.3165286821474, 60.7249820918192, 29222.9869508435, 8241.78248584239, 8149.82102150802,
 B10, 21, 10.06.2022, 10009, 60, 11914, 11524, 84.8923984727525, 9783, 278638.696836618, 0.485942381117667, 56, 1594.98794059599, 8019, 228396.576707844, 81.037066640024, 55.2991494133072, 55.53814312091, 4988.49880663527, 5048.29019553305, 584, 61.3417185821925, 61.9584846079924, 16633.4456662153, 8304.97838325406, 8227.7900865909,
 B11, 22, 10.06.2022, 10529, 78, 12432, 12042, 85.6087028732769, 10309, 293621.520321375, 0.581298787576815, 70, 1993.7439540689, 8946, 254800.477330005, 86.2665020419793, 54.9677942224934, 55.2821827364924, 4954.0571099048, 5024.12336901407, 339, 60.5166742550138, 60.6756470939457, 9655.41714899081, 8156.31342582007, 7980.97990273974,
 B12, 18, 10.06.2022, 13543, 56, 15226, 14704, 89.6150707290533, 13177, 375306.571246583, 0.340043525571273, 50, 1424.09718162929, 9077, 258530.602352981, 67.8505500996825, 54.7735045341316, 54.9121400270039, 5080.00402995226, 5174.00276348591, 1860, 60.902516679795, 61.5730185258166, 52976.4151566096, 8272.08923078921, 8166.52195882538,
 C01, 23, 10.06.2022, 9768, 44, 11275, 10802, 87.3727087576375, 9438, 268814.105602809, 0.351786706165525, 38, 1082.31998441478, 794, 22614.7912532984, 8.13882063882064, 52.1724270782769, 51.3072494325039, 5099.00899984488, 5305.77525404427, 7466, 62.9934153201185, 63.5928639700929, 212647.394832652, 9674.24182614136, 9634.2478728143,
 C02, 24, 10.06.2022, 10179, 43, 11762, 11261, 87.3634668324305, 9838, 280207.74059407, 0.364088446851967, 41, 1167.76960402082, 1338, 38109.1641507283, 13.2527753217408, 50.9576261736531, 50.8385143913772, 5021.39740024796, 5136.83368878914, 7368, 62.9049176317619, 63.497261894173, 209856.742498181, 9658.57147279035, 9575.66065343897,
 C03, 25, 10.06.2022, 10269, 59, 11867, 11384, 87.2452565003514, 9932, 282885.066027678, 0.491918482080112, 56, 1595.00238597966, 2148, 61179.7343765055, 21.0731327295744, 50.767666001584, 50.8261799860736, 4889.71799352663, 4948.63504015956, 6657, 62.6567233469255, 63.2875680045534, 189605.908633332, 9607.38668510607, 9508.03481068636,
 C04, 26, 10.06.2022, 10756, 43, 12348, 11838, 87.8780199358, 10403, 296300.678540591, 0.329447541814496, 39, 1110.80711939662, 3038, 86529.0263776138, 28.4585347712904, 50.2638759269114, 50.1354189655775, 4861.04064925155, 4917.38345362047, 6196, 62.7938455508912, 63.2536500201529, 176475.92081491, 9622.20235096093, 9569.25996584601,
 C05, 27, 10.06.2022, 10407, 64, 12040, 11581, 87.3067956135049, 10111, 287980.932069075, 0.518089974958985, 60, 1708.91661795515, 3661, 104272.395638897, 35.4280772556933, 50.4781371112026, 50.4314631768419, 4848.70419696129, 4888.86483992248, 5347, 62.7262845346607, 63.4170853320572, 152292.952603436, 9589.31952135188, 9503.83387079427,
 C06, 268, 10.06.2022, 10397, 54, 11997, 11592, 87.3447204968944, 10125, 288382.944012217, 0.41407867494824, 48, 1367.14877161347, 4544, 129423.417046075, 44.1184957199192, 49.9479232749206, 49.9010571228566, 4777.7003975891, 4838.00326113011, 4472, 62.864350151439, 63.2474866454242, 127372.693888655, 9596.82399942788, 9550.06259105381,
 C08, 30, 10.06.2022, 10854, 76, 12467, 12055, 87.789299046039, 10583, 303437.241066445, 0.597262546661136, 72, 2064.39396738014, 6449, 184906.620772702, 60.0976598489036, 49.8643759957517, 49.7900407598271, 4770.78495707573, 4820.34684816122, 3053, 62.7386760862743, 63.0686289234746, 87536.0386446052, 9573.78047442728, 9490.22098271908,
 C09, 31, 10.06.2022, 11344, 86, 13024, 12657, 87.7696136525243, 11109, 318520.237879922, 0.60835901082405, 77, 2207.76472380538, 7683, 220289.043805152, 68.6001410437236, 49.8009524558294, 49.6975339272774, 4783.51931758921, 4827.02271215174, 2281, 62.3127531437292, 62.8250060078503, 65401.4459090918, 9460.18391758658, 9407.78485773588,
 C10, 32, 10.06.2022, 11536, 70, 13289, 12914, 87.5329100201332, 11304, 321961.348769736, 0.503329719684064, 65, 1851.3347195712, 9034, 257307.043947788, 79.4642857142857, 49.7205098472688, 49.6050219576444, 4759.19650177201, 4792.50676513851, 1174, 61.9616312499024, 61.9091330814716, 33437.9532427167, 9287.73927486807, 9238.240942652,
 C11, 33, 10.06.2022, 12260, 71, 14036, 13643, 88.1550978523785, 12027, 344840.594957476, 0.476434801729825, 65, 1863.69324621568, 10112, 289933.324703584, 83.6623164763458, 49.8329997046486, 49.657444234155, 4770.47301684737, 4812.19529946239, 733, 60.7281274927969, 60.5152901517057, 21016.7253765553, 9023.65850282847, 8909.03227100112,
 C12, 29, 10.06.2022, 11707, 77, 13408, 13007, 88.0218343968632, 11449, 326092.725959919, 0.561236257399862, 73, 2079.20071578951, 6209, 176845.989648453, 53.4722815409584, 49.4788038710446, 49.2596467324149, 4766.33442520896, 4807.48200603323, 4070, 62.2006278232139, 62.6369058932039, 115922.560455662, 9493.11708077203, 9462.89263000927,
 D01, 34, 10.06.2022, 12162, 50, 13719, 13302, 89.3399488798677, 11884, 338481.525668855, 0.3382949932341, 45, 1281.6954438824, 891, 25377.5697888716, 7.38365400427561, 53.1583923049807, 52.3988897881082, 5240.98353205372, 5496.06657505124, 10168, 56.5311772996814, 56.7500452656742, 289606.206075473, 9023.48240978569, 8897.18468144054,
 D02, 35, 10.06.2022, 12976, 57, 14591, 14058, 89.8776497368047, 12635, 359870.580007071, 0.362782757148954, 51, 1452.58405859601, 1567, 44631.3572513716, 12.1763255240444, 51.894154960954, 51.7235558259844, 4956.5122122364, 5019.09228685896, 10194, 56.5563632285962, 56.6976207479726, 290345.919477015, 9021.46689527383, 8905.47242743283,
 D03, 36, 10.06.2022, 12517, 54, 14051, 13604, 89.7750661570126, 12213, 347850.568277981, 0.345486621581888, 47, 1338.65362393066, 2057, 58587.4575409651, 16.4895741791164, 51.6653022269503, 51.5786174712931, 4818.83649461953, 4864.31279338957, 9265, 56.6158781615139, 56.9504887557256, 263885.655866331, 9008.36566556392, 8892.07221741501,
 D04, 37, 10.06.2022, 12404, 63, 13980, 13533, 89.6105815414173, 12127, 347706.032160337, 0.399024606517402, 54, 1548.2910642911, 2829, 81113.248534806, 22.9683972911964, 52.0155097639966, 52.1398481074247, 4782.44790671212, 4828.26569140386, 8480, 56.7976662398066, 56.833304606072, 243139.041207195, 9043.9373581126, 8944.65996116338,
 D05, 38, 10.06.2022, 12567, 65, 14189, 13763, 89.1593402601177, 12271, 351833.404961278, 0.443217321804839, 61, 1748.98848526102, 3653, 104738.605518992, 29.4660619081722, 51.3641102017747, 51.0975562327987, 4714.63762137466, 4727.92887609676, 7716, 56.6634004689229, 56.9196545522057, 221232.707414328, 9008.60267061378, 8882.22180479432,
 D06, 39, 10.06.2022, 12082, 71, 13643, 13221, 89.2822025565388, 11804, 338443.222167708, 0.476514635806671, 63, 1806.33031146777, 4257, 122056.319617751, 35.6232411852342, 51.2798094177975, 51.0667089101575, 4716.8367479225, 4734.23503447045, 6673, 56.1881296288403, 56.1702959328409, 191327.653467055, 8953.87147676402, 8827.92182300241,
 D08, 41, 10.06.2022, 11741, 87, 13521, 13101, 87.7184947713915, 11492, 329498.525107934, 0.618273414243187, 81, 2322.43130297099, 6301, 180662.217778027, 54.3139425943276, 51.3538618987543, 51.2918305330999, 4659.02600971957, 4675.68861651862, 4322, 56.4537998901955, 56.3584033739131, 123920.346807909, 8939.58923273946, 8820.24370829175,
 D09, 42, 10.06.2022, 11765, 84, 13566, 13151, 87.4534255950118, 11501, 329755.82142714, 0.55509086761463, 73, 2093.05060118087, 7532, 215956.946960196, 64.8958776030599, 51.3665384939051, 51.3257441418541, 4674.53070269264, 4703.96038342376, 3101, 56.8558337460581, 56.8302158608535, 88911.6426611217, 8987.04341632471, 8833.79269722583,
 D10, 43, 10.06.2022, 11257, 90, 13061, 12698, 86.9349503858875, 11039, 316509.75230016, 0.637895731611277, 81, 2322.42865624721, 8612, 246922.908488901, 77.7027627254153, 51.3660959865841, 51.2794846742245, 4652.86037110262, 4663.67067088975, 1596, 56.7432720263593, 57.1570997405722, 45760.4461156858, 8866.75113120549, 8738.63184933056,
 D11, 44, 10.06.2022, 11514, 95, 13365, 12989, 87.0120871506659, 11302, 324050.662093007, 0.631303410578182, 82, 2351.10195466524, 9560, 274104.081543899, 84.1671009206184, 51.3641162375464, 51.3380870462181, 4645.52367730756, 4665.35050231636, 834, 56.0609151408364, 56.1209640837798, 23912.4271974489, 8785.58235525673, 8658.24568130656,
 D12, 40, 10.06.2022, 12970, 77, 14646, 14188, 89.237383704539, 12661, 363013.393977498, 0.507471102340006, 72, 2064.36808833266, 5828, 167099.128038927, 45.4124903623747, 51.1185997203834, 51.1160595389724, 4667.71427047343, 4686.77000675888, 5902, 56.8299625564947, 57.0214097858863, 169220.839685269, 8958.96466462038, 8842.63788369421,
 E01, 45, 10.06.2022, 12606, 48, 14036, 13620, 90.7562408223201, 12361, 352066.899517224, 0.286343612334802, 39, 1110.80083174272, 869, 24750.9210970365, 6.8935427574171, 51.8820073433738, 51.1931468276337, 5283.24326973233, 5446.28888472259, 10692, 54.5973194784897, 54.8782216166899, 304530.320333158, 9003.75493126715, 8903.41443081293,
 E02, 46, 10.06.2022, 12908, 36, 14323, 13887, 90.8763591848491, 12620, 361837.438678318, 0.216029379995679, 30, 860.152389885066, 1417, 40627.8645489046, 11.0009296560273, 50.7251093834233, 50.5301488027171, 5133.88704629787, 5247.64856522348, 10407, 54.8613030440273, 54.8535531539612, 298386.864051129, 9055.38512923301, 8958.96565377719,
 E03, 47, 10.06.2022, 12599, 42, 14028, 13634, 90.4870177497433, 12337, 351382.534183111, 0.249376558603491, 34, 968.388276098384, 2067, 58872.3107851577, 16.4933724898801, 50.6636943198911, 50.4037157808506, 5033.29667553095, 5110.97741165985, 9440, 54.7778199982581, 54.825795576325, 268870.156657904, 9011.86637169895, 8900.35031502911,
 E04, 48, 10.06.2022, 12194, 58, 13667, 13245, 89.8980747451869, 11907, 339136.230518767, 0.422801057002643, 56, 1594.99696893012, 2821, 80347.9723098548, 23.2901426931278, 50.7941404076392, 50.8354305094586, 4993.65347355057, 5033.1008468668, 8282, 54.6856030792464, 54.7116917558118, 235888.658869273, 9014.68335248091, 8905.43331617523,
 E05, 49, 10.06.2022, 12537, 52, 14016, 13598, 90.1382556258273, 12257, 351431.997767939, 0.31622297396676, 43, 1232.89352239711, 3584, 102760.24149468, 28.770838318577, 50.4930980574921, 50.4468865351894, 4979.82206189699, 5063.32246489187, 7774, 54.7272111899197, 54.9244709679789, 222895.680072445, 8997.66915330741, 8885.50406262191,
 E06, 50, 10.06.2022, 12620, 60, 14188, 13775, 89.7059891107078, 12357, 351951.178249012, 0.399274047186933, 55, 1566.50601308535, 4472, 127371.179827594, 35.6656101426307, 50.4607285473626, 50.3451159024553, 4978.47645248045, 5045.24256962041, 6919, 54.8100963226748, 54.8658859989152, 197066.456446137, 8993.18578263319, 8880.78345588661,
 E08, 52, 10.06.2022, 11311, 60, 12931, 12536, 88.3056796426292, 11070, 317398.944739369, 0.446713465220166, 56, 1605.6315181034, 5560, 159416.272154552, 49.6684643267616, 50.0657233416815, 49.9504055493862, 4917.59007817529, 4976.65803157649, 4500, 54.5583118346223, 54.6931929706223, 129023.961276166, 8898.25850727615, 8795.44818810151,
 E09, 53, 10.06.2022, 11774, 78, 13376, 13016, 88.7062077443147, 11546, 328855.871809062, 0.553165334972342, 72, 2050.72083580915, 7127, 202992.880511275, 61.1347035841685, 50.1397781565182, 50.0799214561689, 4938.8976962948, 4991.29341106502, 3375, 55.174232183126, 54.9244709679789, 96127.5391785539, 8934.69192335181, 8807.21348879557,
 E10, 54, 10.06.2022, 10825, 70, 12527, 12209, 87.1733966745843, 10643, 305156.873833385, 0.483250061430093, 59, 1691.65231195807, 7748, 222151.222255103, 72.2956120092379, 50.0091677584472, 49.8702202948964, 4908.6828493488, 4971.51072248606, 1870, 55.081515935755, 55.0539922518676, 53616.7766671455, 8826.0718096218, 8734.14270569901,
 E11, 55, 10.06.2022, 11165, 80, 13004, 12649, 86.6155427306506, 10956, 312050.647307727, 0.569214957704166, 72, 2050.7161926028, 8855, 252209.609520803, 80.3493058665472, 50.0717834904042, 49.7992940736612, 4913.49463893131, 4981.3758383155, 1064, 54.4217732194383, 54.4649967665201, 30305.0281795748, 8570.25931930561, 8329.74386139656,
 E12, 51, 10.06.2022, 13339, 45, 14997, 14569, 89.539433042762, 13045, 374024.84898713, 0.274555563182099, 40, 1146.87573472481, 5283, 151473.61266378, 39.89054651773, 50.054826236658, 49.9288156066097, 4939.44893901445, 5000.38790974751, 6779, 54.6624903834291, 54.4526643539211, 194366.765142488, 8920.057566791, 8794.03837415816,
 F01, 56, 10.06.2022, 13745, 60, 15141, 14631, 91.5863577335794, 13400, 381655.668315688, 0.348574943612877, 51, 1452.57008090299, 935, 26630.4514832215, 6.84612586395053, 52.541757804962, 52.5530712426824, 5072.85733725298, 5189.98487163695, 11518, 54.5004395101225, 54.5235876888244, 328052.984153738, 9251.2475750886, 9173.15415757844,
 F02, 57, 10.06.2022, 13807, 43, 15301, 14789, 91.0000676178241, 13458, 385864.581973185, 0.256947731422003, 38, 1089.52698134797, 1483, 42520.2240352381, 10.8133555442891, 51.9091600727335, 51.8376454001902, 4854.22240646756, 4991.99218945164, 10976, 54.5877098228877, 54.6222589210507, 314701.267033562, 9269.39480369024, 9143.94738628753,
 F03, 58, 10.06.2022, 13334, 61, 14841, 14365, 90.5116602854159, 13002, 372791.532727025, 0.355029585798817, 51, 1462.26489532982, 2226, 63823.5619020426, 16.8366581670916, 52.0058927257108, 51.9363312038816, 4705.89918535517, 4715.78701253177, 9834, 54.73647744643, 54.8720459302594, 281959.07805242, 9260.43862602279, 9152.38460041754,
 F04, 59, 10.06.2022, 12746, 58, 14178, 13735, 90.542409901711, 12436, 356563.665925944, 0.378594830724427, 52, 1490.93845514226, 3018, 86531.7741849871, 23.8349286050526, 52.0238466865541, 51.7852242311786, 4659.84362451884, 4689.04761067701, 8545, 54.5095927805773, 54.6623505531778, 245001.328830588, 9198.79779635066, 9077.03802435143,
 F05, 60, 10.06.2022, 12568, 61, 14043, 13512, 90.1791000592066, 12185, 349367.617916484, 0.414446417998816, 56, 1605.62877335438, 3527, 101125.940778944, 28.3338637810312, 52.0560923847613, 51.8191511416932, 4643.27197761029, 4662.43167083812, 7766, 55.1298723409576, 55.1773362709323, 222666.304533395, 9274.31069983774, 9171.74422245588,
 F06, 61, 10.06.2022, 12370, 69, 13924, 13487, 89.5306591532587, 12075, 343924.72560328, 0.452287387854971, 61, 1737.42511484887, 4490, 127885.881404449, 36.5885206143897, 51.6706468211671, 51.6156250482906, 4580.84205613853, 4595.07369024629, 6742, 54.6547055558218, 54.7918703404784, 192028.198759198, 9245.65033024858, 9146.6484567544,
 F08, 63, 10.06.2022, 11292, 66, 12860, 12483, 88.4082351998718, 11036, 316421.9333966, 0.496675478650965, 62, 1777.65131121685, 5854, 167844.689933282, 52.5239107332625, 51.6259288739427, 51.5169405675168, 4570.0107661886, 4591.89883507403, 4408, 54.6319248877029, 54.9429725715241, 126385.27386845, 9195.74032311127, 9099.32486500809,
 F09, 64, 10.06.2022, 10901, 76, 12590, 12239, 87.4009314486478, 10697, 306702.020012424, 0.612795163003513, 75, 2150.38342534653, 6817, 195455.517474497, 63.2969452343822, 51.7888998289854, 51.643373348078, 4563.6519034349, 4587.20236222005, 3111, 55.2040077071785, 54.8196257896263, 89197.9044833739, 9241.92685523248, 9135.8088367864,
 F10, 65, 10.06.2022, 10347, 72, 12034, 11686, 86.9159678247476, 10157, 291220.586882193, 0.513434879342803, 60, 1720.31458235026, 7968, 228457.776536114, 78.1095969846332, 51.6890565088014, 51.3874178266545, 4532.52884368227, 4563.69173524566, 1498, 54.8204104103731, 55.0848288437084, 42950.5207393448, 9190.31209601287, 8981.84516936817,
 F11, 66, 10.06.2022, 10734, 74, 12427, 12128, 87.0135224274406, 10553, 302574.145890501, 0.577176781002638, 70, 2007.03024849191, 9043, 259279.636244462, 85.4108440469536, 51.6305282514509, 51.492270673856, 4525.46390299941, 4546.1204056722, 735, 54.8565970324318, 54.2738077538395, 21073.817609165, 9134.61880505016, 8978.93644192439,
 F12, 62, 10.06.2022, 12717, 49, 14297, 13892, 89.5119493233516, 12435, 356534.790873293, 0.323927440253383, 45, 1290.23446636897, 5577, 159903.058198661, 44.3500825666431, 51.6171536495766, 51.4151704595685, 4564.40048194262, 4568.7152620044, 6015, 54.1320536658734, 54.2830599470963, 172461.340337986, 9137.26448251772, 8989.7774687217,
 G01, 67, 10.06.2022, 12132, 51, 13493, 12998, 90.7370364671488, 11794, 335915.662918538, 0.353900600092322, 46, 1310.16792388102, 948, 27000.8519965045, 7.83877349159248, 53.0026030023061, 52.7658552277415, 5070.98922971711, 5204.69612153237, 9968, 57.305678869166, 57.7306782811264, 283907.69272274, 9370.86602030506, 9286.90898047538,
 G02, 68, 10.06.2022, 12235, 46, 13606, 13083, 90.7666437361462, 11875, 338221.35761209, 0.336314301001299, 44, 1253.19913557322, 1413, 40244.7813310217, 11.606048222313, 52.4703100091172, 52.3032873632396, 4867.46818183161, 4969.53513427443, 9519, 57.4493124756849, 57.7306782811264, 271118.240261851, 9384.99184087262, 9327.84667384527,
 G03, 69, 10.06.2022, 12197, 65, 13598, 13102, 90.4823691039536, 11855, 337652.868388047, 0.419783239200122, 55, 1566.50423967462, 2298, 65451.3953231323, 18.9554808559482, 51.817254154062, 51.5354401344267, 4711.7044083443, 4760.50814645326, 8675, 57.3616513046859, 57.6350765593249, 247080.441439588, 9366.34398014768, 9292.34537869034,
 G04, 70, 10.06.2022, 11569, 55, 13004, 12560, 89.7213375796178, 11269, 323103.198146504, 0.414012738853503, 52, 1490.93675602256, 2753, 78933.6324871174, 24.0383784251016, 51.8108564438889, 51.7173802496938, 4691.94527144023, 4700.15550118012, 7655, 57.5506778324268, 57.995873991253, 219483.093602936, 9388.4135817413, 9315.477925989,
 G05, 71, 10.06.2022, 11714, 55, 13098, 12690, 90.1418439716312, 11439, 325804.768794242, 0.409771473601261, 52, 1481.06023055342, 3488, 99344.9631571217, 30.0068294348643, 51.1875565466262, 50.8138485733349, 4625.13087493693, 4629.74325512074, 7118, 57.378088335678, 57.727588302773, 202734.360020755, 9360.24920327171, 9302.17568447904,
 G06, 72, 10.06.2022, 11121, 54, 12593, 12219, 88.9925525820444, 10874, 311776.391932693, 0.43375071609788, 53, 1519.60168957447, 4313, 123661.171455371, 39.0612355004046, 51.3927240054337, 51.1900695358574, 4592.09868143374, 4612.3429808187, 5732, 57.6135917943997, 57.8941119459893, 164346.356313978, 9389.32987668531, 9317.20661916967,
 G08, 74, 10.06.2022, 10783, 86, 12435, 12023, 87.6070864176994, 10533, 300000.312282026, 0.623804374948016, 75, 2136.14577244393, 6107, 173939.229764201, 57.303162385236, 50.835079949879, 50.684326635579, 4560.09352637288, 4564.65389920915, 3677, 57.5877771857171, 57.9126124068415, 104728.106737018, 9369.3383537775, 9275.58233100119,
 G09, 75, 10.06.2022, 10707, 84, 12291, 11930, 87.9212070410729, 10489, 298745.415740195, 0.670578373847443, 80, 2278.54259311809, 6810, 193960.938239177, 64.3691043242738, 51.146428891342, 50.9186911365056, 4561.20299041888, 4565.48092093328, 2937, 57.3533740300245, 57.5980691185467, 83650.9949498478, 9327.73391770846, 9267.36732075384,
 G10, 76, 10.06.2022, 10114, 92, 11873, 11547, 85.9444011431541, 9924, 282656.248565402, 0.744782194509396, 86, 2449.45963085697, 7706, 219482.975760277, 77.229582756575, 50.8137462956977, 50.5578964123499, 4528.49868686691, 4558.57362854243, 1470, 57.5785220513348, 57.7830904782326, 41868.6704344157, 9348.95972881948, 9318.43940400372,
 G11, 77, 10.06.2022, 10816, 99, 12561, 12236, 86.6623079437725, 10604, 302026.120423425, 0.75187969924812, 92, 2620.36996217985, 9063, 258134.923556913, 85.1516272189349, 50.7154856142502, 50.5671397477218, 4512.63018995572, 4526.99607258704, 793, 57.5004633033468, 57.5425709175308, 22586.4497827024, 9263.06619348881, 9196.72203591286,
 G12, 73, 10.06.2022, 12502, 78, 14048, 13571, 89.8238891754476, 12190, 347195.482462015, 0.50843710854027, 69, 1965.2574478982, 5652, 160980.218775661, 45.7526795712686, 50.7741480154113, 50.6719879123943, 4567.91398815611, 4563.85208182103, 5636, 57.247105402725, 57.5549080047763, 160524.506903685, 9316.28985824597, 9249.66417293049,
 H01, 78, 10.06.2022, 12099, 43, 13391, 12956, 91.1469589379438, 11809, 336343.08197318, 0.293300401358444, 38, 1082.31324540442, 2496, 71090.8910665642, 20.75378130424, 46.7426956615406, 46.1111508561747, 5058.36297858691, 5168.34774106356, 6720, 56.6043569963289, 56.9659043023982, 191398.552871519, 8643.3656241539, 8533.31491196204,
 H02, 79, 10.06.2022, 12015, 57, 13404, 12974, 90.2420225065516, 11708, 335691.292683239, 0.423924772622167, 55, 1576.95772955057, 2944, 84410.2464690344, 24.702455264253, 48.5383463684308, 48.1094061068026, 4937.46132047012, 5006.07901027006, 6293, 56.5674917258809, 56.8425562463226, 180432.636219305, 8641.94178892054, 8515.19068723966,
 H03, 80, 10.06.2022, 12571, 51, 14029, 13550, 90.4059040590406, 12250, 348903.019525306, 0.339483394833948, 46, 1310.16644066645, 3725, 106094.999814838, 29.9419298385172, 50.0220395281324, 50.0768286084695, 4829.56081269837, 4896.25647213813, 6060, 56.2225194052348, 56.5866104349809, 172600.187618233, 8625.76083023583, 8521.46171624195,
 H04, 81, 10.06.2022, 11768, 45, 13119, 12714, 90.3728173666824, 11490, 327259.01427497, 0.330344502123643, 42, 1196.24704956908, 4242, 120820.952006477, 36.386811692726, 51.5474920559278, 51.8037206007361, 4809.13179341173, 4863.99235523716, 5129, 56.2151552907118, 56.4725001380659, 146084.550410472, 8613.54766707913, 8476.78173618009,
 H05, 82, 10.06.2022, 13107, 52, 14571, 14115, 90.605738575983, 12789, 364254.752384419, 0.318809776833156, 45, 1281.68456152153, 5119, 145798.73934286, 39.4979781795987, 51.6451516630871, 52.2477850978847, 4788.43374323822, 4845.53079701134, 5370, 56.2453284226922, 56.4817550591341, 152947.691008236, 8638.74798590656, 8523.99762591848,
 H06, 83, 10.06.2022, 12295, 57, 13777, 13383, 89.8229096615109, 12021, 342381.444407314, 0.351191810505866, 47, 1338.65135073153, 5634, 160467.270425988, 46.2952419682798, 52.4916986001331, 52.9046171663703, 4763.35200519666, 4812.60215301057, 4407, 55.7621874210656, 55.8372527878131, 125519.925588806, 8547.79011269091, 8406.31861230477,
 H08, 85, 10.06.2022, 11909, 40, 13397, 13036, 89.6440625958883, 11686, 332840.935298732, 0.276158330776312, 36, 1025.3528727327, 7198, 205013.610498055, 61.0210764967672, 53.6656970907533, 53.7896483041732, 4673.43005397991, 4703.52656429854, 2951, 55.9904709760993, 56.2813083010379, 84050.453539839, 8544.15282252834, 8383.20675377787,
 H09, 86, 10.06.2022, 11705, 57, 13278, 12904, 88.9414135151891, 11477, 326888.377264832, 0.402975821450713, 52, 1481.06609896064, 8239, 234663.530564167, 71.3199487398548, 54.4608710441824, 54.4958325396776, 4677.08556885525, 4716.37990065101, 1953, 56.4075032384292, 56.3429975672588, 55625.4248321179, 8615.22700409149, 8480.24004820104,
 H10, 87, 10.06.2022, 11451, 54, 13032, 12707, 88.6047060675218, 11259, 320678.929429168, 0.377744550247895, 48, 1367.13638978595, 9157, 260809.748359791, 80.988559951096, 54.2880402203736, 54.2028820086215, 4643.31844358035, 4676.48954392178, 1055, 56.6913825353795, 56.5557714309733, 30048.5185671705, 8591.29939816515, 8372.81221998865,
 H11, 88, 10.06.2022, 11692, 59, 13221, 12887, 89.1673779778071, 11491, 327287.311088653, 0.434546442151005, 56, 1594.99516325512, 9965, 283823.692889951, 86.4693807731782, 54.8510614893299, 54.9275616743756, 4657.80197119165, 4688.97810808969, 547, 57.1220520001609, 56.9905841141524, 15579.6848982241, 8651.09751600903, 8537.57897321268,
 H12, 84, 10.06.2022, 12447, 37, 13896, 13493, 90.2986733862002, 12184, 347025.965529203, 0.266805010005188, 36, 1025.35577470874, 6670, 189975.639369648, 54.2781393106773, 53.1605758315816, 53.419609661616, 4709.59584484041, 4746.06743087155, 3775, 55.8075314142811, 56.1240450917948, 107519.945820153, 8545.97677762243, 8447.44992419657,
