ID;Flask;Strain;Replicat;Days;S_accli;S_exp;Nutrient;Initial_Dens;Block;Date_Shock;Hour_Shock;Date_Measure;Hour_Measure;After_Shock;Fluo;DunaAlive_SingleCell_Count;DunaAlive_SingleCell_Concentration;DunaDead_SingleCell_Count;DunaDead_SingleCell_Concentration
1n;1;A;A_A5;5;2,4;4;yes;50000;n;01/02/2021;15:40;01/02/2021;16:50;0,04;3959;;;;
2n;2;A;A_B8;5;2,4;4;yes;50000;n;01/02/2021;15:40;01/02/2021;16:50;0,04;3885;;;;
3n;3;A;A_D10;5;2,4;4;yes;50000;n;01/02/2021;15:40;01/02/2021;16:50;0,04;4003;;;;
4n;4;A;A_E3;5;2,4;4;yes;50000;n;01/02/2021;15:40;01/02/2021;16:50;0,04;4150;;;;
5n;5;A;A_G6;5;2,4;4;yes;50000;n;01/02/2021;15:40;01/02/2021;16:50;0,04;4114;;;;
6n;6;C;C_A5;5;2,4;4;yes;50000;n;01/02/2021;15:40;01/02/2021;16:50;0,04;5178;;;;
7n;7;C;C_B8;5;2,4;4;yes;50000;n;01/02/2021;15:40;01/02/2021;16:50;0,04;5544;;;;
8n;8;C;C_D10;5;2,4;4;yes;50000;n;01/02/2021;15:40;01/02/2021;16:50;0,04;5369;;;;
9n;9;C;C_E3;5;2,4;4;yes;50000;n;01/02/2021;15:40;01/02/2021;16:50;0,04;5446;;;;
10n;10;C;C_G6;5;2,4;4;yes;50000;n;01/02/2021;15:40;01/02/2021;16:50;0,04;5257;;;;
11n;11;A;A_A5;5;2,4;4;no;50000;n;01/02/2021;15:40;01/02/2021;16:50;0,04;4283;;;;
12n;12;A;A_B8;5;2,4;4;no;50000;n;01/02/2021;15:40;01/02/2021;16:50;0,04;4420;;;;
13n;13;A;A_D10;5;2,4;4;no;50000;n;01/02/2021;15:40;01/02/2021;16:50;0,04;4300;;;;
14n;14;A;A_E3;5;2,4;4;no;50000;n;01/02/2021;15:40;01/02/2021;16:50;0,04;4320;;;;
15n;15;A;A_G6;5;2,4;4;no;50000;n;01/02/2021;15:40;01/02/2021;16:50;0,04;4575;;;;
16n;16;C;C_A5;5;2,4;4;no;50000;n;01/02/2021;15:40;01/02/2021;16:50;0,04;5502;;;;
17n;17;C;C_B8;5;2,4;4;no;50000;n;01/02/2021;15:40;01/02/2021;16:50;0,04;5687;;;;
18n;18;C;C_D10;5;2,4;4;no;50000;n;01/02/2021;15:40;01/02/2021;16:50;0,04;5282;;;;
19n;19;C;C_E3;5;2,4;4;no;50000;n;01/02/2021;15:40;01/02/2021;16:50;0,04;5310;;;;
20n;20;C;C_G6;5;2,4;4;no;50000;n;01/02/2021;15:40;01/02/2021;16:50;0,04;5066;;;;
1n;1;A;A_A5;5;2,4;4;yes;50000;n;01/02/2021;15:40;02/02/2021;14:40;1;3487;;;;
2n;2;A;A_B8;5;2,4;4;yes;50000;n;01/02/2021;15:40;02/02/2021;14:40;1;3640;;;;
3n;3;A;A_D10;5;2,4;4;yes;50000;n;01/02/2021;15:40;02/02/2021;14:40;1;3685;;;;
4n;4;A;A_E3;5;2,4;4;yes;50000;n;01/02/2021;15:40;02/02/2021;14:40;1;3495;;;;
5n;5;A;A_G6;5;2,4;4;yes;50000;n;01/02/2021;15:40;02/02/2021;14:40;1;3650;;;;
6n;6;C;C_A5;5;2,4;4;yes;50000;n;01/02/2021;15:40;02/02/2021;14:40;1;5579;;;;
7n;7;C;C_B8;5;2,4;4;yes;50000;n;01/02/2021;15:40;02/02/2021;14:40;1;5633;;;;
8n;8;C;C_D10;5;2,4;4;yes;50000;n;01/02/2021;15:40;02/02/2021;14:40;1;6461;;;;
9n;9;C;C_E3;5;2,4;4;yes;50000;n;01/02/2021;15:40;02/02/2021;14:40;1;6353;;;;
10n;10;C;C_G6;5;2,4;4;yes;50000;n;01/02/2021;15:40;02/02/2021;14:40;1;5914;;;;
11n;11;A;A_A5;5;2,4;4;no;50000;n;01/02/2021;15:40;02/02/2021;14:40;1;4036;;;;
12n;12;A;A_B8;5;2,4;4;no;50000;n;01/02/2021;15:40;02/02/2021;14:40;1;3856;;;;
13n;13;A;A_D10;5;2,4;4;no;50000;n;01/02/2021;15:40;02/02/2021;14:40;1;3739;;;;
14n;14;A;A_E3;5;2,4;4;no;50000;n;01/02/2021;15:40;02/02/2021;14:40;1;4070;;;;
15n;15;A;A_G6;5;2,4;4;no;50000;n;01/02/2021;15:40;02/02/2021;14:40;1;4102;;;;
16n;16;C;C_A5;5;2,4;4;no;50000;n;01/02/2021;15:40;02/02/2021;14:40;1;5587;;;;
17n;17;C;C_B8;5;2,4;4;no;50000;n;01/02/2021;15:40;02/02/2021;14:40;1;5821;;;;
18n;18;C;C_D10;5;2,4;4;no;50000;n;01/02/2021;15:40;02/02/2021;14:40;1;7064;;;;
19n;19;C;C_E3;5;2,4;4;no;50000;n;01/02/2021;15:40;02/02/2021;14:40;1;6309;;;;
20n;20;C;C_G6;5;2,4;4;no;50000;n;01/02/2021;15:40;02/02/2021;14:40;1;6107;;;;
1n;1;A;A_A5;5;2,4;4;yes;50000;n;01/02/2021;15:40;03/02/2021;13:20;2;4976;543;15466,21191;44;1253,247374
2n;2;A;A_B8;5;2,4;4;yes;50000;n;01/02/2021;15:40;03/02/2021;13:20;2;5982;813;23156,41001;39;1110,824096
3n;3;A;A_D10;5;2,4;4;yes;50000;n;01/02/2021;15:40;03/02/2021;13:20;2;5583;743;21162,59921;57;1623,510303
4n;4;A;A_E3;5;2,4;4;yes;50000;n;01/02/2021;15:40;03/02/2021;13:20;2;7004;845;24067,92354;34;968,4134916
5n;5;A;A_G6;5;2,4;4;yes;50000;n;01/02/2021;15:40;03/02/2021;13:20;2;5953;710;20222,60351;27;769,0285842
6n;6;C;C_A5;5;2,4;4;yes;50000;n;01/02/2021;15:40;03/02/2021;13:20;2;7351;1972;56166,90153;19;541,1618301
7n;7;C;C_B8;5;2,4;4;yes;50000;n;01/02/2021;15:40;03/02/2021;13:20;2;7625;2101;59841,00391;20;569,6430644
8n;8;C;C_D10;5;2,4;4;yes;50000;n;01/02/2021;15:40;03/02/2021;13:20;2;8053;2435;69353,92532;13;370,2673631
9n;9;C;C_E3;5;2,4;4;yes;50000;n;01/02/2021;15:40;03/02/2021;13:20;2;8530;2549;72600,39213;25;712,0477847
10n;10;C;C_G6;5;2,4;4;yes;50000;n;01/02/2021;15:40;03/02/2021;13:20;2;6831;2276;64825,12387;25;712,0510091
11n;11;A;A_A5;5;2,4;4;no;50000;n;01/02/2021;15:40;03/02/2021;13:20;2;5375;627;17857,99671;18;512,6697619
12n;12;A;A_B8;5;2,4;4;no;50000;n;01/02/2021;15:40;03/02/2021;13:20;2;5668;822;23411,86612;38;1082,30038
13n;13;A;A_D10;5;2,4;4;no;50000;n;01/02/2021;15:40;03/02/2021;13:20;2;5695;828;23582,88914;38;1082,306506
14n;14;A;A_E3;5;2,4;4;no;50000;n;01/02/2021;15:40;03/02/2021;13:20;2;6184;782;22272,76645;40;1139,271941
15n;15;A;A_G6;5;2,4;4;no;50000;n;01/02/2021;15:40;03/02/2021;13:20;2;5399;859;24465,71261;38;1082,301605
16n;16;C;C_A5;5;2,4;4;no;50000;n;01/02/2021;15:40;03/02/2021;13:20;2;7476;2284;65051,91235;19;541,1498838
17n;17;C;C_B8;5;2,4;4;no;50000;n;01/02/2021;15:40;03/02/2021;13:20;2;7123;2296;65393,50615;21;598,1113367
18n;18;C;C_D10;5;2,4;4;no;50000;n;01/02/2021;15:40;03/02/2021;13:20;2;8668;2479;70605,65919;13;370,2596085
19n;19;C;C_E3;5;2,4;4;no;50000;n;01/02/2021;15:40;03/02/2021;13:20;2;7321;2499;71175,36993;17;484,18619
20n;20;C;C_G6;5;2,4;4;no;50000;n;01/02/2021;15:40;03/02/2021;13:20;2;7052;2387;67985,36042;43;1224,704859
1n;1;A;A_A5;5;2,4;4;yes;50000;n;01/02/2021;15:40;04/02/2021;14:30;3;6389;1347;38366,76343;49;1395,672909
2n;2;A;A_B8;5;2,4;4;yes;50000;n;01/02/2021;15:40;04/02/2021;14:30;3;6998;1517;43208,20908;35;996,8934199
3n;3;A;A_D10;5;2,4;4;yes;50000;n;01/02/2021;15:40;04/02/2021;14:30;3;6639;1739;49531,3336;54;1538,063263
4n;4;A;A_E3;5;2,4;4;yes;50000;n;01/02/2021;15:40;04/02/2021;14:30;3;7360;1846;52579,33462;29;826,0025482
5n;5;A;A_G6;5;2,4;4;yes;50000;n;01/02/2021;15:40;04/02/2021;14:30;3;7397;1500;42723,88279;30;854,4776558
6n;6;C;C_A5;5;2,4;4;yes;50000;n;01/02/2021;15:40;04/02/2021;14:30;3;8221;2748;78268,82414;17;484,1957825
7n;7;C;C_B8;5;2,4;4;yes;50000;n;01/02/2021;15:40;04/02/2021;14:30;3;8399;2914;82996,43072;29;825,9768329
8n;8;C;C_D10;5;2,4;4;yes;50000;n;01/02/2021;15:40;04/02/2021;14:30;3;10051;3642;103731,1213;17;484,1924936
9n;9;C;C_E3;5;2,4;4;yes;50000;n;01/02/2021;15:40;04/02/2021;14:30;3;10100;3506;99856,90305;17;484,1892048
10n;10;C;C_G6;5;2,4;4;yes;50000;n;01/02/2021;15:40;04/02/2021;14:30;3;8323;3014;85844,86966;25;712,0510091
11n;11;A;A_A5;5;2,4;4;no;50000;n;01/02/2021;15:40;04/02/2021;14:30;3;6784;1182;33665,35248;11;313,2985425
12n;12;A;A_B8;5;2,4;4;no;50000;n;01/02/2021;15:40;04/02/2021;14:30;3;5958;1722;49045,51827;28;797,488102
13n;13;A;A_D10;5;2,4;4;no;50000;n;01/02/2021;15:40;04/02/2021;14:30;3;6755;1987;56592,78912;43;1224,705552
14n;14;A;A_E3;5;2,4;4;no;50000;n;01/02/2021;15:40;04/02/2021;14:30;3;6590;1538;43804,90697;36;1025,342426
15n;15;A;A_G6;5;2,4;4;no;50000;n;01/02/2021;15:40;04/02/2021;14:30;3;5976;1843;52491,717;34;968,3767651
16n;16;C;C_A5;5;2,4;4;no;50000;n;01/02/2021;15:40;04/02/2021;14:30;3;7824;3065;87296,07014;17;484,1870122
17n;17;C;C_B8;5;2,4;4;no;50000;n;01/02/2021;15:40;04/02/2021;14:30;3;8060;3283;93504,68605;19;541,148046
18n;18;C;C_D10;5;2,4;4;no;50000;n;01/02/2021;15:40;04/02/2021;14:30;3;9441;3775;107518,12;14;398,7426968
19n;19;C;C_E3;5;2,4;4;no;50000;n;01/02/2021;15:40;04/02/2021;14:30;3;9425;3436;97862,46268;18;512,6671502
20n;20;C;C_G6;5;2,4;4;no;50000;n;01/02/2021;15:40;04/02/2021;14:30;3;8535;3059;87124,98335;40;1139,260979
1n;1;A;A_A5;5;2,4;4;yes;50000;n;01/02/2021;15:40;05/02/2021;14:15;4;7446;2338;66592,89509;36;1025,382474
2n;2;A;A_B8;5;2,4;4;yes;50000;n;01/02/2021;15:40;05/02/2021;14:15;4;7844;2926;83339,95968;46;1310,197589
3n;3;A;A_D10;5;2,4;4;yes;50000;n;01/02/2021;15:40;05/02/2021;14:15;4;6762;3474;98948,73658;51;1452,615304
4n;4;A;A_E3;5;2,4;4;yes;50000;n;01/02/2021;15:40;05/02/2021;14:15;4;8508;3472;98892,49899;32;911,4516036
5n;5;A;A_G6;5;2,4;4;yes;50000;n;01/02/2021;15:40;05/02/2021;14:15;4;7832;3131;89178,47987;43;1224,744374
6n;6;C;C_A5;5;2,4;4;yes;50000;n;01/02/2021;15:40;05/02/2021;14:15;4;10454;3893;110879,8927;23;655,0828495
7n;7;C;C_B8;5;2,4;4;yes;50000;n;01/02/2021;15:40;05/02/2021;14:15;4;10631;3925;111790,7429;36;1025,341845
8n;8;C;C_D10;5;2,4;4;yes;50000;n;01/02/2021;15:40;05/02/2021;14:15;4;11482;4616;131472,6518;32;911,4221962
9n;9;C;C_E3;5;2,4;4;yes;50000;n;01/02/2021;15:40;05/02/2021;14:15;4;12760;4535;129165,0295;17;484,1908492
10n;10;C;C_G6;5;2,4;4;yes;50000;n;01/02/2021;15:40;05/02/2021;14:15;4;10681;3822;108858,6664;34;968,3921132
11n;11;A;A_A5;5;2,4;4;no;50000;n;01/02/2021;15:40;05/02/2021;14:15;4;6345;2080;59241,63796;6;170,8893403
12n;12;A;A_B8;5;2,4;4;no;50000;n;01/02/2021;15:40;05/02/2021;14:15;4;5676;2861;81486,05662;37;1053,821774
13n;13;A;A_D10;5;2,4;4;no;50000;n;01/02/2021;15:40;05/02/2021;14:15;4;5978;3502;99742,69389;35;996,8573062
14n;14;A;A_E3;5;2,4;4;no;50000;n;01/02/2021;15:40;05/02/2021;14:15;4;5916;3024;86128,91002;56;1594,979815
15n;15;A;A_G6;5;2,4;4;no;50000;n;01/02/2021;15:40;05/02/2021;14:15;4;6388;3123;88948,30439;40;1139,267427
16n;16;C;C_A5;5;2,4;4;no;50000;n;01/02/2021;15:40;05/02/2021;14:15;4;10475;4051;115378,525;17;484,1853678
17n;17;C;C_B8;5;2,4;4;no;50000;n;01/02/2021;15:40;05/02/2021;14:15;4;9639;4528;128964,4158;24;683,5569741
18n;18;C;C_D10;5;2,4;4;no;50000;n;01/02/2021;15:40;05/02/2021;14:15;4;10209;5184;147648,4736;16;455,7051653
19n;19;C;C_E3;5;2,4;4;no;50000;n;01/02/2021;15:40;05/02/2021;14:15;4;11671;4592;130786,7162;17;484,1842716
20n;20;C;C_G6;5;2,4;4;no;50000;n;01/02/2021;15:40;05/02/2021;14:15;4;10102;3927;111847,0099;35;996,8539206
1n;1;A;A_A5;5;2,4;4;yes;50000;n;01/02/2021;15:40;08/02/2021;15:00;7;13728;7895;224869,4;42;1196,265332
2n;2;A;A_B8;5;2,4;4;yes;50000;n;01/02/2021;15:40;08/02/2021;15:00;7;11363;11103;316237,1682;52;1481,071129
3n;3;A;A_D10;5;2,4;4;yes;50000;n;01/02/2021;15:40;08/02/2021;15:00;7;11158;11460;328581,0214;56;1605,631518
4n;4;A;A_E3;5;2,4;4;yes;50000;n;01/02/2021;15:40;08/02/2021;15:00;7;12351;10597;301825,3777;41;1167,768282
5n;5;A;A_G6;5;2,4;4;yes;50000;n;01/02/2021;15:40;08/02/2021;15:00;7;11682;11667;332299,7768;29;825,978703
6n;6;C;C_A5;5;2,4;4;yes;50000;n;01/02/2021;15:40;08/02/2021;15:00;7;26632;10897;310368,4425;29;825,9782355
7n;7;C;C_B8;5;2,4;4;yes;50000;n;01/02/2021;15:40;08/02/2021;15:00;7;25731;11439;325806,9818;40;1139,284839
8n;8;C;C_D10;5;2,4;4;yes;50000;n;01/02/2021;15:40;08/02/2021;15:00;7;26842;11040;314440,8357;28;797,4948731
9n;9;C;C_E3;5;2,4;4;yes;50000;n;01/02/2021;15:40;08/02/2021;15:00;7;28774;11422;325316,1566;26;740,5200553
10n;10;C;C_G6;5;2,4;4;yes;50000;n;01/02/2021;15:40;08/02/2021;15:00;7;21280;8842;251835,9201;45;1281,680209
11n;11;A;A_A5;5;2,4;4;no;50000;n;01/02/2021;15:40;08/02/2021;15:00;7;5873;4656;132610,9537;30;854,4520215
12n;12;A;A_B8;5;2,4;4;no;50000;n;01/02/2021;15:40;08/02/2021;15:00;7;4727;5986;170492,046;77;2193,098487
13n;13;A;A_D10;5;2,4;4;no;50000;n;01/02/2021;15:40;08/02/2021;15:00;7;4596;6558;186783,4233;76;2164,614238
14n;14;A;A_E3;5;2,4;4;no;50000;n;01/02/2021;15:40;08/02/2021;15:00;7;4599;5713;162716,4229;84;2392,469723
15n;15;A;A_G6;5;2,4;4;no;50000;n;01/02/2021;15:40;08/02/2021;15:00;7;5219;5965;169893,4474;67;1908,275101
16n;16;C;C_A5;5;2,4;4;no;50000;n;01/02/2021;15:40;08/02/2021;15:00;7;13373;8402;239301,6331;18;512,6671502
17n;17;C;C_B8;5;2,4;4;no;50000;n;01/02/2021;15:40;08/02/2021;15:00;7;12667;8727;248559,3896;28;797,4862963
18n;18;C;C_D10;5;2,4;4;no;50000;n;01/02/2021;15:40;08/02/2021;15:00;7;10885;9757;277895,4926;31;882,9312567
19n;19;C;C_E3;5;2,4;4;no;50000;n;01/02/2021;15:40;08/02/2021;15:00;7;13665;9481;270032,7221;29;825,9623395
20n;20;C;C_G6;5;2,4;4;no;50000;n;01/02/2021;15:40;08/02/2021;15:00;7;14538;8240;234688,5587;58;1651,934029
1n;1;A;A_A5;5;2,4;4;yes;50000;n;01/02/2021;15:40;09/02/2021;17:10;8;16615;;;;
2n;2;A;A_B8;5;2,4;4;yes;50000;n;01/02/2021;15:40;09/02/2021;17:10;8;15158;;;;
3n;3;A;A_D10;5;2,4;4;yes;50000;n;01/02/2021;15:40;09/02/2021;17:10;8;14302;;;;
4n;4;A;A_E3;5;2,4;4;yes;50000;n;01/02/2021;15:40;09/02/2021;17:10;8;15613;;;;
5n;5;A;A_G6;5;2,4;4;yes;50000;n;01/02/2021;15:40;09/02/2021;17:10;8;15284;;;;
6n;6;C;C_A5;5;2,4;4;yes;50000;n;01/02/2021;15:40;09/02/2021;17:10;8;30810;;;;
7n;7;C;C_B8;5;2,4;4;yes;50000;n;01/02/2021;15:40;09/02/2021;17:10;8;31434;;;;
8n;8;C;C_D10;5;2,4;4;yes;50000;n;01/02/2021;15:40;09/02/2021;17:10;8;30950;;;;
9n;9;C;C_E3;5;2,4;4;yes;50000;n;01/02/2021;15:40;09/02/2021;17:10;8;35508;;;;
10n;10;C;C_G6;5;2,4;4;yes;50000;n;01/02/2021;15:40;09/02/2021;17:10;8;26724;;;;
11n;11;A;A_A5;5;2,4;4;no;50000;n;01/02/2021;15:40;09/02/2021;17:10;8;6130;;;;
12n;12;A;A_B8;5;2,4;4;no;50000;n;01/02/2021;15:40;09/02/2021;17:10;8;5367;;;;
13n;13;A;A_D10;5;2,4;4;no;50000;n;01/02/2021;15:40;09/02/2021;17:10;8;5151;;;;
14n;14;A;A_E3;5;2,4;4;no;50000;n;01/02/2021;15:40;09/02/2021;17:10;8;5489;;;;
15n;15;A;A_G6;5;2,4;4;no;50000;n;01/02/2021;15:40;09/02/2021;17:10;8;5781;;;;
16n;16;C;C_A5;5;2,4;4;no;50000;n;01/02/2021;15:40;09/02/2021;17:10;8;12494;;;;
17n;17;C;C_B8;5;2,4;4;no;50000;n;01/02/2021;15:40;09/02/2021;17:10;8;10990;;;;
18n;18;C;C_D10;5;2,4;4;no;50000;n;01/02/2021;15:40;09/02/2021;17:10;8;10014;;;;
19n;19;C;C_E3;5;2,4;4;no;50000;n;01/02/2021;15:40;09/02/2021;17:10;8;12119;;;;
20n;20;C;C_G6;5;2,4;4;no;50000;n;01/02/2021;15:40;09/02/2021;17:10;8;13182;;;;
1n;1;A;A_A5;5;2,4;4;yes;50000;n;01/02/2021;15:40;11/02/2021;15:40;10;20494;;;;
2n;2;A;A_B8;5;2,4;4;yes;50000;n;01/02/2021;15:40;11/02/2021;15:40;10;19066;;;;
3n;3;A;A_D10;5;2,4;4;yes;50000;n;01/02/2021;15:40;11/02/2021;15:40;10;18802;;;;
4n;4;A;A_E3;5;2,4;4;yes;50000;n;01/02/2021;15:40;11/02/2021;15:40;10;19709;;;;
5n;5;A;A_G6;5;2,4;4;yes;50000;n;01/02/2021;15:40;11/02/2021;15:40;10;20593;;;;
6n;6;C;C_A5;5;2,4;4;yes;50000;n;01/02/2021;15:40;11/02/2021;15:40;10;41320;;;;
7n;7;C;C_B8;5;2,4;4;yes;50000;n;01/02/2021;15:40;11/02/2021;15:40;10;40775;;;;
8n;8;C;C_D10;5;2,4;4;yes;50000;n;01/02/2021;15:40;11/02/2021;15:40;10;38867;;;;
9n;9;C;C_E3;5;2,4;4;yes;50000;n;01/02/2021;15:40;11/02/2021;15:40;10;47553;;;;
10n;10;C;C_G6;5;2,4;4;yes;50000;n;01/02/2021;15:40;11/02/2021;15:40;10;36287;;;;
11n;11;A;A_A5;5;2,4;4;no;50000;n;01/02/2021;15:40;11/02/2021;15:40;10;6385;;;;
12n;12;A;A_B8;5;2,4;4;no;50000;n;01/02/2021;15:40;11/02/2021;15:40;10;4977;;;;
13n;13;A;A_D10;5;2,4;4;no;50000;n;01/02/2021;15:40;11/02/2021;15:40;10;4815;;;;
14n;14;A;A_E3;5;2,4;4;no;50000;n;01/02/2021;15:40;11/02/2021;15:40;10;5373;;;;
15n;15;A;A_G6;5;2,4;4;no;50000;n;01/02/2021;15:40;11/02/2021;15:40;10;4839;;;;
16n;16;C;C_A5;5;2,4;4;no;50000;n;01/02/2021;15:40;11/02/2021;15:40;10;11758;;;;
17n;17;C;C_B8;5;2,4;4;no;50000;n;01/02/2021;15:40;11/02/2021;15:40;10;10018;;;;
18n;18;C;C_D10;5;2,4;4;no;50000;n;01/02/2021;15:40;11/02/2021;15:40;10;9224;;;;
19n;19;C;C_E3;5;2,4;4;no;50000;n;01/02/2021;15:40;11/02/2021;15:40;10;10951;;;;
20n;20;C;C_G6;5;2,4;4;no;50000;n;01/02/2021;15:40;11/02/2021;15:40;10;12298;;;;
1n;1;A;A_A5;5;2,4;4;yes;50000;n;01/02/2021;15:40;12/02/2021;10:15;11;22125;14205;404593,1088;64;1822,876379
2n;2;A;A_B8;5;2,4;4;yes;50000;n;01/02/2021;15:40;12/02/2021;10:15;11;20260;20010;569927,5633;60;1708,928226
3n;3;A;A_D10;5;2,4;4;yes;50000;n;01/02/2021;15:40;12/02/2021;10:15;11;20858;21507;612564,2823;57;1623,479058
4n;4;A;A_E3;5;2,4;4;yes;50000;n;01/02/2021;15:40;12/02/2021;10:15;11;20872;17770;506124,1384;67;1908,290223
5n;5;A;A_G6;5;2,4;4;yes;50000;n;01/02/2021;15:40;12/02/2021;10:15;11;21698;20442;582226,903;35;996,8663343
6n;6;C;C_A5;5;2,4;4;yes;50000;n;01/02/2021;15:40;12/02/2021;10:15;11;42466;20965;597123,2723;23;655,0839619
7n;7;C;C_B8;5;2,4;4;yes;50000;n;01/02/2021;15:40;12/02/2021;10:15;11;40641;21202;603871,7762;55;1566,500693
8n;8;C;C_D10;5;2,4;4;yes;50000;n;01/02/2021;15:40;12/02/2021;10:15;11;38505;20687;589203,9668;63;1794,356355
9n;9;C;C_E3;5;2,4;4;yes;50000;n;01/02/2021;15:40;12/02/2021;10:15;11;48031;23247;662110,7489;27;769,0020312
10n;10;C;C_G6;5;2,4;4;yes;50000;n;01/02/2021;15:40;12/02/2021;10:15;11;38472;17160;488750,4294;108;3076,051653
11n;11;A;A_A5;5;2,4;4;no;50000;n;01/02/2021;15:40;12/02/2021;10:15;11;7945;6227;177356,6614;152;4329,24563
12n;12;A;A_B8;5;2,4;4;no;50000;n;01/02/2021;15:40;12/02/2021;10:15;11;5883;7428;211563,039;178;5069,765879
13n;13;A;A_D10;5;2,4;4;no;50000;n;01/02/2021;15:40;12/02/2021;10:15;11;5352;7608;216689,0326;166;4727,967852
14n;14;A;A_E3;5;2,4;4;no;50000;n;01/02/2021;15:40;12/02/2021;10:15;11;6104;6820;194246,4158;211;6009,6765
15n;15;A;A_G6;5;2,4;4;no;50000;n;01/02/2021;15:40;12/02/2021;10:15;11;5833;7089;203253,4306;170;4874,182989
16n;16;C;C_A5;5;2,4;4;no;50000;n;01/02/2021;15:40;12/02/2021;10:15;11;11559;9838;280202,9824;19;541,1523343
17n;17;C;C_B8;5;2,4;4;no;50000;n;01/02/2021;15:40;12/02/2021;10:15;11;10292;10158;289317,2907;15;427,2257689
18n;18;C;C_D10;5;2,4;4;no;50000;n;01/02/2021;15:40;12/02/2021;10:15;11;8767;11314;322243,4334;59;1680,428016
19n;19;C;C_E3;5;2,4;4;no;50000;n;01/02/2021;15:40;12/02/2021;10:15;11;11244;11758;334885,196;45;1281,666425
20n;20;C;C_G6;5;2,4;4;no;50000;n;01/02/2021;15:40;12/02/2021;10:15;11;12301;10609;302161,8613;155;4414,656283
