ID;Flask;Strain;Replicat;Days;S_accli;S_exp;Block;Previous_Dens;Date_Shock;Date_Measure;After_Shock;DunaAlive_SingleCell_Count;DunaAlive_SingleCell_Concentration;DunaDead_SingleCell_Count;DunaDead_SingleCell_Concentration
1f;1;A;A_A2;7;2,4;2,4;f;338341,7963;08/03/2021;08/03/2021;0,04;1148;32697,60444;1;28,48223383
2f;2;A;A_B4;7;2,4;2,4;f;462431,528;08/03/2021;08/03/2021;0,04;1921;54714,03051;0;0
3f;3;A;A_C3;7;2,4;2,4;f;449698,0989;08/03/2021;08/03/2021;0,04;1659;47251,62473;2;56,963984
4f;4;A;A_C7;7;2,4;2,4;f;426346,9244;08/03/2021;08/03/2021;0,04;1621;46169,38743;1;28,48204036
5f;5;A;A_D5;7;2,4;2,4;f;421615,5864;08/03/2021;08/03/2021;0,04;1748;49786,60656;1;28,48204036
6f;6;A;A_D9;7;2,4;2,4;f;410566,0555;08/03/2021;08/03/2021;0,04;1719;48960,8491;0;0
7f;7;A;A_E10;7;2,4;2,4;f;413754,8531;08/03/2021;08/03/2021;0,04;1576;44887,72102;0;0
8f;8;A;A_F11;7;2,4;2,4;f;431039,1473;08/03/2021;08/03/2021;0,04;1538;43805,79961;1;28,48231444
9f;9;A;A_G3;7;2,4;2,4;f;426627,4113;08/03/2021;08/03/2021;0,04;1588;45229,5057;1;28,48205649
10f;10;A;A_H9;7;2,4;2,4;f;442974,4037;08/03/2021;08/03/2021;0,04;1559;44403,50093;1;28,48204036
11f;11;C;C_A2;7;2,4;2,4;f;354309,1616;08/03/2021;08/03/2021;0,04;1357;38907,67062;0;0
12f;12;C;C_B4;7;2,4;2,4;f;463681,8429;08/03/2021;08/03/2021;0,04;1663;47365,39183;0;0
13f;13;C;C_C3;7;2,4;2,4;f;437392,0091;08/03/2021;08/03/2021;0,04;1496;42893,5191;3;86,01641531
14f;14;C;C_C7;7;2,4;2,4;f;722323,6218;08/03/2021;08/03/2021;0,04;2527;72453,9984;0;0
15f;15;C;C_D5;7;2,4;2,4;f;744538,9026;08/03/2021;08/03/2021;0,04;2719;77958,83365;2;57,34375406
16f;16;C;C_D9;7;2,4;2,4;f;491256,8418;08/03/2021;08/03/2021;0,04;1749;50147,57012;0;0
17f;17;C;C_E10;7;2,4;2,4;f;470233,6953;08/03/2021;08/03/2021;0,04;1729;49573,73188;1;28,67190971
18f;18;C;C_F11;7;2,4;2,4;f;282907,1427;08/03/2021;08/03/2021;0,04;1061;30420,82686;0;0
19f;19;C;C_G3;7;2,4;2,4;f;362630,8747;08/03/2021;08/03/2021;0,04;1269;36384,61195;0;0
20f;20;C;C_H9;7;2,4;2,4;f;528645,5757;08/03/2021;08/03/2021;0,04;1933;55422,95937;1;28,67199139
101f;101;A;A_A2;7;2,4;4;f;338341,7963;08/03/2021;08/03/2021;0,04;257;7368,663999;0;0
102f;102;A;A_B4;7;2,4;4;f;462431,528;08/03/2021;08/03/2021;0,04;308;8772,508157;1;28,48216934
103f;103;A;A_C3;7;2,4;4;f;449698,0989;08/03/2021;08/03/2021;0,04;332;9519,111991;0;0
104f;104;A;A_C7;7;2,4;4;f;426346,9244;08/03/2021;08/03/2021;0,04;358;10264,52613;0;0
105f;105;A;A_D5;7;2,4;4;f;421615,5864;08/03/2021;08/03/2021;0,04;340;9683,937576;1;28,48216934
111f;111;C;C_A2;7;2,4;4;f;354309,1616;08/03/2021;08/03/2021;0,04;1290;36986,76352;1;28,67190971
112f;112;C;C_B4;7;2,4;4;f;463681,8429;08/03/2021;08/03/2021;0,04;1629;46706,1417;0;0
113f;113;C;C_C3;7;2,4;4;f;437392,0091;08/03/2021;08/03/2021;0,04;1565;44871,53869;0;0
114f;114;C;C_C7;7;2,4;4;f;722323,6218;08/03/2021;08/03/2021;0,04;2599;74518,08102;1;28,67182802
115f;115;C;C_D5;7;2,4;4;f;744538,9026;08/03/2021;08/03/2021;0,04;2886;82198,42405;4;113,9271297
1f;1;A;A_A2;7;2,4;2,4;f;338341,7963;08/03/2021;15/03/2021;7;33603;957080,9189;41;1167,762333
2f;2;A;A_B4;7;2,4;2,4;f;462431,528;08/03/2021;15/03/2021;7;36386;1036351,627;29;825,9824434
3f;3;A;A_C3;7;2,4;2,4;f;449698,0989;08/03/2021;15/03/2021;7;35911;1022813,92;48;1367,131747
4f;4;A;A_C7;7;2,4;2,4;f;426346,9244;08/03/2021;15/03/2021;7;36190;1030760,373;27;769,0116075
5f;5;A;A_D5;7;2,4;2,4;f;421615,5864;08/03/2021;15/03/2021;7;37020;1054393,794;13;370,2625426
6f;6;A;A_D9;7;2,4;2,4;f;410566,0555;08/03/2021;15/03/2021;7;36275;1033184,26;29;825,977768
7f;7;A;A_E10;7;2,4;2,4;f;413754,8531;08/03/2021;15/03/2021;7;36266;1039806,59;34;974,8365978
8f;8;A;A_F11;7;2,4;2,4;f;431039,1473;08/03/2021;15/03/2021;7;34995;996717,7189;24;683,5612302
9f;9;A;A_G3;7;2,4;2,4;f;426627,4113;08/03/2021;15/03/2021;7;33151;944204,9134;26;740,5305344
10f;10;A;A_H9;7;2,4;2,4;f;442974,4037;08/03/2021;15/03/2021;7;33545;955421,9319;19;541,1541722
11f;11;C;C_A2;7;2,4;2,4;f;354309,1616;08/03/2021;15/03/2021;7;39590;1127588,021;47;1338,636954
12f;12;C;C_B4;7;2,4;2,4;f;463681,8429;08/03/2021;15/03/2021;7;43135;1228566,552;41;1167,757706
13f;13;C;C_C3;7;2,4;2,4;f;437392,0091;08/03/2021;15/03/2021;7;45278;1289618,583;35;996,8781841
14f;14;C;C_C7;7;2,4;2,4;f;722323,6218;08/03/2021;15/03/2021;7;56510;1609517,368;7;199,373944
15f;15;C;C_D5;7;2,4;2,4;f;744538,9026;08/03/2021;15/03/2021;7;51908;1478430,688;16;455,7080027
16f;16;C;C_D9;7;2,4;2,4;f;491256,8418;08/03/2021;15/03/2021;7;46215;1316280,359;21;598,1150608
17f;17;C;C_E10;7;2,4;2,4;f;470233,6953;08/03/2021;15/03/2021;7;46812;1333308,066;13;370,268411
18f;18;C;C_F11;7;2,4;2,4;f;282907,1427;08/03/2021;15/03/2021;7;25402;723496,2845;84;2392,476494
19f;19;C;C_G3;7;2,4;2,4;f;362630,8747;08/03/2021;15/03/2021;7;40637;1157406,985;22;626,5953117
20f;20;C;C_H9;7;2,4;2,4;f;528645,5757;08/03/2021;15/03/2021;7;45608;1299003,015;17;484,1924936
1f;1;A;A_A2;7;2,4;2,4;f;338341,7963;08/03/2021;09/03/2021;1;1597;45485,9472;0;0
2f;2;A;A_B4;7;2,4;2,4;f;462431,528;08/03/2021;09/03/2021;1;2069;58929,7418;0;0
3f;3;A;A_C3;7;2,4;2,4;f;449698,0989;08/03/2021;09/03/2021;1;2213;63030,64829;0;0
4f;4;A;A_C7;7;2,4;2,4;f;426346,9244;08/03/2021;09/03/2021;1;2095;59670,04344;2;56,96424195
5f;5;A;A_D5;7;2,4;2,4;f;421615,5864;08/03/2021;09/03/2021;1;1706;48590,5809;1;28,48216934
6f;6;A;A_D9;7;2,4;2,4;f;410566,0555;08/03/2021;09/03/2021;1;1779;50669,29168;1;28,48189527
7f;7;A;A_E10;7;2,4;2,4;f;413754,8531;08/03/2021;09/03/2021;1;1875;53403,76523;0;0
8f;8;A;A_F11;7;2,4;2,4;f;431039,1473;08/03/2021;09/03/2021;1;1899;54087,73143;2;56,96443542
9f;9;A;A_G3;7;2,4;2,4;f;426627,4113;08/03/2021;09/03/2021;1;1961;55853,376;2;56,96417746
10f;10;A;A_H9;7;2,4;2,4;f;442974,4037;08/03/2021;09/03/2021;1;2031;57846,89301;3;85,44592763
11f;11;C;C_A2;7;2,4;2,4;f;354309,1616;08/03/2021;09/03/2021;1;2393;68157,05963;0;0
12f;12;C;C_B4;7;2,4;2,4;f;463681,8429;08/03/2021;09/03/2021;1;2898;82540,06527;2;56,9634681
13f;13;C;C_C3;7;2,4;2,4;f;437392,0091;08/03/2021;09/03/2021;1;2667;75961,08569;4;113,9273876
14f;14;C;C_C7;7;2,4;2,4;f;722323,6218;08/03/2021;09/03/2021;1;3917;111563,4575;0;0
15f;15;C;C_D5;7;2,4;2,4;f;744538,9026;08/03/2021;09/03/2021;1;4107;116974,548;1;28,48175017
16f;16;C;C_D9;7;2,4;2,4;f;491256,8418;08/03/2021;09/03/2021;1;2881;82056,38671;0;0
17f;17;C;C_E10;7;2,4;2,4;f;470233,6953;08/03/2021;09/03/2021;1;2840;80888,03313;3;85,44510542
18f;18;C;C_F11;7;2,4;2,4;f;282907,1427;08/03/2021;09/03/2021;1;1679;47820,72319;1;28,48166956
19f;19;C;C_G3;7;2,4;2,4;f;362630,8747;08/03/2021;09/03/2021;1;2265;64511,0911;1;28,48171793
20f;20;C;C_H9;7;2,4;2,4;f;528645,5757;08/03/2021;09/03/2021;1;3190;90856,83447;1;28,48176629
1f;1;A;A_A2;7;2,4;2,4;f;338341,7963;08/03/2021;11/03/2021;3;8660;246658,6581;0;0
2f;2;A;A_B4;7;2,4;2,4;f;462431,528;08/03/2021;11/03/2021;3;11214;321526,429;1;28,67187703
3f;3;A;A_C3;7;2,4;2,4;f;449698,0989;08/03/2021;11/03/2021;3;10356;294962,3475;3;85,44679823
4f;4;A;A_C7;7;2,4;2,4;f;426346,9244;08/03/2021;11/03/2021;3;10327;296098,0172;6;172,0333208
5f;5;A;A_D5;7;2,4;2,4;f;421615,5864;08/03/2021;11/03/2021;3;10935;311454,8136;0;0
6f;6;A;A_D9;7;2,4;2,4;f;410566,0555;08/03/2021;11/03/2021;3;10780;307038,8283;2;56,96453215
7f;7;A;A_E10;7;2,4;2,4;f;413754,8531;08/03/2021;11/03/2021;3;9803;279209,2836;2;56,96404849
8f;8;A;A_F11;7;2,4;2,4;f;431039,1473;08/03/2021;11/03/2021;3;9693;276076,8861;1;28,48208873
9f;9;A;A_G3;7;2,4;2,4;f;426627,4113;08/03/2021;11/03/2021;3;10945;311736,2847;4;113,9282904
10f;10;A;A_H9;7;2,4;2,4;f;442974,4037;08/03/2021;11/03/2021;3;10667;303820,1602;2;56,96449991
11f;11;C;C_A2;7;2,4;2,4;f;354309,1616;08/03/2021;11/03/2021;3;9000;258044,3936;1;28,67159929
12f;12;C;C_B4;7;2,4;2,4;f;463681,8429;08/03/2021;11/03/2021;3;10290;295029,4118;2;57,34293719
13f;13;C;C_C3;7;2,4;2,4;f;437392,0091;08/03/2021;11/03/2021;3;9602;273480,9911;4;113,9266782
14f;14;C;C_C7;7;2,4;2,4;f;722323,6218;08/03/2021;11/03/2021;3;14530;416597,863;0;0
15f;15;C;C_D5;7;2,4;2,4;f;744538,9026;08/03/2021;11/03/2021;3;13223;379128,446;2;57,34378674
16f;16;C;C_D9;7;2,4;2,4;f;491256,8418;08/03/2021;11/03/2021;3;8957;255110,3143;2;56,96333912
17f;17;C;C_E10;7;2,4;2,4;f;470233,6953;08/03/2021;11/03/2021;3;9779;280379,4097;10;286,7158296
18f;18;C;C_F11;7;2,4;2,4;f;282907,1427;08/03/2021;11/03/2021;3;4306;123460,4693;4;114,68692
19f;19;C;C_G3;7;2,4;2,4;f;362630,8747;08/03/2021;11/03/2021;3;7977;228713,7385;1;28,6716483
20f;20;C;C_H9;7;2,4;2,4;f;528645,5757;08/03/2021;11/03/2021;3;11474;326799,2315;5;142,4085896
1f;1;A;A_A2;7;2,4;2,4;f;338341,7963;08/03/2021;12/03/2021;4;16605;472944,8157;14;398,7490165
2f;2;A;A_B4;7;2,4;2,4;f;462431,528;08/03/2021;12/03/2021;4;20478;583252,5814;23;655,0839619
3f;3;A;A_C3;7;2,4;2,4;f;449698,0989;08/03/2021;12/03/2021;4;19703;561188,9474;18;512,6834012
4f;4;A;A_C7;7;2,4;2,4;f;426346,9244;08/03/2021;12/03/2021;4;19753;562603,1957;18;512,674405
5f;5;A;A_D5;7;2,4;2,4;f;421615,5864;08/03/2021;12/03/2021;4;19246;548162,246;12;341,7825497
6f;6;A;A_D9;7;2,4;2,4;f;410566,0555;08/03/2021;12/03/2021;4;18769;534575,1793;20;569,6362932
7f;7;A;A_E10;7;2,4;2,4;f;413754,8531;08/03/2021;12/03/2021;4;18880;537738,487;12;341,7829367
8f;8;A;A_F11;7;2,4;2,4;f;431039,1473;08/03/2021;12/03/2021;4;19116;544460,2181;14;398,7467594
9f;9;A;A_G3;7;2,4;2,4;f;426627,4113;08/03/2021;12/03/2021;4;18370;523213,8969;20;569,6395175
10f;10;A;A_H9;7;2,4;2,4;f;442974,4037;08/03/2021;12/03/2021;4;19592;558011,9225;10;284,816212
11f;11;C;C_A2;7;2,4;2,4;f;354309,1616;08/03/2021;12/03/2021;4;16989;483873,9886;24;683,5585218
12f;12;C;C_B4;7;2,4;2,4;f;463681,8429;08/03/2021;12/03/2021;4;21620;619875,385;22;630,770512
13f;13;C;C_C3;7;2,4;2,4;f;437392,0091;08/03/2021;12/03/2021;4;18731;533492,8704;26;740,5271811
14f;14;C;C_C7;7;2,4;2,4;f;722323,6218;08/03/2021;12/03/2021;4;27936;795663,0201;58;1651,934964
15f;15;C;C_D5;7;2,4;2,4;f;744538,9026;08/03/2021;12/03/2021;4;24057;685187,7909;43;1224,719417
16f;16;C;C_D9;7;2,4;2,4;f;491256,8418;08/03/2021;12/03/2021;4;15515;441892,3529;23;655,0772875
17f;17;C;C_E10;7;2,4;2,4;f;470233,6953;08/03/2021;12/03/2021;4;18515;527338,1119;43;1224,711791
18f;18;C;C_F11;7;2,4;2,4;f;282907,1427;08/03/2021;12/03/2021;4;6612;188320,586;10;284,8163732
19f;19;C;C_G3;7;2,4;2,4;f;362630,8747;08/03/2021;12/03/2021;4;16282;463737,2313;10;284,8158895
20f;20;C;C_H9;7;2,4;2,4;f;528645,5757;08/03/2021;12/03/2021;4;21488;612014,8084;23;655,0791415
1f;1;A;A_A2;7;2,4;2,4;f;338341,7963;08/03/2021;17/03/2021;9;38700;1102265,569;79;2250,102841
2f;2;A;A_B4;7;2,4;2,4;f;462431,528;08/03/2021;17/03/2021;9;40962;1166686,621;80;2278,573547
3f;3;A;A_C3;7;2,4;2,4;f;449698,0989;08/03/2021;17/03/2021;9;38893;1107758,893;91;2591,881811
4f;4;A;A_C7;7;2,4;2,4;f;426346,9244;08/03/2021;17/03/2021;9;40358;1149491,198;85;2421,000839
5f;5;A;A_D5;7;2,4;2,4;f;421615,5864;08/03/2021;17/03/2021;9;41472;1181197,149;73;2079,171293
6f;6;A;A_D9;7;2,4;2,4;f;410566,0555;08/03/2021;17/03/2021;9;40467;1160270,137;49;1404,928379
7f;7;A;A_E10;7;2,4;2,4;f;413754,8531;08/03/2021;17/03/2021;9;39181;1115973,143;76;2164,670601
8f;8;A;A_F11;7;2,4;2,4;f;431039,1473;08/03/2021;17/03/2021;9;39669;1129856,617;57;1623,479977
9f;9;A;A_G3;7;2,4;2,4;f;426627,4113;08/03/2021;17/03/2021;9;37422;1065863,964;68;1936,795189
10f;10;A;A_H9;7;2,4;2,4;f;442974,4037;08/03/2021;17/03/2021;9;38150;1086592,3;46;1310,176823
11f;11;C;C_A2;7;2,4;2,4;f;354309,1616;08/03/2021;17/03/2021;9;54748;1559340,042;14;398,7499194
12f;12;C;C_B4;7;2,4;2,4;f;463681,8429;08/03/2021;17/03/2021;9;52670;1500153,312;33;939,9099922
13f;13;C;C_C3;7;2,4;2,4;f;437392,0091;08/03/2021;17/03/2021;9;55293;1574850,326;7;199,3733797
14f;14;C;C_C7;7;2,4;2,4;f;722323,6218;08/03/2021;17/03/2021;9;64172;1827765,013;4;113,9291288
15f;15;C;C_D5;7;2,4;2,4;f;744538,9026;08/03/2021;17/03/2021;9;65017;1851830,445;4;113,9289998
16f;16;C;C_D9;7;2,4;2,4;f;491256,8418;08/03/2021;17/03/2021;9;59209;1686384,537;15;427,228429
17f;17;C;C_E10;7;2,4;2,4;f;470233,6953;08/03/2021;17/03/2021;9;57818;1646782,067;14;398,7503708
18f;18;C;C_F11;7;2,4;2,4;f;282907,1427;08/03/2021;17/03/2021;9;46254;1317394,127;39;1110,787628
19f;19;C;C_G3;7;2,4;2,4;f;362630,8747;08/03/2021;17/03/2021;9;54065;1539888,485;6;170,8930161
20f;20;C;C_H9;7;2,4;2,4;f;528645,5757;08/03/2021;17/03/2021;9;57009;1623724,367;12;341,7827432
101f;101;A;A_A2;7;2,4;4;f;338341,7963;08/03/2021;09/03/2021;1;223;6393,854081;17;487,4238537
102f;102;A;A_B4;7;2,4;4;f;462431,528;08/03/2021;09/03/2021;1;277;7942,123514;28;802,8139292
103f;103;A;A_C3;7;2,4;4;f;449698,0989;08/03/2021;09/03/2021;1;251;7196,673941;39;1118,208302
104f;104;A;A_C7;7;2,4;4;f;426346,9244;08/03/2021;09/03/2021;1;272;7798,737221;39;1118,201293
105f;105;A;A_D5;7;2,4;4;f;421615,5864;08/03/2021;09/03/2021;1;253;7254,017956;22;630,7841701
111f;111;C;C_A2;7;2,4;4;f;354309,1616;08/03/2021;09/03/2021;1;1318;37789,1248;7;200,7009663
112f;112;C;C_B4;7;2,4;4;f;463681,8429;08/03/2021;09/03/2021;1;1634;46538,83732;13;370,2600277
113f;113;C;C_C3;7;2,4;4;f;437392,0091;08/03/2021;09/03/2021;1;1658;47537,40328;15;430,0730091
114f;114;C;C_C7;7;2,4;4;f;722323,6218;08/03/2021;09/03/2021;1;2585;74115,61962;17;487,4141329
115f;115;C;C_D5;7;2,4;4;f;744538,9026;08/03/2021;09/03/2021;1;2739;78531,28672;19;544,7588345
101f;101;A;A_A2;7;2,4;4;f;338341,7963;08/03/2021;11/03/2021;3;811;23252,95852;12;344,0635046
102f;102;A;A_B4;7;2,4;4;f;462431,528;08/03/2021;11/03/2021;3;1419;40685,83399;37;1060,870936
103f;103;A;A_C3;7;2,4;4;f;449698,0989;08/03/2021;11/03/2021;3;1715;49172,57732;20;573,4411349
104f;104;A;A_C7;7;2,4;4;f;426346,9244;08/03/2021;11/03/2021;3;1741;49918,22146;43;1232,902655
105f;105;A;A_D5;7;2,4;4;f;421615,5864;08/03/2021;11/03/2021;3;1470;42147,92342;29;831,4896456
111f;111;C;C_A2;7;2,4;4;f;354309,1616;08/03/2021;11/03/2021;3;2467;70264,11972;11;313,2976558
112f;112;C;C_B4;7;2,4;4;f;463681,8429;08/03/2021;11/03/2021;3;2980;85441,12247;17;487,4157993
113f;113;C;C_C3;7;2,4;4;f;437392,0091;08/03/2021;11/03/2021;3;2508;71431,86553;8;227,8528406
114f;114;C;C_C7;7;2,4;4;f;722323,6218;08/03/2021;11/03/2021;3;3984;114226,7404;12;344,0564469
115f;115;C;C_D5;7;2,4;4;f;744538,9026;08/03/2021;11/03/2021;3;4135;117771,9036;25;712,0429482
101f;101;A;A_A2;7;2,4;4;f;338341,7963;08/03/2021;12/03/2021;4;2930;83453,27579;16;455,717547
102f;102;A;A_B4;7;2,4;4;f;462431,528;08/03/2021;12/03/2021;4;3645;103817,5073;33;939,9115883
103f;103;A;A_C3;7;2,4;4;f;449698,0989;08/03/2021;12/03/2021;4;3501;99716,97798;30;854,472819
104f;104;A;A_C7;7;2,4;4;f;426346,9244;08/03/2021;12/03/2021;4;3530;100542,1716;43;1224,734668
105f;105;A;A_D5;7;2,4;4;f;421615,5864;08/03/2021;12/03/2021;4;4001;113956,192;32;911,4216803
111f;111;C;C_A2;7;2,4;4;f;354309,1616;08/03/2021;12/03/2021;4;3365;95840,98082;17;484,1892048
112f;112;C;C_B4;7;2,4;4;f;463681,8429;08/03/2021;12/03/2021;4;4116;117229,822;15;427,2223834
113f;113;C;C_C3;7;2,4;4;f;437392,0091;08/03/2021;12/03/2021;4;3433;97777,79299;17;484,1894788
114f;114;C;C_C7;7;2,4;4;f;722323,6218;08/03/2021;12/03/2021;4;5484;156193,2106;16;455,7059392
115f;115;C;C_D5;7;2,4;4;f;744538,9026;08/03/2021;12/03/2021;4;5453;155310,4562;22;626,5963757
101f;101;A;A_A2;7;2,4;4;f;338341,7963;08/03/2021;15/03/2021;7;12793;364366,4112;32;911,4144578
102f;102;A;A_B4;7;2,4;4;f;462431,528;08/03/2021;15/03/2021;7;13587;386981,1015;49;1395,604178
103f;103;A;A_C3;7;2,4;4;f;449698,0989;08/03/2021;15/03/2021;7;14932;425288,7714;39;1110,78637
104f;104;A;A_C7;7;2,4;4;f;426346,9244;08/03/2021;15/03/2021;7;13119;373655,253;42;1196,243664
105f;105;A;A_D5;7;2,4;4;f;421615,5864;08/03/2021;15/03/2021;7;13505;384647,7779;37;1053,829528
111f;111;C;C_A2;7;2,4;4;f;354309,1616;08/03/2021;15/03/2021;7;8448;240614,0978;21;598,1174307
112f;112;C;C_B4;7;2,4;4;f;463681,8429;08/03/2021;15/03/2021;7;11883;338447,6794;7;199,3716869
113f;113;C;C_C3;7;2,4;4;f;437392,0091;08/03/2021;15/03/2021;7;7375;210053,3831;38;1082,308957
114f;114;C;C_C7;7;2,4;4;f;722323,6218;08/03/2021;15/03/2021;7;13092;372882,8622;29;825,9702874
115f;115;C;C_D5;7;2,4;4;f;744538,9026;08/03/2021;15/03/2021;7;13355;380372,2664;42;1196,228767
101f;101;A;A_A2;7;2,4;4;f;338341,7963;08/03/2021;17/03/2021;9;20342;579375,434;31;882,9337555
102f;102;A;A_B4;7;2,4;4;f;462431,528;08/03/2021;17/03/2021;9;20808;592646,9157;48;1367,120913
103f;103;A;A_C3;7;2,4;4;f;449698,0989;08/03/2021;17/03/2021;9;23149;659325,5275;48;1367,127104
104f;104;A;A_C7;7;2,4;4;f;426346,9244;08/03/2021;17/03/2021;9;20725;590283,604;56;1594,976204
105f;105;A;A_D5;7;2,4;4;f;421615,5864;08/03/2021;17/03/2021;9;20916;595723,275;45;1281,676581
111f;111;C;C_A2;7;2,4;4;f;354309,1616;08/03/2021;17/03/2021;9;14179;403844,1072;57;1623,465273
112f;112;C;C_B4;7;2,4;4;f;463681,8429;08/03/2021;17/03/2021;9;19909;567040,5964;54;1538,007545
113f;113;C;C_C3;7;2,4;4;f;437392,0091;08/03/2021;17/03/2021;9;11669;332353,5427;63;1794,350261
114f;114;C;C_C7;7;2,4;4;f;722323,6218;08/03/2021;17/03/2021;9;20700;593498,3854;57;1634,270916
115f;115;C;C_D5;7;2,4;4;f;744538,9026;08/03/2021;17/03/2021;9;21003;602186,5117;71;2035,67311
101f;101;A;A_A2;7;2,4;4;f;338341,7963;08/03/2021;18/03/2021;10;4738;698150,1817;8;1178,809931
102f;102;A;A_B4;7;2,4;4;f;462431,528;08/03/2021;18/03/2021;10;4740;701128,4072;4;591,669542
103f;103;A;A_C3;7;2,4;4;f;449698,0989;08/03/2021;18/03/2021;10;4778;779915,8904;16;2611,68988
104f;104;A;A_C7;7;2,4;4;f;426346,9244;08/03/2021;18/03/2021;10;4667;695270,4504;13;1936,686491
105f;105;A;A_D5;7;2,4;4;f;421615,5864;08/03/2021;18/03/2021;10;4700;698457,8701;7;1040,256402
111f;111;C;C_A2;7;2,4;4;f;354309,1616;08/03/2021;18/03/2021;10;4764;496042,4106;13;1353,600197
112f;112;C;C_B4;7;2,4;4;f;463681,8429;08/03/2021;18/03/2021;10;4826;689322,0613;10;1428,350728
113f;113;C;C_C3;7;2,4;4;f;437392,0091;08/03/2021;18/03/2021;10;4654;420924,8692;22;1989,760877
114f;114;C;C_C7;7;2,4;4;f;722323,6218;08/03/2021;18/03/2021;10;4846;757716,6654;4;625,4367853
115f;115;C;C_D5;7;2,4;4;f;744538,9026;08/03/2021;18/03/2021;10;4834;771847,7123;16;2554,729706
