transfer;measure_date;layout;after_shock;days
1;2021_03_15;;0.001;0.001
1;2021_03_15;;0.04;0.04
1;2021_03_22;;7;7
2;2021_03_22;;0.001;7.001
2;2021_03_22;6;0.04;7.04
2;2021_03_23;1;1;8
2;2021_03_24;1;2;9
2;2021_03_25;1;3;10
2;2021_03_26;1;4;11
2;2021_03_29;5;7;14
3;2021_03_29;;0.001;14.001
3;2021_03_29;;0.04;14.04
3;2021_04_05;;7;21
4;2021_04_05;;0.001;21.001
4;2021_04_05;7;0.04;21.04
4;2021_04_06;1;1;22
4;2021_04_07;1;2;23
4;2021_04_08;1;3;24
4;2021_04_09;1;4;25
4;2021_04_12;1;7;28
5;2021_04_12;;0.001;28.001
5;2021_04_12;;0.04;28.04
5;2021_04_19;;7;35
6;2021_04_19;;0.001;35.001
6;2021_04_19;8;0.04;35.04
6;2021_04_20;9;1;36
6;2021_04_21;1;2;37
6;2021_04_22;1;3;38
6;2021_04_23;1;4;39
6;2021_04_26;1;7;42
7;2021_04_26;;0.001;42.001
7;2021_04_26;;0.04;42.04
7;2021_05_03;;7;49
8;2021_05_03;1;0.001;49.001
8;2021_05_03;1;0.04;49.04
8;2021_05_04;1;1;50
8;2021_05_05;1;2;51
8;2021_05_06;1;3;52
8;2021_05_07;1;4;53
8;2021_05_10;1;7;56
9;2021_05_10;;0.001;56.001
9;2021_05_10;;0.04;56.04
9;2021_05_17;;7;63
10;2021_05_17;;0.001;63.001
10;2021_05_17;1;0.04;63.04
10;2021_05_18;1;1;64
10;2021_05_19;1;2;65
10;2021_05_20;1;3;66
10;2021_05_21;4;4;67
10;2021_05_25;4;8;71
